<?xml version="1.0" standalone="no"?>
<!DOCTYPE svg PUBLIC "-//W3C//DTD SVG 1.1//EN" "http://www.w3.org/Graphics/SVG/1.1/DTD/svg11.dtd" >
<svg>
<metadata>
Created by FontForge 20090622 at Wed Jan 31 08:51:49 2018
 By deploy user
Font software Copyright &#194;&#169; 2012 Intel Corporation. Licensed under the Apache License, Version 2.0.  http://www.apache.org/licenses/LICENSE-2.0
</metadata>
<defs>
<font id="ClearSans-Light" horiz-adv-x="1180" >
  <font-face 
    font-family="Clear Sans Light"
    font-weight="300"
    font-stretch="normal"
    units-per-em="2048"
    panose-1="2 11 3 3 3 2 2 2 3 4"
    ascent="1489"
    descent="-559"
    x-height="1049"
    cap-height="1384"
    bbox="-141 -395 1927 1905"
    underline-thickness="102"
    underline-position="-103"
    unicode-range="U+000D-U+0491"
  />
<missing-glyph horiz-adv-x="1024" 
d="M25 1362h972v-1362h-972v1362zM512 768l330 498h-662zM123 186l14 21l37.5 55.5l53 79l60.5 91.5l165 249l-330 496v-992zM569 682l332 -498v994zM512 594l-332 -496h662z" />
    <glyph glyph-name="f_f" unicode="ff" horiz-adv-x="1239" 
d="M1282 1364q-14 8 -33.5 16t-41 14t-44 9.5t-43.5 3.5q-46 0 -77 -13t-50 -42t-27 -76t-8 -115v-112h244v-111h-244v-938h-129v938h-164v111h164v116q0 91 15 158t49.5 111t90 65t136.5 21q60 0 114.5 -14.5t90.5 -32.5zM664 1364q-14 8 -33.5 16t-41 14t-44 9.5
t-43.5 3.5q-46 0 -77 -13t-50 -42t-27 -76t-8 -115v-112h244v-111h-244v-938h-129v938h-164v111h164v116q0 91 15 158t49.5 111t90 65t136.5 21q60 0 114.5 -14.5t90.5 -32.5z" />
    <glyph glyph-name="fi" unicode="fi" horiz-adv-x="1110" 
d="M664 1364q-14 8 -33.5 16t-41 14t-44 9.5t-43.5 3.5q-46 0 -77 -13t-50 -42t-27 -76t-8 -115v-112h244v-111h-244v-938h-129v938h-164v111h164v116q0 91 15 158t49.5 111t90 65t136.5 21q60 0 114.5 -14.5t90.5 -32.5zM954 1305q0 -51 -21.5 -69.5t-70.5 -18.5
q-51 0 -70.5 23t-19.5 65q0 45 20 65.5t70 20.5q51 0 71.5 -20t20.5 -66zM798 0v1049h129v-1049h-129z" />
    <glyph glyph-name="fl" unicode="fl" horiz-adv-x="1135" 
d="M664 1364q-14 8 -33.5 16t-41 14t-44 9.5t-43.5 3.5q-46 0 -77 -13t-50 -42t-27 -76t-8 -115v-112h244v-111h-244v-938h-129v938h-164v111h164v116q0 91 15 158t49.5 111t90 65t136.5 21q60 0 114.5 -14.5t90.5 -32.5zM811 0v1489h129v-1489h-129z" />
    <glyph glyph-name="f_f_i" unicode="ffi" horiz-adv-x="1729" 
d="M664 1364q-14 8 -33.5 16t-41 14t-44 9.5t-43.5 3.5q-46 0 -77 -13t-50 -42t-27 -76t-8 -115v-112h244v-111h-244v-938h-129v938h-164v111h164v116q0 91 15 158t49.5 111t90 65t136.5 21q60 0 114.5 -14.5t90.5 -32.5zM1282 1364q-14 8 -33.5 16t-41 14t-44 9.5
t-43.5 3.5q-46 0 -77 -13t-50 -42t-27 -76t-8 -115v-112h244v-111h-244v-938h-129v938h-164v111h164v116q0 91 15 158t49.5 111t90 65t136.5 21q60 0 114.5 -14.5t90.5 -32.5zM1573 1305q0 -51 -21.5 -69.5t-70.5 -18.5q-51 0 -70.5 23t-19.5 65q0 45 20 65.5t70 20.5
q51 0 71.5 -20t20.5 -66zM1417 0v1049h129v-1049h-129z" />
    <glyph glyph-name="f_f_l" unicode="ffl" horiz-adv-x="1753" 
d="M664 1364q-14 8 -33.5 16t-41 14t-44 9.5t-43.5 3.5q-46 0 -77 -13t-50 -42t-27 -76t-8 -115v-112h244v-111h-244v-938h-129v938h-164v111h164v116q0 91 15 158t49.5 111t90 65t136.5 21q60 0 114.5 -14.5t90.5 -32.5zM1282 1364q-14 8 -33.5 16t-41 14t-44 9.5
t-43.5 3.5q-46 0 -77 -13t-50 -42t-27 -76t-8 -115v-112h244v-111h-244v-938h-129v938h-164v111h164v116q0 91 15 158t49.5 111t90 65t136.5 21q60 0 114.5 -14.5t90.5 -32.5zM1430 0v1489h129v-1489h-129z" />
    <glyph glyph-name=".notdef" horiz-adv-x="1024" 
d="M25 1362h972v-1362h-972v1362zM512 768l330 498h-662zM123 186l14 21l37.5 55.5l53 79l60.5 91.5l165 249l-330 496v-992zM569 682l332 -498v994zM512 594l-332 -496h662z" />
    <glyph glyph-name="NULL" horiz-adv-x="0" 
 />
    <glyph glyph-name="NULL" horiz-adv-x="0" 
 />
    <glyph glyph-name="nonmarkingreturn" unicode="&#xd;" horiz-adv-x="539" 
 />
    <glyph glyph-name="space" unicode=" " horiz-adv-x="539" 
 />
    <glyph glyph-name="exclam" unicode="!" horiz-adv-x="541" 
d="M326 379h-107l-24 1005h149zM371 78q0 -53 -25 -72.5t-78 -19.5q-29 0 -48.5 6t-31 18t-16 29t-4.5 39q0 49 23 70.5t77 21.5q57 0 80 -22t23 -70z" />
    <glyph glyph-name="quotedbl" unicode="&#x22;" horiz-adv-x="892" 
d="M326 932h-94l-35 520h166zM658 932h-94l-35 520h166z" />
    <glyph glyph-name="numbersign" unicode="#" horiz-adv-x="1466" 
d="M1059 891l-107 -399h279v-95h-307l-107 -397h-102l104 397h-336l-106 -397h-101l105 397h-262v95h289l108 399h-280v96h305l104 397h103l-105 -397h336l106 397h103l-105 -397h265v-96h-289zM618 891l-110 -399h340l108 399h-338z" />
    <glyph glyph-name="dollar" unicode="$" horiz-adv-x="1255" 
d="M1077 416q0 -81 -30 -142t-81.5 -102.5t-121.5 -63.5t-150 -26v-215h-102v215q-83 4 -146 28t-110 58.5t-80 75.5t-57 80l106 61q16 -32 40.5 -64t59 -59t81 -46.5t106.5 -25.5v476q-100 21 -169.5 50.5t-113 69t-63 89.5t-19.5 112t21 118.5t65.5 100.5t113.5 71.5
t165 31.5v104h102v-104q72 -4 129.5 -21t103 -46t80.5 -69.5t64 -91.5l-108 -59q-19 37 -43.5 68t-57 55t-74.5 38.5t-94 18.5v-438q78 -18 148 -43t122 -65t82.5 -98t30.5 -142zM592 1202q-66 -4 -111 -21t-73 -44.5t-40 -65t-12 -82.5q0 -48 20 -81t53 -56t75.5 -38
t87.5 -26v414zM948 414q0 88 -61 142.5t-193 86.5v-453q48 3 93.5 17t81 40.5t57.5 67.5t22 99z" />
    <glyph glyph-name="percent" unicode="%" horiz-adv-x="2052" 
d="M1573 -31q-94 0 -161 27.5t-110 82t-63 137t-20 192.5q0 224 90 331t264 107q181 0 267.5 -112.5t86.5 -325.5q0 -439 -354 -439zM565 -51l799 1487h125l-801 -1487h-123zM477 537q-185 0 -269.5 107.5t-84.5 330.5q0 224 90.5 331t263.5 107q181 0 269 -114t88 -324
q0 -218 -88.5 -328t-268.5 -110zM1573 72q63 0 105.5 20.5t69 62.5t37.5 105t11 148q0 67 -8 127t-32 106t-68 73t-115 27q-65 0 -108 -21t-68.5 -63t-36 -104.5t-10.5 -144.5q0 -85 10.5 -148t36 -105t68.5 -62.5t108 -20.5zM477 639q64 0 107 21t69 63t37.5 105t11.5 147
q0 66 -8.5 126.5t-32.5 106.5t-68 73.5t-116 27.5q-65 0 -108 -21.5t-68 -63.5t-35 -104.5t-10 -144.5q0 -86 10.5 -149.5t35.5 -105t67.5 -61.5t107.5 -20z" />
    <glyph glyph-name="ampersand" unicode="&#x26;" horiz-adv-x="1430" 
d="M1155 0l-104 123q-39 -32 -82.5 -59.5t-93.5 -48t-109.5 -32.5t-130.5 -12q-117 0 -205.5 28.5t-148.5 79t-90.5 120.5t-30.5 153q0 72 18.5 126.5t59 102.5t105.5 94.5t157 100.5q-44 51 -76.5 95.5t-54.5 85t-32.5 77.5t-10.5 74q0 152 89.5 228.5t262.5 76.5
q81 0 141.5 -20.5t101 -56t60.5 -83.5t20 -102q0 -62 -21 -116.5t-60.5 -103.5t-97.5 -93.5t-132 -87.5l371 -439q42 53 79 127t62 170l121 -30q-28 -116 -77 -210t-103 -153l184 -215h-172zM868 1149q0 34 -12 63t-36.5 50t-61.5 33t-86 12q-69 0 -111 -19t-64.5 -48
t-30 -63t-7.5 -65q0 -60 40 -123.5t115 -148.5q72 40 121 79.5t78.5 78t42 76t12.5 75.5zM578 686q-91 -54 -146 -95t-85 -78t-40 -75t-10 -86q0 -65 26.5 -114.5t72.5 -84t108.5 -52t134.5 -17.5q108 0 191.5 37.5t142.5 93.5z" />
    <glyph glyph-name="quotesingle" unicode="'" horiz-adv-x="561" 
d="M328 932h-95l-36 520h165z" />
    <glyph glyph-name="parenleft" unicode="(" horiz-adv-x="766" 
d="M518 -395q-91 111 -156.5 220.5t-108 225t-63 241t-20.5 269.5t21.5 273.5t64.5 247t108.5 226t153.5 210.5h146q-95 -94 -164.5 -204t-115.5 -232t-68.5 -253.5t-22.5 -267.5q0 -135 22 -260.5t67.5 -243.5t115.5 -230.5t166 -221.5h-146z" />
    <glyph glyph-name="parenright" unicode=")" horiz-adv-x="797" 
d="M131 -395q193 213 282 449.5t89 506.5q0 275 -90.5 517t-280.5 440h145q88 -102 154 -210.5t110 -226t65.5 -247t21.5 -273.5q0 -147 -22 -274.5t-66 -243t-109.5 -223.5t-153.5 -215h-145z" />
    <glyph glyph-name="asterisk" unicode="*" horiz-adv-x="967" 
d="M799 938l-275 160l4 -273h-92l4 273l-272 -160l-45 78l285 155l-285 156l45 78l272 -158l-4 273h92l-4 -273l275 158l45 -78l-287 -156l287 -155z" />
    <glyph glyph-name="plus" unicode="+" horiz-adv-x="1427" 
d="M766 528v-477h-111v477h-477v111h477v481h111v-481h481v-111h-481z" />
    <glyph glyph-name="comma" unicode="," horiz-adv-x="541" 
d="M186 -272q20 22 35.5 54t26 67t15.5 71t5 66q-55 0 -75.5 22t-20.5 70q0 46 22 69t74 23q101 0 101 -115q0 -56 -10.5 -107.5t-26 -95t-34.5 -75.5t-36 -49h-76z" />
    <glyph glyph-name="hyphen" unicode="-" horiz-adv-x="848" 
d="M113 463v127h622v-127h-622z" />
    <glyph glyph-name="period" unicode="." horiz-adv-x="541" 
d="M369 78q0 -53 -25 -72.5t-76 -19.5q-55 0 -75.5 23.5t-20.5 68.5q0 48 22 70t74 22q54 0 77.5 -21.5t23.5 -70.5z" />
    <glyph glyph-name="slash" unicode="/" horiz-adv-x="952" 
d="M139 -299h-121l727 1819h123z" />
    <glyph glyph-name="zero" unicode="0" horiz-adv-x="1255" 
d="M1118 688q0 -368 -119.5 -543.5t-371.5 -175.5q-126 0 -218.5 42.5t-152.5 131t-89.5 223.5t-29.5 320t29.5 320.5t89.5 223.5t152.5 130.5t218.5 42.5t218.5 -42.5t153 -130.5t90 -223t29.5 -319zM973 688q0 157 -21 269.5t-64 185t-108 107t-153 34.5q-91 0 -156.5 -35
t-107.5 -108.5t-62 -186.5t-20 -268q0 -156 21 -269t63.5 -186t107.5 -108t154 -35q88 0 153 35t108 108.5t64 186.5t21 270z" />
    <glyph glyph-name="one" unicode="1" horiz-adv-x="1255" 
d="M631 0v1128q-28 -30 -66 -53.5t-82 -39t-91.5 -23.5t-94.5 -8v112q80 4 142 27t107.5 59.5t75 83.5t44.5 98h98v-1384h-133z" />
    <glyph glyph-name="two" unicode="2" 
d="M156 0v143l160.5 141.5l165.5 157l152.5 155.5t119.5 138q46 62 76 130.5t30 156.5q0 67 -21.5 118t-59.5 84.5t-90.5 50.5t-113.5 17q-112 0 -187 -48.5t-122 -133.5l-114 68q18 35 49.5 76t83 76.5t124.5 59t173 23.5q85 0 162 -21t135 -67.5t92.5 -120t34.5 -178.5
q0 -59 -12 -111t-34.5 -99.5t-54 -93t-71.5 -91.5l-92 -100.5l-111 -113.5l-141 -133.5l-181 -160.5h742v-123h-895z" />
    <glyph glyph-name="three" unicode="3" 
d="M1008 397q0 -106 -32 -185.5t-93.5 -133t-150.5 -80.5t-204 -27q-61 0 -122.5 13t-116 38t-98.5 61t-70 81l106 72q21 -31 52.5 -57.5t70 -46t83 -31t91.5 -11.5q87 0 151 18t106 56.5t62.5 98.5t20.5 143q0 136 -84 206t-268 70h-92v119h76q77 0 140.5 17t108.5 50
t70 82t25 113q0 117 -74.5 173t-206.5 56q-111 0 -187.5 -43.5t-127.5 -124.5l-113 72q25 42 62.5 81t90 69t122.5 48.5t161 18.5q110 0 188.5 -26t129 -71t74.5 -105.5t24 -129.5q0 -137 -70 -216.5t-204 -114.5q64 -6 118.5 -31.5t94.5 -69.5t63 -107t23 -145z" />
    <glyph glyph-name="four" unicode="4" horiz-adv-x="1255" 
d="M920 346v-346h-132v346h-722v133l743 905h111v-919h200v-119h-200zM788 1171l-585 -706h585v706z" />
    <glyph glyph-name="five" unicode="5" 
d="M1016 436q0 -108 -30.5 -194.5t-90 -146.5t-147 -92t-201.5 -32q-75 0 -139 15.5t-115.5 42t-89.5 61t-60 72.5l111 76q18 -29 47 -56t66 -47.5t81.5 -32.5t94.5 -12q87 0 149 26t102 71.5t59 108t19 136.5q0 80 -24.5 136.5t-67 92.5t-101 53t-126.5 17q-74 0 -138 -19
t-118 -55h-72l74 727h682v-122h-571l-48 -465q22 11 50.5 20.5t58.5 16t59.5 10.5t55.5 4q99 0 178.5 -26.5t135.5 -78t86 -128.5t30 -179z" />
    <glyph glyph-name="six" unicode="6" 
d="M606 -29q-128 -1 -217.5 44t-146.5 133.5t-83 219.5t-26 302q0 153 30 288t93.5 236t163 160t239.5 59q110 0 193.5 -34.5t153.5 -108.5l-88 -101q-28 30 -56 53.5t-59.5 39t-67.5 24t-80 8.5q-90 0 -157.5 -39t-113 -109.5t-71 -168.5t-32.5 -215q28 19 66 38.5t84 35.5
t98 26t108 10q94 0 171.5 -24t132 -75.5t84.5 -131.5t30 -192q0 -114 -30 -203t-87 -150t-140.5 -93t-191.5 -32zM608 90q79 0 137 25t95.5 70.5t56 110.5t18.5 146q0 89 -22.5 149t-63 96t-98 51.5t-127.5 15.5q-39 0 -82 -8t-85.5 -21.5t-82.5 -32t-73 -39.5
q0 -163 22 -271t64 -173t102.5 -92t138.5 -27z" />
    <glyph glyph-name="seven" unicode="7" horiz-adv-x="1255" 
d="M551 0h-150l543 1262h-792v122h929v-129z" />
    <glyph glyph-name="eight" unicode="8" 
d="M1061 346q0 -94 -32 -164t-92.5 -117t-147.5 -70.5t-197 -23.5q-236 0 -353.5 96t-117.5 279q0 140 82.5 234.5t245.5 156.5q-65 31 -119 61.5t-92.5 68.5t-60 86.5t-21.5 115.5q0 76 26.5 139.5t80.5 109t136 70.5t193 25q213 0 323.5 -87.5t110.5 -254.5
q0 -73 -26.5 -126.5t-68.5 -93t-93.5 -67.5t-100.5 -49q72 -34 132 -69t102.5 -79.5t66 -102.5t23.5 -138zM889 1067q0 52 -17.5 95t-54 73.5t-92.5 47.5t-133 17q-78 0 -134.5 -16.5t-93 -46.5t-54 -71.5t-17.5 -92.5q0 -39 13 -72t47 -65t93.5 -65.5t151.5 -73.5
q73 27 127.5 55t91 60t54.5 69.5t18 85.5zM924 346q0 58 -19.5 103t-60 83t-103 72.5t-147.5 73.5q-83 -30 -146 -63t-105 -73t-63.5 -88.5t-21.5 -109.5q0 -120 82.5 -190t251.5 -70q170 0 251 70t81 192z" />
    <glyph glyph-name="nine" unicode="9" 
d="M244 221q27 -30 56 -54t62 -41.5t71.5 -26.5t84.5 -9q94 0 162.5 39t114.5 109t70.5 168t31.5 217q-29 -20 -67 -40t-83.5 -36t-97 -26.5t-106.5 -10.5q-95 0 -172.5 24.5t-132.5 76.5t-85 132.5t-30 192.5q0 114 30.5 202.5t88 149.5t141 93t190.5 32q129 0 219 -45
t146 -132.5t81 -216t25 -294.5q0 -104 -12.5 -200.5t-39.5 -180.5t-69 -152.5t-100.5 -117.5t-135.5 -76t-173 -27q-119 0 -206 40.5t-152 111.5zM573 631q39 0 82.5 8t86 21.5t83 31t74.5 37.5q0 135 -16.5 240.5t-55 177.5t-101.5 109.5t-155 37.5q-79 0 -137 -25
t-96.5 -71t-57 -111t-18.5 -145q0 -90 22.5 -150t64 -95.5t98.5 -50.5t126 -15z" />
    <glyph glyph-name="colon" unicode=":" horiz-adv-x="541" 
d="M369 956q0 -52 -25 -72t-76 -20q-55 0 -75.5 24.5t-20.5 67.5q0 50 22 71.5t74 21.5q54 0 77.5 -21.5t23.5 -71.5zM369 78q0 -53 -25 -72.5t-76 -19.5q-55 0 -75.5 23.5t-20.5 68.5q0 48 22 70t74 22q54 0 77.5 -21.5t23.5 -70.5z" />
    <glyph glyph-name="semicolon" unicode=";" horiz-adv-x="541" 
d="M369 956q0 -52 -25 -72t-76 -20q-55 0 -75.5 24.5t-20.5 67.5q0 50 22 71.5t74 21.5q54 0 77.5 -21.5t23.5 -71.5zM369 55q0 -56 -10.5 -107.5t-26 -95t-34.5 -75.5t-36 -49h-76q20 22 35.5 54t26 67t15.5 71t5 66q-55 0 -75.5 22t-20.5 70q0 46 22 69t74 23q53 0 77 -28
t24 -87z" />
    <glyph glyph-name="less" unicode="&#x3c;" horiz-adv-x="1427" 
d="M180 543v88l1067 454v-120l-897 -379l897 -377v-121z" />
    <glyph glyph-name="equal" unicode="=" horiz-adv-x="1427" 
d="M178 756v110h1069v-110h-1069zM178 305v111h1069v-111h-1069z" />
    <glyph glyph-name="greater" unicode="&#x3e;" horiz-adv-x="1427" 
d="M180 88v121l897 377l-897 379v120l1067 -454v-88z" />
    <glyph glyph-name="question" unicode="?" horiz-adv-x="1036" 
d="M367 352v271q106 54 181.5 102.5t124 97.5t71 103.5t22.5 120.5q0 56 -18.5 101t-55.5 77t-91 49.5t-126 17.5q-59 0 -104 -11.5t-79 -31t-58 -44.5t-39 -52l-109 72q21 39 56.5 73t84 59.5t110 40.5t136.5 15q93 0 172.5 -22t138 -66.5t92 -111t33.5 -156.5
q0 -85 -29 -152.5t-83 -125t-131 -109.5t-172 -105v-213h-127zM532 78q0 -53 -24.5 -72.5t-77.5 -19.5q-29 0 -48.5 6t-31 18t-16 29t-4.5 39q0 49 23 70.5t77 21.5q57 0 79.5 -21.5t22.5 -70.5z" />
    <glyph glyph-name="at" unicode="@" horiz-adv-x="1927" 
d="M1815 580q0 -105 -19 -206t-63 -180.5t-115.5 -128.5t-175.5 -49q-53 0 -92.5 9t-67 28t-44 49.5t-24.5 73.5q-74 -60 -152.5 -96.5t-156.5 -36.5q-103 0 -172.5 41t-112 108t-61 151t-18.5 171q0 114 25 207.5t76 160t127.5 102.5t180.5 36q42 0 80.5 -10t72.5 -24.5
t60.5 -31t44.5 -30.5v67h129v-739q0 -37 6.5 -61.5t20 -39.5t34.5 -21.5t50 -6.5q65 0 111.5 38t76.5 101t44 144.5t14 168.5q0 168 -43 303.5t-131 230t-220.5 145.5t-312.5 51q-110 0 -207.5 -26t-179.5 -74t-146.5 -116t-110 -151.5t-69.5 -181.5t-24 -205
q0 -178 52 -318t148 -237t231 -148t302 -51q119 0 222 11t194 32l26 -110q-45 -10 -98 -17.5t-110 -12t-117 -7t-119 -2.5q-188 0 -345 58t-269.5 168t-175 270.5t-62.5 365.5q0 123 29 235t83 207.5t131 172.5t172 131.5t206.5 84t234.5 29.5q201 0 356 -57.5t260.5 -165.5
t159.5 -262.5t54 -347.5zM1206 811q-24 17 -53.5 33.5t-61.5 30t-64.5 22t-61.5 8.5q-81 0 -137 -26t-90.5 -76t-50 -122t-15.5 -163q0 -65 11 -128.5t39.5 -114t77.5 -82t126 -31.5q37 0 74.5 11.5t73.5 30t69.5 40.5t62.5 43v524z" />
    <glyph glyph-name="A" unicode="A" horiz-adv-x="1264" 
d="M63 0l480 1384h174l483 -1384h-147l-135 399h-578l-135 -399h-142zM381 522h493l-247 731z" />
    <glyph glyph-name="B" unicode="B" horiz-adv-x="1257" 
d="M1130 408q0 -107 -34 -184t-99.5 -127t-162 -73.5t-220.5 -23.5h-415v1384h395q125 0 210 -19.5t137 -58.5t74.5 -97t22.5 -136q0 -67 -14 -118.5t-41.5 -90t-67 -65t-90.5 -43.5q65 -9 121 -33.5t97 -67t64 -103.5t23 -144zM897 1042q0 63 -17 105.5t-56 68.5t-103 37
t-158 11h-229v-473h221q177 0 259.5 59.5t82.5 191.5zM987 408q0 86 -28 137.5t-80 79.5t-124.5 36.5t-162.5 8.5h-258v-547h219q102 0 182.5 11t136.5 41.5t85.5 86.5t29.5 146z" />
    <glyph glyph-name="C" unicode="C" horiz-adv-x="1315" 
d="M1225 246q-33 -59 -75 -109t-100 -87t-135.5 -58t-181.5 -21q-302 0 -445 181t-143 540q0 174 34 308.5t105 226t180.5 139t260.5 47.5q97 0 173 -19t133.5 -54t100 -84t74.5 -109l-116 -74q-26 48 -58 87.5t-75.5 68.5t-100 45t-131.5 16q-118 0 -201 -39.5t-135 -116
t-76 -187.5t-24 -255t24 -255t77 -187.5t137 -116t204 -39.5q84 0 145.5 20t105.5 52t74.5 71.5t53.5 79.5z" />
    <glyph glyph-name="D" unicode="D" horiz-adv-x="1282" 
d="M1147 692q0 -203 -41.5 -336.5t-122 -212.5t-199 -111t-272.5 -32h-326v1384h324q163 0 282.5 -35t198.5 -116t117.5 -213.5t38.5 -327.5zM1001 694q0 157 -26.5 265.5t-86 176t-155.5 97t-235 29.5h-176v-1139h176q136 0 232 28.5t156 95.5t87.5 176.5t27.5 270.5z" />
    <glyph glyph-name="E" unicode="E" horiz-adv-x="1155" 
d="M199 0v1384h819v-122h-684v-467h588v-123h-588v-549h684v-123h-819z" />
    <glyph glyph-name="F" unicode="F" horiz-adv-x="1110" 
d="M334 1262v-461h577v-123h-577v-678h-135v1384h811v-122h-676z" />
    <glyph glyph-name="G" unicode="G" horiz-adv-x="1378" 
d="M1081 1073q-27 53 -60.5 93.5t-77.5 68t-100 41.5t-126 14q-113 0 -194 -37.5t-133 -112.5t-76.5 -187t-24.5 -261q0 -140 23 -251t76 -188t139.5 -118t213.5 -41q42 0 81 4.5t77 14t77.5 24t82.5 33.5v389h-369v123h504v-588q-58 -30 -109.5 -53t-104.5 -38.5
t-112 -23.5t-131 -8q-164 0 -276.5 50.5t-183 144.5t-101.5 227.5t-31 300.5t31 300t100 226t179 143t268 50q98 0 173 -19.5t131 -55t97 -84.5t72 -107z" />
    <glyph glyph-name="H" unicode="H" horiz-adv-x="1341" 
d="M1008 0v655h-674v-655h-135v1384h135v-606h674v606h135v-1384h-135z" />
    <glyph glyph-name="I" unicode="I" horiz-adv-x="719" 
d="M616 0h-514v119h189v1147h-189v118h514v-118h-190v-1147h190v-119z" />
    <glyph glyph-name="J" unicode="J" horiz-adv-x="864" 
d="M666 395q0 -104 -18 -183.5t-59.5 -133.5t-110 -81.5t-169.5 -27.5q-31 0 -64.5 4t-65.5 10.5t-61.5 15.5t-51.5 19l51 119q17 -9 40.5 -17t49.5 -14.5t52.5 -10t49.5 -3.5q70 0 113.5 21.5t67.5 66t32 112.5t8 161v931h136v-989z" />
    <glyph glyph-name="K" unicode="K" horiz-adv-x="1255" 
d="M1014 0l-527 639l-153 -164v-475h-135v1384h135v-739l661 739h170l-587 -649l612 -735h-176z" />
    <glyph glyph-name="L" unicode="L" horiz-adv-x="1038" 
d="M199 0v1384h135v-1261h649v-123h-784z" />
    <glyph glyph-name="M" unicode="M" horiz-adv-x="1556" 
d="M1227 0v1219l-406 -828h-90l-401 828v-1219h-131v1384h190l391 -806l389 806h189v-1384h-131z" />
    <glyph glyph-name="N" unicode="N" horiz-adv-x="1374" 
d="M1016 0l-686 1235v-1235h-131v1384h196l647 -1165v1165h134v-1384h-160z" />
    <glyph glyph-name="O" unicode="O" horiz-adv-x="1364" 
d="M1229 692q0 -167 -29 -300.5t-94 -227t-169.5 -143.5t-254.5 -50t-254 50t-169 144t-94.5 227t-29.5 300q0 166 29.5 299.5t94.5 227t169 144t254 50.5t254.5 -50t169.5 -143t94 -226.5t29 -301.5zM1083 692q0 144 -21 255.5t-68 187.5t-124 115.5t-188 39.5
q-112 0 -189 -39t-124.5 -115t-68.5 -187.5t-21 -256.5q0 -144 21 -255t68.5 -187.5t124.5 -116t189 -39.5q111 0 188 39.5t124 115.5t68 187.5t21 255.5z" />
    <glyph glyph-name="P" unicode="P" horiz-adv-x="1153" 
d="M1044 952q0 -126 -29 -214t-88.5 -143.5t-149.5 -80.5t-212 -25h-231v-489h-135v1384h383q238 0 350 -107.5t112 -324.5zM899 948q0 90 -22.5 150.5t-65 96.5t-103.5 51.5t-139 15.5h-235v-650h209q93 0 160 15t110.5 52.5t64.5 102.5t21 166z" />
    <glyph glyph-name="Q" unicode="Q" horiz-adv-x="1364" 
d="M1233 -283q-48 -18 -102.5 -26t-102.5 -8q-87 0 -154.5 19.5t-118 56.5t-85 91t-56.5 123q-121 11 -211 59.5t-149.5 137t-89 218.5t-29.5 304q0 169 30 303t96 227t170.5 142t252.5 49q144 0 247.5 -47.5t169.5 -139.5t97 -226t31 -308q0 -156 -25 -282t-80.5 -218
t-143.5 -148t-214 -71q14 -39 35.5 -70.5t53.5 -53.5t75.5 -34t101.5 -12q17 0 38.5 2t43.5 6t42.5 9t35.5 10zM1083 692q0 144 -21 255.5t-68 187.5t-124 115.5t-188 39.5q-112 0 -189 -39.5t-124.5 -115.5t-68.5 -187.5t-21 -255.5t21 -255t68.5 -187.5t124.5 -116
t189 -39.5t188.5 39.5t124 115.5t68 187.5t20.5 255.5z" />
    <glyph glyph-name="R" unicode="R" horiz-adv-x="1212" 
d="M979 0l-354 586h-291v-586h-135v1384h393q114 0 200.5 -20t145.5 -65.5t89 -119t30 -180.5q0 -92 -19.5 -159.5t-57 -114.5t-92 -75.5t-124.5 -43.5l377 -606h-162zM913 993q0 73 -17 124.5t-55 84t-99.5 47.5t-151.5 15h-256v-557h250q94 0 157 15.5t101 49.5t54.5 88.5
t16.5 132.5z" />
    <glyph glyph-name="S" unicode="S" horiz-adv-x="1225" 
d="M1096 362q0 -107 -38 -181t-103 -121t-153 -68t-188 -21q-105 0 -184 21t-138.5 57.5t-103 87.5t-77.5 111l116 69q20 -40 52 -79.5t78 -71.5t107.5 -52t141.5 -20q73 0 136.5 15t110.5 47t74 81.5t27 118.5q0 64 -21 108.5t-64 77t-109 56.5t-156 47q-120 31 -207 60.5
t-144 71t-84.5 101t-27.5 150.5q0 86 28 157t84.5 121.5t141.5 78.5t199 28q86 0 156 -17.5t126 -50t100 -78.5t79 -104l-113 -76q-26 45 -59 82.5t-75 64.5t-94.5 41.5t-117.5 14.5q-79 0 -138 -18t-98 -51t-58 -80t-19 -105q0 -56 17.5 -93.5t58.5 -65t109 -50t169 -47.5
q107 -27 192 -58t144.5 -77t91 -113.5t31.5 -169.5z" />
    <glyph glyph-name="T" unicode="T" horiz-adv-x="1174" 
d="M653 1262v-1262h-135v1262h-475v122h1085v-122h-475z" />
    <glyph glyph-name="U" unicode="U" horiz-adv-x="1378" 
d="M1184 578q0 -170 -26 -286.5t-84.5 -188t-152.5 -103t-229 -31.5q-141 0 -237 32.5t-154 105t-83 188.5t-25 283v806h135v-786q0 -144 17 -241t59 -156.5t111.5 -85t174.5 -25.5q106 0 175.5 25.5t110 85t57 156t16.5 237.5v790h135v-806z" />
    <glyph glyph-name="V" unicode="V" horiz-adv-x="1214" 
d="M688 0h-170l-455 1384h142l401 -1241l406 1241h139z" />
    <glyph glyph-name="W" unicode="W" horiz-adv-x="1718" 
d="M1313 0h-176l-281 1204l-283 -1204h-170l-323 1384h137l277 -1202l278 1202h168l287 -1212l278 1212h133z" />
    <glyph glyph-name="X" unicode="X" horiz-adv-x="1169" 
d="M66 0l444 694l-432 690h155l357 -585l362 585h152l-440 -686l440 -698h-156l-364 594l-371 -594h-147z" />
    <glyph glyph-name="Y" unicode="Y" horiz-adv-x="1126" 
d="M631 537v-537h-137v530l-443 854h150l362 -720l367 720h145z" />
    <glyph glyph-name="Z" unicode="Z" horiz-adv-x="1171" 
d="M102 0v129l779 1133h-748v122h905v-122l-784 -1139h801v-123h-953z" />
    <glyph glyph-name="bracketleft" unicode="[" horiz-adv-x="825" 
d="M215 -395v1884h457v-107h-338v-1673h338v-104h-457z" />
    <glyph glyph-name="backslash" unicode="\" horiz-adv-x="952" 
d="M811 -299l-729 1819h125l727 -1819h-123z" />
    <glyph glyph-name="bracketright" unicode="]" horiz-adv-x="825" 
d="M154 -395v104h335v1673h-335v107h456v-1884h-456z" />
    <glyph glyph-name="asciicircum" unicode="^" horiz-adv-x="1214" 
d="M940 594l-332 676l-334 -676h-120l389 790h129l389 -790h-121z" />
    <glyph glyph-name="underscore" unicode="_" horiz-adv-x="1024" 
d="M-10 -256v92h1044v-92h-1044z" />
    <glyph glyph-name="grave" unicode="`" horiz-adv-x="1106" 
d="M584 1208l-258 361h176l186 -361h-104z" />
    <glyph glyph-name="a" unicode="a" horiz-adv-x="1079" 
d="M776 0v152l-87 -72.5t-85.5 -58t-90 -38.5t-99.5 -14q-74 0 -129 22.5t-91.5 65t-54.5 103t-18 135.5q0 82 24 143t75 103.5t130.5 67.5t190.5 36l235 23v53q0 66 -15 112.5t-47.5 76.5t-83 43.5t-120.5 13.5q-59 0 -102.5 -10.5t-75 -28t-52.5 -40.5t-36 -48l-103 63
q22 36 52.5 68t75 56t104 38t139.5 14q106 0 180.5 -20t122 -63.5t69 -113t21.5 -169.5v-713h-129zM776 561l-188 -18q-90 -9 -153.5 -25.5t-103.5 -45t-58.5 -71t-18.5 -102.5q0 -114 46 -165.5t144 -51.5q37 0 72.5 11t74.5 33.5t84 58l101 83.5v293z" />
    <glyph glyph-name="b" unicode="b" horiz-adv-x="1151" 
d="M1022 532q0 -123 -24 -226.5t-74 -178.5t-126.5 -116.5t-181.5 -41.5q-78 0 -157.5 36t-147.5 99v-104h-129v1489h129v-555q31 31 67.5 58t77 46t84.5 30t89 11q107 0 182 -42.5t122 -116.5t68 -173.5t21 -214.5zM889 528q0 101 -16 182t-50 137.5t-87 87t-128 30.5
q-78 0 -153.5 -43t-143.5 -111v-586q69 -65 145.5 -104t147.5 -39q62 0 114.5 26t90.5 80.5t59 138.5t21 201z" />
    <glyph glyph-name="c" unicode="c" horiz-adv-x="1016" 
d="M926 168q-25 -47 -58 -84t-77 -62.5t-99.5 -39t-124.5 -13.5q-123 0 -206.5 42t-135 115.5t-74 174.5t-22.5 219q0 128 24.5 231.5t77 176t135 112t199.5 39.5q124 0 207.5 -49t140.5 -151l-106 -64q-21 39 -45 67.5t-53.5 47t-65.5 28t-82 9.5q-157 0 -228 -114
t-71 -337q0 -98 15.5 -178t51 -137.5t94 -89t144.5 -31.5q49 0 86.5 10.5t67.5 30.5t54 48.5t46 63.5z" />
    <glyph glyph-name="d" unicode="d" horiz-adv-x="1151" 
d="M840 0v115q-32 -31 -69.5 -57.5t-78.5 -46t-85 -31t-89 -11.5q-98 0 -171 37t-121.5 107.5t-72.5 172t-24 230.5q0 109 23.5 210.5t73 180t126 125.5t183.5 47q90 0 163 -33.5t142 -87.5v531h129v-1489h-129zM840 838q-75 60 -148 93.5t-145 33.5q-65 0 -118 -30.5
t-90 -87.5t-57 -139.5t-20 -187.5q0 -99 15 -180t47.5 -138t83.5 -88.5t124 -31.5q43 0 84.5 12.5t80.5 34t75 49.5t68 60v600z" />
    <glyph glyph-name="e" unicode="e" horiz-adv-x="1051" 
d="M262 524q0 -115 14.5 -199t49 -138.5t91.5 -80.5t142 -26q42 0 77 7.5t65.5 25t58.5 45t55 67.5l103 -67q-28 -45 -61.5 -80t-77 -59t-99 -37t-127.5 -13q-104 0 -183 30t-132.5 95.5t-81 169.5t-27.5 252q0 133 23 237.5t73.5 177t131 110.5t196.5 38q102 0 175 -32
t119.5 -92.5t68.5 -148t22 -198.5v-84h-676zM811 629q-3 177 -66 259.5t-196 82.5q-69 0 -119.5 -20t-85 -62t-54 -106.5t-26.5 -153.5h547z" />
    <glyph glyph-name="f" unicode="f" horiz-adv-x="618" 
d="M664 1364q-14 8 -33.5 16t-41 14t-44 9.5t-43.5 3.5q-46 0 -77 -13t-50 -42t-27 -76t-8 -115v-112h244v-111h-244v-938h-129v938h-164v111h164v116q0 91 15 158t49.5 111t90 65t136.5 21q60 0 114.5 -14.5t90.5 -32.5z" />
    <glyph glyph-name="g" unicode="g" horiz-adv-x="1151" 
d="M969 23q0 -111 -24 -190.5t-73.5 -130t-125.5 -74t-181 -23.5q-127 0 -220 29.5t-148 72.5l55 100q51 -42 128 -68t185 -26q75 0 127 17t85 53.5t48 94t15 138.5v127q-30 -29 -66.5 -55t-78 -45.5t-86.5 -31t-93 -11.5q-101 0 -174 36t-120 104.5t-70 168t-23 226.5
q0 114 24 213t74.5 172.5t128 116t185.5 42.5q83 0 158 -32.5t141 -88.5v91h129v-1026zM840 840q-73 57 -143.5 91t-145.5 34q-76 0 -130.5 -31t-90 -87.5t-52 -135t-16.5 -172.5q0 -79 9 -155.5t38 -136.5t83 -97t143 -37q46 0 88.5 13.5t81 35.5t72.5 49.5t63 54.5v574z
" />
    <glyph glyph-name="h" unicode="h" horiz-adv-x="1137" 
d="M834 0v651q0 89 -8 148t-28 94t-54.5 49t-86.5 14q-69 0 -160 -51.5t-186 -142.5v-762h-129v1489h129v-606q44 41 89 77t91.5 62.5t93.5 41.5t95 15q84 0 139 -25t87 -73.5t44.5 -119t12.5 -161.5v-700h-129z" />
    <glyph glyph-name="i" unicode="i" horiz-adv-x="494" 
d="M338 1305q0 -51 -21.5 -69.5t-70.5 -18.5q-51 0 -70.5 23t-19.5 65q0 45 20 65.5t70 20.5q51 0 71.5 -20t20.5 -66zM182 0v1049h129v-1049h-129z" />
    <glyph glyph-name="j" unicode="j" horiz-adv-x="508" 
d="M350 1305q0 -51 -22 -69.5t-70 -18.5q-53 0 -72.5 23t-19.5 65q0 45 21.5 65.5t70.5 20.5q51 0 71.5 -20t20.5 -66zM322 -55q0 -86 -13.5 -149.5t-46 -106t-87.5 -63.5t-138 -21q-40 0 -86 7.5t-92 22.5l32 107q36 -14 73 -21.5t79 -7.5q43 0 72 14t46 44t24.5 76.5
t7.5 111.5v1090h129v-1104z" />
    <glyph glyph-name="k" unicode="k" horiz-adv-x="1022" 
d="M801 0l-371 489l-119 -131v-358h-129v1489h129v-973l469 533h160l-426 -471l449 -578h-162z" />
    <glyph glyph-name="l" unicode="l" horiz-adv-x="518" 
d="M195 0v1489h129v-1489h-129z" />
    <glyph glyph-name="m" unicode="m" horiz-adv-x="1673" 
d="M1370 0v645q0 94 -6 154.5t-23 95.5t-46.5 48t-75.5 13q-40 0 -77.5 -14t-75.5 -39.5t-77.5 -61t-83.5 -79.5v-762h-129v651q0 93 -7 152.5t-24 93t-47.5 46.5t-76.5 13q-38 0 -77 -16t-78 -43t-78 -62t-77 -73v-762h-129v1049h129v-166q39 42 80 78t82.5 62t84.5 41
t87 15q106 0 167.5 -50.5t80.5 -160.5q44 48 85 87t83.5 66.5t87.5 42.5t96 15q80 0 129.5 -28t77.5 -78.5t37.5 -120t9.5 -152.5v-700h-129z" />
    <glyph glyph-name="n" unicode="n" horiz-adv-x="1137" 
d="M834 0v651q0 88 -8 147t-28 94t-54.5 49.5t-86.5 14.5q-69 0 -160 -51.5t-186 -142.5v-762h-129v1049h129v-166q45 43 90.5 79t92 62t93.5 40.5t95 14.5q84 0 138 -25t86 -73.5t44.5 -119t12.5 -161.5v-700h-129z" />
    <glyph glyph-name="o" unicode="o" horiz-adv-x="1141" 
d="M1012 522q0 -125 -24 -226.5t-77 -174.5t-137 -112.5t-203 -39.5t-203 39.5t-137 112.5t-77.5 174.5t-24.5 226.5q0 122 24 224.5t77 176.5t137 115t204 41q117 0 200.5 -39.5t137 -112.5t78.5 -175.5t25 -229.5zM877 522q0 106 -16 189t-52 140t-94.5 86.5t-143.5 29.5
q-86 0 -145 -30.5t-95.5 -88t-52.5 -140t-16 -186.5t16.5 -186t53 -139t95.5 -87t144 -30q83 0 141.5 29.5t95 86.5t53 139t16.5 187z" />
    <glyph glyph-name="p" unicode="p" horiz-adv-x="1151" 
d="M1022 532q0 -123 -25 -226.5t-76 -178.5t-128.5 -116.5t-182.5 -41.5q-77 0 -153.5 34.5t-145.5 100.5v-499h-129v1444h129v-115q31 31 67.5 58t77 46t84.5 30t89 11q106 0 180.5 -42.5t121.5 -116.5t69 -173.5t22 -214.5zM889 528q0 101 -16.5 182t-51 137.5t-87.5 87
t-126 30.5q-80 0 -154.5 -42.5t-142.5 -111.5v-586q69 -65 143.5 -104t145.5 -39q62 0 115 26t91.5 80.5t60.5 138.5t22 201z" />
    <glyph glyph-name="q" unicode="q" horiz-adv-x="1151" 
d="M840 -395v510q-32 -31 -69.5 -57.5t-78.5 -46t-85 -31t-89 -11.5q-100 0 -173 37t-121 107.5t-71.5 172t-23.5 230.5q0 109 22.5 210.5t71 180t124.5 125.5t183 47q90 0 166 -35t144 -86v91h129v-1444h-129zM840 838q-75 60 -150 93.5t-147 33.5q-65 0 -117 -30.5
t-88.5 -87.5t-56 -139.5t-19.5 -187.5q0 -98 14.5 -179t46.5 -138.5t83.5 -89t125.5 -31.5q43 0 84 12.5t80 33.5t75 49.5t69 60.5v600z" />
    <glyph glyph-name="r" unicode="r" horiz-adv-x="797" 
d="M717 922q-35 14 -76 14q-48 0 -87.5 -12t-77.5 -36t-77.5 -59.5t-87.5 -83.5v-745h-129v1049h129v-181q45 45 85.5 81.5t81 62t82 39.5t87.5 14q29 0 53 -5t45 -16z" />
    <glyph glyph-name="s" unicode="s" horiz-adv-x="973" 
d="M856 268q0 -74 -25.5 -130t-74 -93.5t-118 -56.5t-157.5 -19q-81 0 -142 17.5t-105.5 44.5t-73 59.5t-43.5 63.5l104 65q35 -63 98.5 -101t163.5 -38q52 0 97 8.5t78 29.5t52 56.5t19 89.5q0 42 -12 72.5t-42.5 54t-82.5 42.5t-133 40q-84 22 -144.5 47t-100 60.5
t-58.5 85t-19 120.5q0 58 21.5 111.5t66 93.5t111.5 64t158 24q69 0 123.5 -15t96.5 -40.5t72 -59.5t50 -71l-105 -62q-15 28 -36.5 53t-50 43.5t-65.5 29t-85 10.5q-107 0 -168.5 -47t-61.5 -132q0 -41 11 -70t37 -50.5t70.5 -38.5t111.5 -35q101 -27 170.5 -55t112 -65
t61 -86.5t18.5 -119.5z" />
    <glyph glyph-name="t" unicode="t" horiz-adv-x="723" 
d="M678 2q-40 -14 -89 -23.5t-100 -9.5q-78 0 -131 19.5t-85 61.5t-46 108t-14 159v621h-158v111h158v292h129v-292h276v-111h-276v-606q0 -73 7 -122t24.5 -78t47.5 -41.5t77 -12.5q35 0 76.5 8.5t70.5 19.5z" />
    <glyph glyph-name="u" unicode="u" horiz-adv-x="1137" 
d="M825 0v166q-44 -42 -89.5 -78.5t-92 -62.5t-93 -41t-93.5 -15q-85 0 -139.5 25t-86.5 73.5t-44.5 119t-12.5 161.5v701h129v-654q0 -88 7.5 -146.5t27 -94t53.5 -50t86 -14.5q71 0 161 52t187 145v762h129v-1049h-129z" />
    <glyph glyph-name="v" unicode="v" horiz-adv-x="991" 
d="M563 0h-137l-369 1049h138l303 -891l301 891h133z" />
    <glyph glyph-name="w" unicode="w" horiz-adv-x="1430" 
d="M1104 0h-125l-264 870l-264 -870h-125l-244 1049h133l186 -861l258 861h117l262 -861l181 861h129z" />
    <glyph glyph-name="x" unicode="x" horiz-adv-x="965" 
d="M748 0l-269 432l-276 -432h-144l351 522l-344 527h151l270 -431l273 431h143l-344 -519l344 -530h-155z" />
    <glyph glyph-name="y" unicode="y" horiz-adv-x="1018" 
d="M41 -256q25 -14 61 -21.5t70 -7.5q75 0 129 59.5t98 176.5l41 104l-383 994h140l311 -832l315 832h138l-453 -1147q-32 -81 -67.5 -138t-76.5 -92t-89 -51t-105 -16q-21 0 -44.5 2t-46 6t-42 9.5t-33.5 12.5z" />
    <glyph glyph-name="z" unicode="z" horiz-adv-x="936" 
d="M94 0v98l576 840h-564v111h719v-97l-577 -841h594v-111h-748z" />
    <glyph glyph-name="braceleft" unicode="{" horiz-adv-x="975" 
d="M815 -395q-91 0 -162.5 23.5t-121 70t-75.5 115.5t-26 159v170q0 88 -16 156.5t-52 114.5t-95 70t-146 24h-19v110h19q85 0 144 22.5t95.5 68t53 113.5t16.5 159v170q0 87 27.5 155.5t78 116t121.5 72.5t158 25h59v-105h-47q-137 0 -206.5 -71t-69.5 -211v-175
q0 -173 -70.5 -267.5t-199.5 -129.5q129 -32 199.5 -127t70.5 -268v-176q0 -142 64.5 -212.5t211.5 -70.5h47v-102h-59z" />
    <glyph glyph-name="bar" unicode="|" horiz-adv-x="850" 
d="M367 -395v1915h116v-1915h-116z" />
    <glyph glyph-name="braceright" unicode="}" horiz-adv-x="975" 
d="M100 -395v102h45q148 0 213.5 70.5t65.5 212.5v176q0 173 69.5 268t200.5 127q-129 35 -199.5 129.5t-70.5 267.5v175q0 140 -69.5 211t-209.5 71h-45v105h60q90 0 161 -25.5t120.5 -73.5t75.5 -116.5t26 -153.5v-170q0 -91 16.5 -159t53 -113.5t96 -68t145.5 -22.5h18
v-110h-18q-87 0 -146.5 -24t-96 -70t-52.5 -114.5t-16 -156.5v-170q0 -90 -26 -159t-75 -115.5t-120.5 -70t-161.5 -23.5h-60z" />
    <glyph glyph-name="asciitilde" unicode="~" horiz-adv-x="1427" 
d="M164 756q85 68 159 98.5t136 30.5q61 0 127.5 -24.5t134 -54.5t132.5 -54.5t122 -24.5q39 0 75.5 11t72 29.5t70.5 44.5t71 56v-129l-60.5 -44t-67 -39.5t-75 -28.5t-84.5 -11q-40 0 -84.5 11.5t-91 29.5l-93.5 38l-91.5 38t-84.5 29.5t-73 11.5q-41 0 -78.5 -11
t-73.5 -30.5t-71 -45.5l-72 -56v125z" />
    <glyph glyph-name="dieresis" horiz-adv-x="1106" 
d="M829 1300q0 -48 -19.5 -69t-70.5 -21q-53 0 -70.5 25t-17.5 65q0 45 18.5 67t69.5 22q54 0 72 -21t18 -68zM459 1300q0 -48 -19.5 -69t-70.5 -21q-27 0 -44 6.5t-27 18.5t-13.5 28.5t-3.5 36.5q0 45 18.5 67t69.5 22q53 0 71.5 -21.5t18.5 -67.5z" />
    <glyph glyph-name="acute" horiz-adv-x="1106" 
d="M559 1208h-104l186 361h178z" />
    <glyph glyph-name="hbar" horiz-adv-x="1137" 
d="M834 0v651q0 89 -8 148t-28 94t-54.5 49t-86.5 14q-69 0 -160 -51.5t-186 -142.5v-762h-129v1206h-168v109h168v174h129v-174h283v-109h-283v-323q44 41 89 77t91.5 62.5t93.5 41.5t95 15q84 0 139 -25t87 -73.5t44.5 -119t12.5 -161.5v-700h-129z" />
    <glyph glyph-name="dotlessi" horiz-adv-x="494" 
d="M182 0v1049h129v-1049h-129z" />
    <glyph glyph-name="Gamma" horiz-adv-x="1067" 
d="M344 1264v-1264h-135v1384h817v-120h-682z" />
    <glyph glyph-name="Pi" horiz-adv-x="1282" 
d="M199 0v1384h884v-1384h-135v1262h-614v-1262h-135z" />
    <glyph glyph-name="uni0400" unicode="&#x400;" horiz-adv-x="1155" 
d="M199 0v1384h819v-122h-684v-467h588v-123h-588v-549h684v-123h-819zM615 1544l-258 361h176l186 -361h-104z" />
    <glyph glyph-name="uni0401" unicode="&#x401;" horiz-adv-x="1155" 
d="M199 0v1384h819v-122h-684v-467h588v-123h-588v-549h684v-123h-819zM878 1636q0 -48 -19.5 -69t-70.5 -21q-53 0 -70.5 25t-17.5 65q0 45 18.5 67t69.5 22q54 0 72 -21t18 -68zM508 1636q0 -48 -19.5 -69t-70.5 -21q-27 0 -44 6.5t-27 18.5t-13.5 28.5t-3.5 36.5
q0 45 18.5 67t69.5 22q53 0 71.5 -21.5t18.5 -67.5z" />
    <glyph glyph-name="uni0402" unicode="&#x402;" horiz-adv-x="1372" 
d="M858 1268h-346v-480h229q138 0 238 -22t164.5 -69.5t95.5 -121.5t31 -178q0 -106 -35 -181t-105 -123t-175.5 -70.5t-247.5 -22.5v115q119 0 199 15.5t128.5 49.5t69 88t20.5 131q0 69 -19 119.5t-62 84.5t-111.5 50.5t-167.5 16.5h-252v-670h-135v1268h-357v116h838
v-116z" />
    <glyph glyph-name="uni0403" unicode="&#x403;" horiz-adv-x="1067" 
d="M344 1264v-1264h-135v1384h817v-120h-682zM594 1544h-104l186 361h178z" />
    <glyph glyph-name="uni0404" unicode="&#x404;" horiz-adv-x="1321" 
d="M1219 246q-33 -59 -75 -109t-100 -87t-135 -58t-182 -21q-301 0 -444.5 181t-143.5 540q0 174 34 308.5t105.5 226t181 139t261.5 47.5q97 0 172 -19t132.5 -54t100 -84t74.5 -109l-115 -74q-25 48 -57 87.5t-75.5 68.5t-101 45t-132.5 16q-111 0 -190.5 -35t-132 -102.5
t-79.5 -167t-32 -227.5h723v-125h-723q4 -129 31 -229.5t80 -169t134 -104.5t195 -36q84 0 145 20t105.5 52t75 71.5t53.5 79.5z" />
    <glyph glyph-name="uni0405" unicode="&#x405;" horiz-adv-x="1225" 
d="M1096 362q0 -107 -38 -181t-103 -121t-153 -68t-188 -21q-105 0 -184 21t-138.5 57.5t-103 87.5t-77.5 111l116 69q20 -40 52 -79.5t78 -71.5t107.5 -52t141.5 -20q73 0 136.5 15t110.5 47t74 81.5t27 118.5q0 64 -21 108.5t-64 77t-109 56.5t-156 47q-120 31 -207 60.5
t-144 71t-84.5 101t-27.5 150.5q0 86 28 157t84.5 121.5t141.5 78.5t199 28q86 0 156 -17.5t126 -50t100 -78.5t79 -104l-113 -76q-26 45 -59 82.5t-75 64.5t-94.5 41.5t-117.5 14.5q-79 0 -138 -18t-98 -51t-58 -80t-19 -105q0 -56 17.5 -93.5t58.5 -65t109 -50t169 -47.5
q107 -27 192 -58t144.5 -77t91 -113.5t31.5 -169.5z" />
    <glyph glyph-name="uni0406" unicode="&#x406;" horiz-adv-x="719" 
d="M616 0h-514v119h189v1147h-189v118h514v-118h-190v-1147h190v-119z" />
    <glyph glyph-name="uni0407" unicode="&#x407;" horiz-adv-x="719" 
d="M616 0h-514v119h189v1147h-189v118h514v-118h-190v-1147h190v-119zM640 1636q0 -48 -19.5 -69t-70.5 -21q-53 0 -70.5 25t-17.5 65q0 45 18.5 67t69.5 22q54 0 72 -21t18 -68zM270 1636q0 -48 -19.5 -69t-70.5 -21q-27 0 -44 6.5t-27 18.5t-13.5 28.5t-3.5 36.5
q0 45 18.5 67t69.5 22q53 0 71.5 -21.5t18.5 -67.5z" />
    <glyph glyph-name="uni0408" unicode="&#x408;" horiz-adv-x="864" 
d="M666 395q0 -104 -18 -183.5t-59.5 -133.5t-110 -81.5t-169.5 -27.5q-31 0 -64.5 4t-65.5 10.5t-61.5 15.5t-51.5 19l51 119q17 -9 40.5 -17t49.5 -14.5t52.5 -10t49.5 -3.5q70 0 113.5 21.5t67.5 66t32 112.5t8 161v931h136v-989z" />
    <glyph glyph-name="uni0409" unicode="&#x409;" horiz-adv-x="1913" 
d="M547 1264v-74q0 -171 -11.5 -327.5t-35.5 -290.5t-61 -242.5t-87.5 -185.5t-115.5 -118.5t-144 -41.5q-31 0 -56 4t-48 12l20 111q13 -5 28.5 -7t26.5 -2q87 0 152.5 74t109 217.5t65.5 353.5t22 482v155h678v-550h210q136 0 234 -24.5t161 -76t92.5 -132t29.5 -191.5
q0 -110 -34 -187.5t-99 -127t-158.5 -72.5t-212.5 -23h-359v1264h-407zM1090 715v-596h210q190 0 281.5 69t91.5 224q0 87 -21.5 145.5t-68.5 93.5t-122 49.5t-183 14.5h-188z" />
    <glyph glyph-name="uni040A" unicode="&#x40a;" horiz-adv-x="1956" 
d="M997 0v684h-663v-684h-135v1384h135v-581h663v581h138v-581h206q136 0 234.5 -21t162 -69t94 -125t30.5 -189q0 -105 -33.5 -180.5t-98.5 -124t-159.5 -71.5t-216.5 -23h-357zM1135 684v-565h211q192 0 282 69t90 213q0 90 -25 145.5t-75 86t-124 41t-171 10.5h-188z" />
    <glyph glyph-name="uni040B" unicode="&#x40b;" horiz-adv-x="1423" 
d="M866 1268h-358v-471q88 34 181.5 53.5t182.5 19.5q102 0 177 -23.5t124 -76.5t73 -138t24 -208v-424h-135v379q0 111 -14 183.5t-47.5 115t-90.5 59.5t-143 17q-66 0 -152.5 -17t-177.5 -49v-688h-137v1268h-353v116h846v-116z" />
    <glyph glyph-name="uni040C" unicode="&#x40c;" horiz-adv-x="1233" 
d="M334 1384v-620h225q48 0 88 11t75.5 38t66 72.5t59.5 114.5t56.5 163.5t56.5 220.5h141q-29 -130 -58 -227t-58.5 -168t-60 -119t-62 -79.5t-64.5 -50.5t-68 -31q55 -17 98 -41.5t78.5 -61.5t65 -89t57.5 -125t55.5 -169.5t59.5 -222.5h-141l-59.5 214t-56 165.5
t-59.5 121.5t-69.5 81.5t-87 46t-111.5 14.5h-227v-643h-135v1384h135zM641 1544h-104l186 361h178z" />
    <glyph glyph-name="uni040D" unicode="&#x40d;" horiz-adv-x="1376" 
d="M199 0v1384h131v-1191l653 1191h195v-1384h-131v1239l-685 -1239h-163zM686 1544l-258 361h176l186 -361h-104z" />
    <glyph glyph-name="uni040E" unicode="&#x40e;" horiz-adv-x="1182" 
d="M602 459l402 925h141l-514 -1169q-31 -71 -66 -117.5t-78.5 -75t-97.5 -40t-123 -11.5q-24 0 -49.5 3t-48.5 7t-42.5 9t-31.5 10l43 115q28 -11 65 -19t72 -8q83 0 139 34.5t91 117.5l22 57l-463 1087h146zM913 1769q-1 -48 -17.5 -92.5t-54 -79t-98 -55t-147.5 -20.5
q-78 0 -135.5 20.5t-95 55t-55.5 79t-19 92.5h133q9 -78 48.5 -120.5t121.5 -42.5q50 0 83 9.5t54 30t31.5 51t15.5 72.5h135z" />
    <glyph glyph-name="uni040F" unicode="&#x40f;" horiz-adv-x="1358" 
d="M1159 0h-411v-262h-138v262h-411v1384h137v-1261h686v1261h137v-1384z" />
    <glyph glyph-name="uni0410" unicode="&#x410;" horiz-adv-x="1264" 
d="M63 0l480 1384h174l483 -1384h-147l-135 399h-578l-135 -399h-142zM381 522h493l-247 731z" />
    <glyph glyph-name="uni0411" unicode="&#x411;" horiz-adv-x="1225" 
d="M334 786h284q137 0 232 -23.5t154.5 -71t86.5 -120t27 -170.5q0 -199 -126 -300t-374 -101h-419v1384h835v-118h-700v-480zM975 399q0 78 -22.5 129.5t-68 82.5t-116 44t-166.5 13h-268v-549h235q96 0 171.5 13t127.5 45t79.5 86t27.5 136z" />
    <glyph glyph-name="uni0412" unicode="&#x412;" horiz-adv-x="1257" 
d="M1130 408q0 -107 -34 -184t-99.5 -127t-162 -73.5t-220.5 -23.5h-415v1384h395q125 0 210 -19.5t137 -58.5t74.5 -97t22.5 -136q0 -67 -14 -118.5t-41.5 -90t-67 -65t-90.5 -43.5q65 -9 121 -33.5t97 -67t64 -103.5t23 -144zM897 1042q0 63 -17 105.5t-56 68.5t-103 37
t-158 11h-229v-473h221q177 0 259.5 59.5t82.5 191.5zM987 408q0 86 -28 137.5t-80 79.5t-124.5 36.5t-162.5 8.5h-258v-547h219q102 0 182.5 11t136.5 41.5t85.5 86.5t29.5 146z" />
    <glyph glyph-name="uni0413" unicode="&#x413;" horiz-adv-x="1067" 
d="M344 1264v-1264h-135v1384h817v-120h-682z" />
    <glyph glyph-name="uni0414" unicode="&#x414;" horiz-adv-x="1309" 
d="M29 -262v381h112q54 96 103.5 230.5t88 297.5t61.5 350t24 387h676v-1265h172v-381h-133v262h-971v-262h-133zM958 1264h-407q-6 -172 -31.5 -340.5t-63.5 -318.5t-84.5 -275t-95.5 -211h682v1145z" />
    <glyph glyph-name="uni0415" unicode="&#x415;" horiz-adv-x="1155" 
d="M199 0v1384h819v-122h-684v-467h588v-123h-588v-549h684v-123h-819z" />
    <glyph glyph-name="uni0416" unicode="&#x416;" horiz-adv-x="1790" 
d="M963 764h159q48 0 88 11t75 38t65.5 72.5t59 114.5t56 163.5t56.5 220.5h141q-29 -130 -57.5 -227t-58 -168t-59.5 -119t-61.5 -79.5t-65 -50.5t-69.5 -31q55 -17 98 -41.5t79 -61.5t65.5 -89t57.5 -125t56 -169.5t60 -222.5h-143q-48 183 -88.5 306t-87.5 198
t-109.5 107t-155.5 32h-161v-643h-136v643h-161q-59 0 -106 -12.5t-85.5 -41.5t-70.5 -77t-61.5 -119.5t-58.5 -168.5t-61 -224h-141q32 126 59.5 222.5t55.5 169.5t57.5 125t65 89t78.5 61t98 42q-35 12 -68.5 31t-65 50.5t-62 79.5t-60 119t-58 168t-57.5 227h143
q28 -126 56 -220.5t56.5 -163.5t59.5 -114.5t66 -72.5t75 -38t87 -11h159v620h136v-620z" />
    <glyph glyph-name="uni0417" unicode="&#x417;" horiz-adv-x="1157" 
d="M162 258q29 -33 66 -63.5t81.5 -54.5t97 -38t113.5 -14q184 0 275.5 81.5t91.5 227.5q0 128 -75.5 198.5t-233.5 70.5h-244v118h217q157 0 236 60.5t79 195.5q0 124 -83 190t-236 66q-119 0 -209 -32.5t-164 -104.5l-86 103q38 34 83.5 62t102 48t125.5 30.5t154 10.5
q120 0 206 -29t142 -79.5t82.5 -118.5t26.5 -146q0 -117 -53.5 -197.5t-168.5 -117.5q58 -16 102.5 -47.5t75 -75.5t46.5 -98.5t16 -116.5q0 -80 -28 -155t-89.5 -133t-158 -93t-234.5 -35q-135 0 -254.5 47.5t-204.5 153.5z" />
    <glyph glyph-name="uni0418" unicode="&#x418;" horiz-adv-x="1376" 
d="M199 0v1384h131v-1191l653 1191h195v-1384h-131v1239l-685 -1239h-163z" />
    <glyph glyph-name="uni0419" unicode="&#x419;" horiz-adv-x="1376" 
d="M199 0v1384h131v-1191l653 1191h195v-1384h-131v1239l-685 -1239h-163zM997 1769q-1 -48 -17.5 -92.5t-54 -79t-98 -55t-147.5 -20.5q-78 0 -135.5 20.5t-95 55t-55.5 79t-19 92.5h133q9 -78 48.5 -120.5t121.5 -42.5q50 0 83 9.5t54 30t31.5 51t15.5 72.5h135z" />
    <glyph glyph-name="uni041A" unicode="&#x41a;" horiz-adv-x="1233" 
d="M334 1384v-620h225q48 0 88 11t75.5 38t66 72.5t59.5 114.5t56.5 163.5t56.5 220.5h141q-29 -130 -58 -227t-58.5 -168t-60 -119t-62 -79.5t-64.5 -50.5t-68 -31q55 -17 98 -41.5t78.5 -61.5t65 -89t57.5 -125t55.5 -169.5t59.5 -222.5h-141l-59.5 214t-56 165.5
t-59.5 121.5t-69.5 81.5t-87 46t-111.5 14.5h-227v-643h-135v1384h135z" />
    <glyph glyph-name="uni041B" unicode="&#x41b;" horiz-adv-x="1303" 
d="M547 1264v-74q0 -285 -30 -509t-88 -379t-144 -236.5t-197 -81.5q-25 0 -52 4t-48 12l20 111q13 -5 27 -7t26 -2q79 0 144 65t111 203t71 352.5t25 514.5v147h692v-1384h-135v1264h-422z" />
    <glyph glyph-name="uni041C" unicode="&#x41c;" horiz-adv-x="1556" 
d="M1227 0v1219l-406 -828h-90l-401 828v-1219h-131v1384h190l391 -806l389 806h189v-1384h-131z" />
    <glyph glyph-name="uni041D" unicode="&#x41d;" horiz-adv-x="1341" 
d="M1008 0v655h-674v-655h-135v1384h135v-606h674v606h135v-1384h-135z" />
    <glyph glyph-name="uni041E" unicode="&#x41e;" horiz-adv-x="1364" 
d="M1229 692q0 -167 -29 -300.5t-94 -227t-169.5 -143.5t-254.5 -50t-254 50t-169 144t-94.5 227t-29.5 300q0 166 29.5 299.5t94.5 227t169 144t254 50.5t254.5 -50t169.5 -143t94 -226.5t29 -301.5zM1083 692q0 144 -21 255.5t-68 187.5t-124 115.5t-188 39.5
q-112 0 -189 -39t-124.5 -115t-68.5 -187.5t-21 -256.5q0 -144 21 -255t68.5 -187.5t124.5 -116t189 -39.5q111 0 188 39.5t124 115.5t68 187.5t21 255.5z" />
    <glyph glyph-name="uni041F" unicode="&#x41f;" horiz-adv-x="1282" 
d="M199 0v1384h884v-1384h-135v1262h-614v-1262h-135z" />
    <glyph glyph-name="uni0420" unicode="&#x420;" horiz-adv-x="1153" 
d="M1044 952q0 -126 -29 -214t-88.5 -143.5t-149.5 -80.5t-212 -25h-231v-489h-135v1384h383q238 0 350 -107.5t112 -324.5zM899 948q0 90 -22.5 150.5t-65 96.5t-103.5 51.5t-139 15.5h-235v-650h209q93 0 160 15t110.5 52.5t64.5 102.5t21 166z" />
    <glyph glyph-name="uni0421" unicode="&#x421;" horiz-adv-x="1315" 
d="M1225 246q-33 -59 -75 -109t-100 -87t-135.5 -58t-181.5 -21q-302 0 -445 181t-143 540q0 174 34 308.5t105 226t180.5 139t260.5 47.5q97 0 173 -19t133.5 -54t100 -84t74.5 -109l-116 -74q-26 48 -58 87.5t-75.5 68.5t-100 45t-131.5 16q-118 0 -201 -39.5t-135 -116
t-76 -187.5t-24 -255t24 -255t77 -187.5t137 -116t204 -39.5q84 0 145.5 20t105.5 52t74.5 71.5t53.5 79.5z" />
    <glyph glyph-name="uni0422" unicode="&#x422;" horiz-adv-x="1174" 
d="M653 1262v-1262h-135v1262h-475v122h1085v-122h-475z" />
    <glyph glyph-name="uni0423" unicode="&#x423;" horiz-adv-x="1182" 
d="M602 459l402 925h141l-514 -1169q-31 -71 -66 -117.5t-78.5 -75t-97.5 -40t-123 -11.5q-24 0 -49.5 3t-48.5 7t-42.5 9t-31.5 10l43 115q28 -11 65 -19t72 -8q83 0 139 34.5t91 117.5l22 57l-463 1087h146z" />
    <glyph glyph-name="uni0424" unicode="&#x424;" horiz-adv-x="1530" 
d="M705 -39v191q-155 4 -268.5 38.5t-187.5 101t-110.5 166.5t-36.5 234q0 141 38.5 242.5t114.5 168t188.5 100t261.5 38.5v182h122v-182q153 -5 266 -39t187 -101t110.5 -168.5t36.5 -240.5q0 -144 -39.5 -245t-116 -165.5t-188.5 -95t-256 -34.5v-191h-122zM242 692
q0 -100 23 -177t77 -130t142.5 -82.5t220.5 -34.5v856q-135 -5 -224.5 -34.5t-142.5 -84t-74.5 -133t-21.5 -180.5zM1288 692q0 102 -23 180.5t-77 133t-142.5 85t-218.5 35.5v-858q130 5 218.5 34.5t142.5 82.5t77 130t23 177z" />
    <glyph glyph-name="uni0425" unicode="&#x425;" horiz-adv-x="1169" 
d="M66 0l444 694l-432 690h155l357 -585l362 585h152l-440 -686l440 -698h-156l-364 594l-371 -594h-147z" />
    <glyph glyph-name="uni0426" unicode="&#x426;" horiz-adv-x="1331" 
d="M199 0v1384h135v-1261h647v1261h135v-1265h170v-381h-133v262h-954z" />
    <glyph glyph-name="uni0427" unicode="&#x427;" horiz-adv-x="1272" 
d="M133 1384h135v-378q0 -108 13.5 -180.5t47 -116t91.5 -62t147 -18.5q84 0 181 18t188 49v688h137v-1384h-135v586q-105 -34 -204.5 -54t-190.5 -20q-109 0 -187 25t-127.5 79t-72.5 138.5t-23 203.5v426z" />
    <glyph glyph-name="uni0428" unicode="&#x428;" horiz-adv-x="1890" 
d="M1556 121v1263h136v-1384h-1493v1384h135v-1263h545v1263h133v-1263h544z" />
    <glyph glyph-name="uni0429" unicode="&#x429;" horiz-adv-x="1907" 
d="M199 0v1384h135v-1265h545v1265h133v-1265h544v1265h136v-1265h172v-381h-133v262h-1532z" />
    <glyph glyph-name="uni042A" unicode="&#x42a;" horiz-adv-x="1370" 
d="M29 1264v120h518v-550h221q139 0 235.5 -26t156.5 -78t87 -130.5t27 -183.5q0 -214 -128 -315t-374 -101h-360v1264h-383zM547 715v-596h217q91 0 160 16t114.5 52t68.5 93t23 138q0 86 -21 143t-66.5 91.5t-117.5 48.5t-175 14h-203z" />
    <glyph glyph-name="uni042B" unicode="&#x42b;" horiz-adv-x="1659" 
d="M1325 1384h135v-1384h-135v1384zM199 0v1384h135v-550h227q138 0 234.5 -26t157 -78t87.5 -130.5t27 -183.5q0 -215 -128 -315.5t-374 -100.5h-366zM922 418q0 86 -21 143t-66.5 91.5t-117.5 48.5t-174 14h-209v-596h223q91 0 159.5 16t114.5 52t68.5 93t22.5 138z" />
    <glyph glyph-name="uni042C" unicode="&#x42c;" horiz-adv-x="1161" 
d="M199 0v1384h135v-550h227q138 0 234.5 -26t157 -78t87.5 -130.5t27 -183.5q0 -215 -128 -315.5t-374 -100.5h-366zM922 418q0 86 -21 143t-66.5 91.5t-117.5 48.5t-174 14h-209v-596h223q91 0 159.5 16t114.5 52t68.5 93t22.5 138z" />
    <glyph glyph-name="uni042D" unicode="&#x42d;" horiz-adv-x="1321" 
d="M145 1147q31 60 74 109t101 84t133.5 54t173.5 19q151 0 260.5 -47.5t180 -139t104.5 -226t34 -308.5q0 -359 -142.5 -540t-445.5 -181q-104 0 -181 21t-135 58t-100 87t-75 109l115 71q23 -40 53 -79.5t74.5 -71.5t105.5 -52t146 -20q114 0 196 36t135 104.5t79 169
t30 229.5h-723v125h723q-5 128 -31.5 227.5t-79 167t-132.5 102.5t-191 35q-75 0 -131.5 -16t-100 -45t-76 -68.5t-57.5 -87.5z" />
    <glyph glyph-name="uni042E" unicode="&#x42e;" horiz-adv-x="1866" 
d="M334 0h-135v1384h135v-622h301q6 150 39 270.5t98.5 205t166.5 130t243 45.5q152 0 256.5 -50t169.5 -143.5t94 -227t29 -300.5t-29.5 -300t-94.5 -227t-170 -144t-255 -50q-145 0 -247.5 47t-167.5 134t-96.5 211.5t-35.5 279.5h-301v-643zM1587 692q0 144 -20.5 255.5
t-68 188t-125 116.5t-191.5 40q-113 0 -190 -39.5t-124.5 -115.5t-68.5 -188t-21 -257q0 -143 21 -255t68.5 -189t124.5 -117.5t190 -40.5q114 0 191.5 40t125 116.5t68 189t20.5 256.5z" />
    <glyph glyph-name="uni042F" unicode="&#x42f;" horiz-adv-x="1237" 
d="M72 0l377 606q-70 15 -124.5 43.5t-92 75.5t-57 114.5t-19.5 159.5q0 107 30 180.5t88.5 119t145.5 65.5t201 20h393v-1384h-135v586h-291l-355 -586h-161zM299 993q0 -78 16.5 -132.5t55 -88.5t101.5 -49.5t157 -15.5h250v557h-256q-90 0 -152 -15t-100 -47.5t-55 -84
t-17 -124.5z" />
    <glyph glyph-name="uni0430" unicode="&#x430;" horiz-adv-x="1079" 
d="M776 0v152l-87 -72.5t-85.5 -58t-90 -38.5t-99.5 -14q-74 0 -129 22.5t-91.5 65t-54.5 103t-18 135.5q0 82 24 143t75 103.5t130.5 67.5t190.5 36l235 23v53q0 66 -15 112.5t-47.5 76.5t-83 43.5t-120.5 13.5q-59 0 -102.5 -10.5t-75 -28t-52.5 -40.5t-36 -48l-103 63
q22 36 52.5 68t75 56t104 38t139.5 14q106 0 180.5 -20t122 -63.5t69 -113t21.5 -169.5v-713h-129zM776 561l-188 -18q-90 -9 -153.5 -25.5t-103.5 -45t-58.5 -71t-18.5 -102.5q0 -114 46 -165.5t144 -51.5q37 0 72.5 11t74.5 33.5t84 58l101 83.5v293z" />
    <glyph glyph-name="uni0431" unicode="&#x431;" horiz-adv-x="1122" 
d="M1012 518q0 -122 -27.5 -223t-81 -173.5t-133 -112.5t-182.5 -40q-120 0 -207.5 45.5t-144 132t-84 210.5t-27.5 282q0 184 17 317t55.5 226.5t100.5 152.5t151.5 96t209 56.5t273.5 34.5v-127q-114 -8 -207.5 -18.5t-167 -32t-127.5 -58t-90.5 -96t-55.5 -146
t-22 -208.5q33 34 74.5 63t88.5 50t97.5 32.5t102.5 11.5q187 0 287 -117.5t100 -357.5zM879 510q0 193 -69 284t-220 91q-58 0 -107.5 -18t-90.5 -44.5t-73.5 -57t-56.5 -56.5q-2 -26 -2 -49v-48q0 -128 21 -228t62 -168.5t103 -104t144 -35.5q63 0 116 28.5t91.5 83.5
t60 136t21.5 186z" />
    <glyph glyph-name="uni0432" unicode="&#x432;" horiz-adv-x="1069" 
d="M954 307q0 -84 -28 -142t-81.5 -95t-131 -53.5t-176.5 -16.5h-355v1049h357q106 0 178.5 -14.5t116 -44.5t62.5 -77.5t19 -113.5q0 -88 -40.5 -152t-131.5 -96q47 -9 86 -27t66.5 -47.5t43 -71t15.5 -98.5zM786 780q0 52 -16 84t-49 50t-82 24t-115 6h-217v-356h199
q142 0 211 52.5t69 139.5zM823 305q0 46 -13 79.5t-45 55.5t-86.5 32.5t-137.5 10.5h-234v-379h182q92 0 156 10.5t103.5 34t57 62t17.5 94.5z" />
    <glyph glyph-name="uni0433" unicode="&#x433;" horiz-adv-x="868" 
d="M182 1049h670v-109h-541v-940h-129v1049z" />
    <glyph glyph-name="uni0434" unicode="&#x434;" horiz-adv-x="1055" 
d="M20 -262v371h99q40 73 77.5 169.5t65.5 215t45 257.5t17 298h530v-940h166v-371h-123v262h-754v-262h-123zM729 942h-283q-5 -141 -22 -261t-43 -222.5t-60 -189.5t-73 -160h481v833z" />
    <glyph glyph-name="uni0435" unicode="&#x435;" horiz-adv-x="1051" 
d="M262 524q0 -115 14.5 -199t49 -138.5t91.5 -80.5t142 -26q42 0 77 7.5t65.5 25t58.5 45t55 67.5l103 -67q-28 -45 -61.5 -80t-77 -59t-99 -37t-127.5 -13q-104 0 -183 30t-132.5 95.5t-81 169.5t-27.5 252q0 133 23 237.5t73.5 177t131 110.5t196.5 38q102 0 175 -32
t119.5 -92.5t68.5 -148t22 -198.5v-84h-676zM811 629q-3 177 -66 259.5t-196 82.5q-69 0 -119.5 -20t-85 -62t-54 -106.5t-26.5 -153.5h547z" />
    <glyph glyph-name="uni0436" unicode="&#x436;" horiz-adv-x="1438" 
d="M782 1049v-465h127q44 0 81 18.5t70 69.5t63.5 142t60.5 235h131q-32 -153 -63 -248.5t-63 -151t-65 -80t-67 -34.5q60 -15 102.5 -50.5t76 -98.5t62.5 -158t62 -228h-131q-25 95 -47.5 167t-44.5 125t-45.5 87.5t-51.5 55.5t-62 29.5t-77 8.5h-119v-473h-127v473h-120
q-64 0 -108.5 -20t-80.5 -73t-68 -144.5t-69 -235.5h-131q33 133 62 227.5t62.5 157.5t76 98.5t102.5 51.5q-35 10 -68 34t-65 79.5t-63.5 151.5t-63.5 249h133q30 -144 60.5 -235t63.5 -142t70 -69.5t80 -18.5h127v465h127z" />
    <glyph glyph-name="uni0437" unicode="&#x437;" horiz-adv-x="985" 
d="M268 598h189q65 0 115 8.5t84 29t51.5 55t17.5 85.5q0 48 -18.5 83.5t-52 59.5t-80 36t-101.5 12q-101 0 -161 -40t-101 -112l-102 66q55 100 143 149t219 49q89 0 160 -21.5t120 -60.5t75 -94.5t26 -124.5q0 -51 -13.5 -91.5t-38 -70.5t-59 -50t-75.5 -31q42 -12 76 -37
t58 -59.5t37 -76t13 -86.5q0 -146 -96 -226.5t-291 -80.5q-73 0 -129 13.5t-99.5 39t-77.5 62.5t-63 84l109 63q47 -77 107 -114t155 -37q121 0 189.5 53t68.5 152t-64.5 151.5t-191.5 52.5h-199v109z" />
    <glyph glyph-name="uni0438" unicode="&#x438;" horiz-adv-x="1157" 
d="M319 0h-137v1049h123v-875l535 875h135v-1049h-125v864z" />
    <glyph glyph-name="uni0439" unicode="&#x439;" horiz-adv-x="1157" 
d="M319 0h-137v1049h123v-875l535 875h135v-1049h-125v864zM893 1444q-1 -47 -17.5 -91.5t-54 -79.5t-98 -56t-147.5 -21q-78 0 -135.5 21t-95 56t-55.5 79.5t-19 91.5h131q9 -79 49.5 -121.5t122.5 -42.5q50 0 83.5 9.5t55 30t32 51.5t15.5 73h133z" />
    <glyph glyph-name="uni043A" unicode="&#x43a;" horiz-adv-x="979" 
d="M309 1049v-465h158q43 0 79.5 18.5t69.5 69.5t63 142t60 235h133q-32 -153 -63.5 -248.5t-63 -151t-64.5 -80t-69 -34.5q61 -15 103.5 -50.5t76.5 -98.5t62.5 -158t60.5 -228h-131q-25 96 -47 168t-44 124.5t-45.5 87.5t-51 55.5t-61.5 29t-76 8.5h-150v-473h-127v1049
h127z" />
    <glyph glyph-name="uni043B" unicode="&#x43b;" horiz-adv-x="1040" 
d="M444 940v-51q0 -232 -23.5 -402.5t-66.5 -282t-105 -166t-138 -54.5q-11 0 -24.5 1.5t-27 3.5t-26 5t-21.5 6l27 113q15 -5 33.5 -7t33.5 -2q45 0 83.5 43t67.5 139.5t45.5 251.5t16.5 380v131h539v-1049h-127v940h-287z" />
    <glyph glyph-name="uni043C" unicode="&#x43c;" horiz-adv-x="1276" 
d="M1094 0h-125v834l-299 -551h-68l-297 551v-834h-123v1049h127l328 -592l330 592h127v-1049z" />
    <glyph glyph-name="uni043D" unicode="&#x43d;" horiz-adv-x="1163" 
d="M981 0h-127v487h-545v-487h-127v1049h127v-455h545v455h127v-1049z" />
    <glyph glyph-name="uni043E" unicode="&#x43e;" horiz-adv-x="1141" 
d="M1012 522q0 -125 -24 -226.5t-77 -174.5t-137 -112.5t-203 -39.5t-203 39.5t-137 112.5t-77.5 174.5t-24.5 226.5q0 122 24 224.5t77 176.5t137 115t204 41q117 0 200.5 -39.5t137 -112.5t78.5 -175.5t25 -229.5zM877 522q0 106 -16 189t-52 140t-94.5 86.5t-143.5 29.5
q-86 0 -145 -30.5t-95.5 -88t-52.5 -140t-16 -186.5t16.5 -186t53 -139t95.5 -87t144 -30q83 0 141.5 29.5t95 86.5t53 139t16.5 187z" />
    <glyph glyph-name="uni043F" unicode="&#x43f;" horiz-adv-x="1139" 
d="M827 0v938h-516v-938h-129v1049h774v-1049h-129z" />
    <glyph glyph-name="uni0440" unicode="&#x440;" horiz-adv-x="1151" 
d="M1022 532q0 -123 -25 -226.5t-76 -178.5t-128.5 -116.5t-182.5 -41.5q-77 0 -153.5 34.5t-145.5 100.5v-499h-129v1444h129v-115q31 31 67.5 58t77 46t84.5 30t89 11q106 0 180.5 -42.5t121.5 -116.5t69 -173.5t22 -214.5zM889 528q0 101 -16.5 182t-51 137.5t-87.5 87
t-126 30.5q-80 0 -154.5 -42.5t-142.5 -111.5v-586q69 -65 143.5 -104t145.5 -39q62 0 115 26t91.5 80.5t60.5 138.5t22 201z" />
    <glyph glyph-name="uni0441" unicode="&#x441;" horiz-adv-x="1016" 
d="M926 168q-25 -47 -58 -84t-77 -62.5t-99.5 -39t-124.5 -13.5q-123 0 -206.5 42t-135 115.5t-74 174.5t-22.5 219q0 128 24.5 231.5t77 176t135 112t199.5 39.5q124 0 207.5 -49t140.5 -151l-106 -64q-21 39 -45 67.5t-53.5 47t-65.5 28t-82 9.5q-157 0 -228 -114
t-71 -337q0 -98 15.5 -178t51 -137.5t94 -89t144.5 -31.5q49 0 86.5 10.5t67.5 30.5t54 48.5t46 63.5z" />
    <glyph glyph-name="uni0442" unicode="&#x442;" horiz-adv-x="807" 
d="M791 942h-326v-942h-127v942h-322v107h775v-107z" />
    <glyph glyph-name="uni0443" unicode="&#x443;" horiz-adv-x="1018" 
d="M41 -256q25 -14 61 -21.5t70 -7.5q75 0 129 59.5t98 176.5l41 104l-383 994h140l311 -832l315 832h138l-453 -1147q-32 -81 -67.5 -138t-76.5 -92t-89 -51t-105 -16q-21 0 -44.5 2t-46 6t-42 9.5t-33.5 12.5z" />
    <glyph glyph-name="uni0444" unicode="&#x444;" horiz-adv-x="1343" 
d="M614 -395v366q-118 5 -208.5 36t-152 96t-93 167.5t-31.5 249.5q0 149 31 253.5t92.5 170.5t152 97.5t209.5 35.5v412h121v-412q122 -5 212 -38t149.5 -100.5t88.5 -171t29 -247.5q0 -148 -30.5 -249.5t-90.5 -166t-150 -95.5t-208 -38v-366h-121zM260 520
q0 -105 17.5 -185t59 -135t109 -85.5t168.5 -36.5v891q-98 -6 -165.5 -34.5t-109.5 -82.5t-60.5 -136t-18.5 -196zM1081 520q0 108 -17 190t-57.5 137.5t-107 85.5t-164.5 36v-889q97 6 163.5 34t107 81.5t58 133.5t17.5 191z" />
    <glyph glyph-name="uni0445" unicode="&#x445;" horiz-adv-x="965" 
d="M748 0l-269 432l-276 -432h-144l351 522l-344 527h151l270 -431l273 431h143l-344 -519l344 -530h-155z" />
    <glyph glyph-name="uni0446" unicode="&#x446;" 
d="M182 0v1049h129v-940h541v940h129v-943h164v-368h-121v262h-842z" />
    <glyph glyph-name="uni0447" unicode="&#x447;" horiz-adv-x="1049" 
d="M98 1049h127v-289q0 -95 9.5 -155t30.5 -95t54.5 -48t81.5 -13q39 0 83 6t88.5 16.5t87.5 25.5t79 33v519h127v-1049h-127v420q-41 -17 -85.5 -33t-90 -29t-91.5 -20.5t-89 -7.5q-77 0 -131 23t-88.5 71.5t-50 122.5t-15.5 176v326z" />
    <glyph glyph-name="uni0448" unicode="&#x448;" horiz-adv-x="1628" 
d="M1333 104v945h127v-1049h-1278v1049h127v-945h449v945h127v-945h448z" />
    <glyph glyph-name="uni0449" unicode="&#x449;" horiz-adv-x="1663" 
d="M182 0v1049h127v-943h449v943h127v-943h448v943h127v-943h166v-368h-123v262h-1321z" />
    <glyph glyph-name="uni044A" unicode="&#x44a;" horiz-adv-x="1032" 
d="M16 942v107h375v-412h166q102 0 176 -18t121.5 -57.5t70.5 -102.5t23 -152q0 -85 -25 -143.5t-73.5 -95t-121.5 -52.5t-169 -16h-295v942h-248zM815 309q0 64 -14.5 107t-47.5 69t-85.5 36.5t-128.5 10.5h-148v-428h160q74 0 124.5 11.5t81.5 36.5t44.5 64t13.5 93z" />
    <glyph glyph-name="uni044B" unicode="&#x44b;" horiz-adv-x="1425" 
d="M309 637h166q102 0 176 -18t122 -57.5t70.5 -102.5t22.5 -152q0 -81 -22.5 -139.5t-69.5 -95.5t-121 -54.5t-176 -17.5h-295v1049h127v-412zM733 309q0 61 -13 104t-44.5 69t-84.5 38t-134 12h-148v-428h162q75 0 125 12t80.5 37t43.5 63.5t13 92.5zM1114 0v1049h129
v-1049h-129z" />
    <glyph glyph-name="uni044C" unicode="&#x44c;" horiz-adv-x="952" 
d="M309 637h166q102 0 176 -18t122 -57.5t70.5 -102.5t22.5 -152q0 -81 -22.5 -139.5t-69.5 -95.5t-121 -54.5t-176 -17.5h-295v1049h127v-412zM733 309q0 61 -13 104t-44.5 69t-84.5 38t-134 12h-148v-428h162q75 0 125 12t80.5 37t43.5 63.5t13 92.5z" />
    <glyph glyph-name="uni044D" unicode="&#x44d;" horiz-adv-x="1016" 
d="M102 879q56 102 140.5 151t208.5 49q116 0 198.5 -39.5t135.5 -112t77.5 -176t24.5 -231.5q0 -118 -23 -219t-74.5 -174.5t-136 -115.5t-207.5 -42q-69 0 -124 13.5t-98.5 39t-77 62.5t-58.5 84l107 65q21 -35 45 -63.5t54 -48.5t67.5 -30.5t87.5 -10.5q80 0 136 27.5
t92 78.5t54 123.5t21 161.5h-529v107h529q-11 193 -82.5 291t-216.5 98q-45 0 -81.5 -9.5t-65.5 -28t-52.5 -47t-44.5 -67.5z" />
    <glyph glyph-name="uni044E" unicode="&#x44e;" horiz-adv-x="1544" 
d="M307 0h-125v1049h125v-463h230q5 110 32.5 200.5t80.5 155.5t133.5 101t191.5 36q117 0 200 -39t136.5 -111.5t78.5 -175.5t25 -231q0 -125 -24.5 -227t-77.5 -174.5t-136.5 -112t-201.5 -39.5q-114 0 -195.5 36.5t-134.5 103t-79.5 161t-30.5 211.5h-228v-481zM1284 522
q0 106 -17 190t-54 142t-95.5 88.5t-142.5 30.5t-143.5 -31.5t-97 -90t-55 -142t-17.5 -187.5t18 -187t56 -140.5t97 -88t142 -30.5q81 0 139.5 30.5t96 87.5t55.5 140t18 188z" />
    <glyph glyph-name="uni044F" unicode="&#x44f;" horiz-adv-x="1032" 
d="M504 442h-43l-252 -442h-141l270 459q-111 29 -161 102.5t-50 198.5q0 79 23 134t70 89.5t118.5 50t169.5 15.5h342v-1049h-127v442h-219zM258 754q0 -57 12 -96.5t42 -64t81 -35.5t129 -11h201v397h-203q-77 0 -127.5 -10t-80.5 -32.5t-42 -58.5t-12 -89z" />
    <glyph glyph-name="uni0450" unicode="&#x450;" horiz-adv-x="1051" 
d="M262 524q0 -115 14.5 -199t49 -138.5t91.5 -80.5t142 -26q42 0 77 7.5t65.5 25t58.5 45t55 67.5l103 -67q-28 -45 -61.5 -80t-77 -59t-99 -37t-127.5 -13q-104 0 -183 30t-132.5 95.5t-81 169.5t-27.5 252q0 133 23 237.5t73.5 177t131 110.5t196.5 38q102 0 175 -32
t119.5 -92.5t68.5 -148t22 -198.5v-84h-676zM811 629q-3 177 -66 259.5t-196 82.5q-69 0 -119.5 -20t-85 -62t-54 -106.5t-26.5 -153.5h547zM571 1208l-258 361h176l186 -361h-104z" />
    <glyph glyph-name="uni0451" unicode="&#x451;" horiz-adv-x="1051" 
d="M262 524q0 -115 14.5 -199t49 -138.5t91.5 -80.5t142 -26q42 0 77 7.5t65.5 25t58.5 45t55 67.5l103 -67q-28 -45 -61.5 -80t-77 -59t-99 -37t-127.5 -13q-104 0 -183 30t-132.5 95.5t-81 169.5t-27.5 252q0 133 23 237.5t73.5 177t131 110.5t196.5 38q102 0 175 -32
t119.5 -92.5t68.5 -148t22 -198.5v-84h-676zM811 629q-3 177 -66 259.5t-196 82.5q-69 0 -119.5 -20t-85 -62t-54 -106.5t-26.5 -153.5h547zM820 1300q0 -48 -19.5 -69t-70.5 -21q-53 0 -70.5 25t-17.5 65q0 45 18.5 67t69.5 22q54 0 72 -21t18 -68zM450 1300
q0 -48 -19.5 -69t-70.5 -21q-27 0 -44 6.5t-27 18.5t-13.5 28.5t-3.5 36.5q0 45 18.5 67t69.5 22q53 0 71.5 -21.5t18.5 -67.5z" />
    <glyph glyph-name="uni0452" unicode="&#x452;" horiz-adv-x="1090" 
d="M590 1217h-295v-324q47 52 92 87.5t88 57.5t82.5 31.5t75.5 9.5q86 0 150 -33.5t106 -104t63 -180t21 -261.5q0 -181 -19.5 -333t-69 -266.5t-135.5 -188t-219 -97.5l-20 111q81 14 143 59.5t103.5 133.5t62.5 225t21 335q0 138 -15 230t-43.5 147t-71.5 77.5t-98 22.5
q-27 0 -60.5 -8t-73 -28.5t-85.5 -56.5t-98 -91v-772h-129v1217h-141v106h141v166h129v-166h295v-106z" />
    <glyph glyph-name="uni0453" unicode="&#x453;" horiz-adv-x="868" 
d="M182 1049h670v-109h-541v-940h-129v1049zM505 1208h-104l186 361h178z" />
    <glyph glyph-name="uni0454" unicode="&#x454;" horiz-adv-x="1016" 
d="M926 168q-25 -47 -58 -84t-77 -62.5t-99.5 -39t-124.5 -13.5q-123 0 -206.5 42t-135 115.5t-74 174.5t-22.5 219q0 128 24.5 231.5t77 176t135 112t199.5 39.5q124 0 207.5 -49t140.5 -151l-106 -64q-21 39 -45 67.5t-53.5 47t-65.5 28t-82 9.5q-145 0 -216.5 -97
t-80.5 -292h527v-107h-527q3 -89 20.5 -161.5t53.5 -123.5t92 -78.5t137 -27.5q49 0 86.5 10.5t67.5 30.5t54 48.5t46 63.5z" />
    <glyph glyph-name="uni0455" unicode="&#x455;" horiz-adv-x="973" 
d="M856 268q0 -74 -25.5 -130t-74 -93.5t-118 -56.5t-157.5 -19q-81 0 -142 17.5t-105.5 44.5t-73 59.5t-43.5 63.5l104 65q35 -63 98.5 -101t163.5 -38q52 0 97 8.5t78 29.5t52 56.5t19 89.5q0 42 -12 72.5t-42.5 54t-82.5 42.5t-133 40q-84 22 -144.5 47t-100 60.5
t-58.5 85t-19 120.5q0 58 21.5 111.5t66 93.5t111.5 64t158 24q69 0 123.5 -15t96.5 -40.5t72 -59.5t50 -71l-105 -62q-15 28 -36.5 53t-50 43.5t-65.5 29t-85 10.5q-107 0 -168.5 -47t-61.5 -132q0 -41 11 -70t37 -50.5t70.5 -38.5t111.5 -35q101 -27 170.5 -55t112 -65
t61 -86.5t18.5 -119.5z" />
    <glyph glyph-name="uni0456" unicode="&#x456;" horiz-adv-x="494" 
d="M338 1305q0 -51 -21.5 -69.5t-70.5 -18.5q-51 0 -70.5 23t-19.5 65q0 45 20 65.5t70 20.5q51 0 71.5 -20t20.5 -66zM182 0v1049h129v-1049h-129z" />
    <glyph glyph-name="uni0457" unicode="&#x457;" horiz-adv-x="494" 
d="M182 0v1049h129v-1049h-129zM513 1300q0 -48 -19.5 -69t-70.5 -21q-53 0 -70.5 25t-17.5 65q0 45 18.5 67t69.5 22q54 0 72 -21t18 -68zM143 1300q0 -48 -19.5 -69t-70.5 -21q-27 0 -44 6.5t-27 18.5t-13.5 28.5t-3.5 36.5q0 45 18.5 67t69.5 22q53 0 71.5 -21.5
t18.5 -67.5z" />
    <glyph glyph-name="uni0458" unicode="&#x458;" horiz-adv-x="508" 
d="M350 1305q0 -51 -22 -69.5t-70 -18.5q-53 0 -72.5 23t-19.5 65q0 45 21.5 65.5t70.5 20.5q51 0 71.5 -20t20.5 -66zM322 -55q0 -86 -13.5 -149.5t-46 -106t-87.5 -63.5t-138 -21q-40 0 -86 7.5t-92 22.5l32 107q36 -14 73 -21.5t79 -7.5q43 0 72 14t46 44t24.5 76.5
t7.5 111.5v1090h129v-1104z" />
    <glyph glyph-name="uni0459" unicode="&#x459;" horiz-adv-x="1497" 
d="M319 1049h537v-412h164q103 0 177 -18t122 -57.5t71 -102.5t23 -152q0 -85 -25 -143.5t-74 -95t-122 -52.5t-170 -16h-293v940h-285v-51q0 -232 -23.5 -402.5t-66.5 -282t-105 -166t-138 -54.5q-11 0 -24.5 1.5t-27 3.5t-26 5t-21.5 6l27 113q15 -5 33.5 -7t33.5 -2
q45 0 83.5 43t67.5 139.5t45.5 251.5t16.5 380v131zM1280 309q0 64 -14.5 107t-47.5 69t-85.5 36.5t-128.5 10.5h-148v-428h160q70 0 120 10.5t82 34.5t47 63.5t15 96.5z" />
    <glyph glyph-name="uni045A" unicode="&#x45a;" horiz-adv-x="1587" 
d="M817 0v508h-508v-508h-127v1049h127v-435h508v435h127v-435h166q103 0 177 -17t122 -54.5t71 -96.5t23 -143t-25 -142t-74 -94t-122 -51.5t-170 -15.5h-295zM1370 305q0 56 -12.5 95t-44 63t-85.5 34.5t-136 10.5h-148v-404h162q74 0 124.5 11.5t81.5 35.5t44.5 62
t13.5 92z" />
    <glyph glyph-name="uni045B" unicode="&#x45b;" horiz-adv-x="1137" 
d="M834 0v651q0 89 -8 148t-28 94t-54.5 49t-86.5 14q-69 0 -160 -51.5t-186 -142.5v-762h-129v1206h-168v109h168v174h129v-174h283v-109h-283v-323q44 41 89 77t91.5 62.5t93.5 41.5t95 15q84 0 139 -25t87 -73.5t44.5 -119t12.5 -161.5v-700h-129z" />
    <glyph glyph-name="uni045C" unicode="&#x45c;" horiz-adv-x="979" 
d="M309 1049v-465h158q43 0 79.5 18.5t69.5 69.5t63 142t60 235h133q-32 -153 -63.5 -248.5t-63 -151t-64.5 -80t-69 -34.5q61 -15 103.5 -50.5t76.5 -98.5t62.5 -158t60.5 -228h-131q-25 96 -47 168t-44 124.5t-45.5 87.5t-51 55.5t-61.5 29t-76 8.5h-150v-473h-127v1049
h127zM521 1208h-104l186 361h178z" />
    <glyph glyph-name="uni045D" unicode="&#x45d;" horiz-adv-x="1157" 
d="M319 0h-137v1049h123v-875l535 875h135v-1049h-125v864zM575 1208l-258 361h176l186 -361h-104z" />
    <glyph glyph-name="uni045E" unicode="&#x45e;" horiz-adv-x="1018" 
d="M41 -256q25 -14 61 -21.5t70 -7.5q75 0 129 59.5t98 176.5l41 104l-383 994h140l311 -832l315 832h138l-453 -1147q-32 -81 -67.5 -138t-76.5 -92t-89 -51t-105 -16q-21 0 -44.5 2t-46 6t-42 9.5t-33.5 12.5zM820 1444q-1 -47 -17.5 -91.5t-54 -79.5t-98 -56t-147.5 -21
q-78 0 -135.5 21t-95 56t-55.5 79.5t-19 91.5h131q9 -79 49.5 -121.5t122.5 -42.5q50 0 83.5 9.5t55 30t32 51.5t15.5 73h133z" />
    <glyph glyph-name="uni045F" unicode="&#x45f;" horiz-adv-x="1135" 
d="M967 0h-336v-262h-129v262h-336v1049h131v-940h541v940h129v-1049z" />
    <glyph glyph-name="uni0490" unicode="&#x490;" horiz-adv-x="1065" 
d="M895 1634h133v-372h-692v-1262h-137v1384h696v250z" />
    <glyph glyph-name="uni0491" unicode="&#x491;" horiz-adv-x="829" 
d="M166 0v1049h514v307h125v-416h-508v-940h-131z" />
    <glyph glyph-name="cyrbreve" horiz-adv-x="1106" 
d="M864 1444q-1 -47 -17.5 -91.5t-54 -79.5t-98 -56t-147.5 -21q-78 0 -135.5 21t-95 56t-55.5 79.5t-19 91.5h131q9 -79 49.5 -121.5t122.5 -42.5q50 0 83.5 9.5t55 30t32 51.5t15.5 73h133z" />
    <glyph glyph-name="cyrbreve.cap" horiz-adv-x="1106" 
d="M864 1769q-1 -48 -17.5 -92.5t-54 -79t-98 -55t-147.5 -20.5q-78 0 -135.5 20.5t-95 55t-55.5 79t-19 92.5h133q9 -78 48.5 -120.5t121.5 -42.5q50 0 83 9.5t54 30t31.5 51t15.5 72.5h135z" />
    <hkern u1="&#x28;" u2="&#x458;" k="-50" />
    <hkern u1="&#x28;" u2="j" k="-50" />
    <hkern u1="&#x2a;" u2="&#x459;" k="113" />
    <hkern u1="&#x2a;" u2="&#x44a;" k="-45" />
    <hkern u1="&#x2a;" u2="&#x442;" k="-10" />
    <hkern u1="&#x2a;" u2="&#x43b;" k="113" />
    <hkern u1="&#x2a;" u2="&#x42a;" k="-45" />
    <hkern u1="&#x2a;" u2="&#x422;" k="-22" />
    <hkern u1="&#x2a;" u2="&#x41b;" k="105" />
    <hkern u1="&#x2a;" u2="&#x414;" k="75" />
    <hkern u1="&#x2a;" u2="&#x410;" k="90" />
    <hkern u1="&#x2a;" u2="&#x40b;" k="-45" />
    <hkern u1="&#x2a;" u2="&#x409;" k="105" />
    <hkern u1="&#x2a;" u2="&#x408;" k="123" />
    <hkern u1="&#x2a;" u2="&#x402;" k="-45" />
    <hkern u1="&#x2a;" u2="T" k="-22" />
    <hkern u1="&#x2a;" u2="J" k="123" />
    <hkern u1="&#x2a;" u2="A" k="90" />
    <hkern u1="&#x2c;" u2="&#x42a;" k="115" />
    <hkern u1="&#x2e;" u2="&#x42a;" k="115" />
    <hkern u1="&#x3a;" u2="&#x42a;" k="70" />
    <hkern u1="&#x3b;" u2="&#x42a;" k="70" />
    <hkern u1="A" u2="&#x3f;" k="35" />
    <hkern u1="A" u2="&#x2a;" k="90" />
    <hkern u1="L" u2="&#x3f;" k="50" />
    <hkern u1="L" u2="&#x2a;" k="160" />
    <hkern u1="T" u2="&#x3f;" k="35" />
    <hkern u1="T" u2="&#x2a;" k="-22" />
    <hkern u1="[" u2="&#x458;" k="-50" />
    <hkern u1="[" u2="j" k="-50" />
    <hkern u1="f" u2="&#x3f;" k="-30" />
    <hkern u1="f" u2="&#x2a;" k="-25" />
    <hkern u1="f" u2="&#x21;" k="-30" />
    <hkern u1="j" u2="y" k="-12" />
    <hkern u1="&#x7b;" u2="&#x458;" k="-50" />
    <hkern u1="&#x7b;" u2="j" k="-50" />
    <hkern u1="&#x403;" u2="&#x45e;" k="180" />
    <hkern u1="&#x403;" u2="&#x458;" k="60" />
    <hkern u1="&#x403;" u2="&#x457;" k="-70" />
    <hkern u1="&#x403;" u2="&#x456;" k="60" />
    <hkern u1="&#x403;" u2="&#x451;" k="198" />
    <hkern u1="&#x403;" u2="&#x424;" k="50" />
    <hkern u1="&#x409;" u2="&#x42a;" k="18" />
    <hkern u1="&#x40a;" u2="&#x42a;" k="18" />
    <hkern u1="&#x40c;" u2="&#x457;" k="-5" />
    <hkern u1="&#x40c;" u2="&#x456;" k="20" />
    <hkern u1="&#x40e;" u2="&#x457;" k="-45" />
    <hkern u1="&#x410;" u2="&#x42a;" k="45" />
    <hkern u1="&#x410;" u2="&#x3f;" k="40" />
    <hkern u1="&#x410;" u2="&#x2a;" k="120" />
    <hkern u1="&#x413;" u2="&#x45e;" k="180" />
    <hkern u1="&#x413;" u2="&#x458;" k="60" />
    <hkern u1="&#x413;" u2="&#x457;" k="-70" />
    <hkern u1="&#x413;" u2="&#x456;" k="60" />
    <hkern u1="&#x413;" u2="&#x451;" k="198" />
    <hkern u1="&#x413;" u2="&#x424;" k="50" />
    <hkern u1="&#x414;" u2="&#x458;" k="-80" />
    <hkern u1="&#x414;" u2="&#x42d;" k="-15" />
    <hkern u1="&#x416;" u2="&#x457;" k="-5" />
    <hkern u1="&#x416;" u2="&#x456;" k="20" />
    <hkern u1="&#x41a;" u2="&#x457;" k="-5" />
    <hkern u1="&#x41a;" u2="&#x456;" k="20" />
    <hkern u1="&#x422;" u2="&#x458;" k="30" />
    <hkern u1="&#x422;" u2="&#x457;" k="-60" />
    <hkern u1="&#x422;" u2="&#x456;" k="20" />
    <hkern u1="&#x422;" u2="&#x451;" k="130" />
    <hkern u1="&#x422;" u2="&#x424;" k="43" />
    <hkern u1="&#x422;" u2="&#x2a;" k="-22" />
    <hkern u1="&#x423;" u2="&#x457;" k="-45" />
    <hkern u1="&#x424;" u2="&#x422;" k="43" />
    <hkern u1="&#x425;" u2="&#x457;" k="-25" />
    <hkern u1="&#x426;" u2="&#x458;" k="-80" />
    <hkern u1="&#x429;" u2="&#x458;" k="-80" />
    <hkern u1="&#x42a;" u2="&#x42a;" k="18" />
    <hkern u1="&#x42c;" u2="&#x42a;" k="18" />
    <hkern u1="&#x434;" u2="&#x458;" k="22" />
    <hkern u1="&#x442;" u2="&#x2a;" k="-10" />
    <hkern u1="&#x446;" u2="&#x458;" k="22" />
    <hkern u1="&#x449;" u2="&#x458;" k="22" />
    <hkern u1="&#x456;" u2="&#x457;" k="-5" />
    <hkern u1="&#x457;" u2="&#x45b;" k="-42" />
    <hkern u1="&#x457;" u2="&#x452;" k="-42" />
    <hkern u1="&#x457;" u2="&#x3f;" k="-5" />
    <hkern u1="&#x457;" u2="&#x2a;" k="5" />
    <hkern u1="&#x490;" u2="&#x491;" k="163" />
    <hkern u1="&#x490;" u2="&#x45f;" k="163" />
    <hkern u1="&#x490;" u2="&#x45d;" k="163" />
    <hkern u1="&#x490;" u2="&#x45c;" k="163" />
    <hkern u1="&#x490;" u2="&#x45a;" k="163" />
    <hkern u1="&#x490;" u2="&#x453;" k="163" />
    <hkern u1="&#x490;" u2="&#x44e;" k="163" />
    <hkern u1="&#x490;" u2="&#x44c;" k="163" />
    <hkern u1="&#x490;" u2="&#x44b;" k="163" />
    <hkern u1="&#x490;" u2="&#x449;" k="163" />
    <hkern u1="&#x490;" u2="&#x448;" k="163" />
    <hkern u1="&#x490;" u2="&#x446;" k="163" />
    <hkern u1="&#x490;" u2="&#x440;" k="163" />
    <hkern u1="&#x490;" u2="&#x43f;" k="163" />
    <hkern u1="&#x490;" u2="&#x43d;" k="163" />
    <hkern u1="&#x490;" u2="&#x43c;" k="163" />
    <hkern u1="&#x490;" u2="&#x43a;" k="163" />
    <hkern u1="&#x490;" u2="&#x438;" k="163" />
    <hkern u1="&#x490;" u2="&#x433;" k="163" />
    <hkern u1="&#x490;" u2="&#x432;" k="163" />
    <hkern u1="&#x490;" u2="&#x42d;" k="13" />
    <hkern u1="&#x490;" u2="&#x417;" k="13" />
    <hkern u1="&#x490;" u2="&#x45e;" k="60" />
    <hkern u1="&#x490;" u2="&#x458;" k="60" />
    <hkern u1="&#x490;" u2="&#x457;" k="-70" />
    <hkern u1="&#x490;" u2="&#x456;" k="60" />
    <hkern u1="&#x490;" u2="&#x451;" k="198" />
    <hkern u1="&#x490;" u2="&#x450;" k="195" />
    <hkern u1="&#x490;" u2="&#x439;" k="178" />
    <hkern u1="&#x490;" u2="&#x424;" k="50" />
    <hkern u1="&#x491;" u2="&#x45b;" k="-27" />
    <hkern u1="&#x491;" u2="&#x452;" k="-27" />
    <hkern u1="&#x491;" u2="&#x457;" k="-80" />
    <hkern g1="f_f" u2="&#x3f;" k="-30" />
    <hkern g1="f_f" u2="&#x2a;" k="-25" />
    <hkern g1="f_f" u2="&#x21;" k="-30" />
    <hkern g1="A"
	g2="A"
	k="30" />
    <hkern g1="A"
	g2="T"
	k="70" />
    <hkern g1="A"
	g2="V"
	k="60" />
    <hkern g1="A"
	g2="W"
	k="-20" />
    <hkern g1="A"
	g2="X"
	k="-20" />
    <hkern g1="A"
	g2="Y"
	k="25" />
    <hkern g1="A"
	g2="quotedbl,quotesingle"
	k="20" />
    <hkern g1="A"
	g2="comma,period"
	k="15" />
    <hkern g1="A"
	g2="colon,semicolon"
	k="15" />
    <hkern g1="A"
	g2="C,G,O,Q"
	k="-7" />
    <hkern g1="A"
	g2="uni0416"
	k="30" />
    <hkern g1="A"
	g2="uni0400,uni0401,uni0403,uni040A,uni040C,uni040D,uni040F,uni0411,uni0412,uni0413,uni0415,uni0418,uni0419,uni041A,uni041C,uni041D,uni041F,uni0420,uni0426,uni0428,uni0429,uni042B,uni042C,uni042E,uni0490"
	k="35" />
    <hkern g1="B"
	g2="uni0432,uni0433,uni0438,uni0439,uni043A,uni043C,uni043D,uni043F,uni0440,uni0446,uni0448,uni0449,uni044B,uni044C,uni044E,uni0453,uni0456,uni0457,uni0458,uni045A,uni045C,uni045D,uni045F,uni0491"
	k="10" />
    <hkern g1="B"
	g2="uni044F"
	k="8" />
    <hkern g1="B"
	g2="uni040E,uni0423"
	k="8" />
    <hkern g1="B"
	g2="uni0416"
	k="15" />
    <hkern g1="B"
	g2="uni0400,uni0401,uni0403,uni040A,uni040C,uni040D,uni040F,uni0411,uni0412,uni0413,uni0415,uni0418,uni0419,uni041A,uni041C,uni041D,uni041F,uni0420,uni0426,uni0428,uni0429,uni042B,uni042C,uni042E,uni0490"
	k="20" />
    <hkern g1="C"
	g2="uni042F"
	k="15" />
    <hkern g1="E"
	g2="uni0430"
	k="65" />
    <hkern g1="E"
	g2="uni0435,uni043E,uni0441,uni0444,uni0450,uni0451,uni0454"
	k="75" />
    <hkern g1="E"
	g2="uni0431"
	k="35" />
    <hkern g1="E"
	g2="uni0437,uni044D"
	k="144" />
    <hkern g1="E"
	g2="uni0445"
	k="40" />
    <hkern g1="E"
	g2="uni040E,uni0423"
	k="50" />
    <hkern g1="E"
	g2="uni0416"
	k="20" />
    <hkern g1="E"
	g2="uni0400,uni0401,uni0403,uni040A,uni040C,uni040D,uni040F,uni0411,uni0412,uni0413,uni0415,uni0418,uni0419,uni041A,uni041C,uni041D,uni041F,uni0420,uni0426,uni0428,uni0429,uni042B,uni042C,uni042E,uni0490"
	k="40" />
    <hkern g1="F"
	g2="A"
	k="45" />
    <hkern g1="F"
	g2="J"
	k="30" />
    <hkern g1="F"
	g2="T"
	k="30" />
    <hkern g1="F"
	g2="V"
	k="30" />
    <hkern g1="F"
	g2="W"
	k="40" />
    <hkern g1="F"
	g2="X"
	k="35" />
    <hkern g1="F"
	g2="Y"
	k="10" />
    <hkern g1="F"
	g2="quotedbl,quotesingle"
	k="10" />
    <hkern g1="F"
	g2="uni0414"
	k="15" />
    <hkern g1="F"
	g2="uni0404,uni041E,uni0421,uni0424"
	k="25" />
    <hkern g1="F"
	g2="uni0425"
	k="20" />
    <hkern g1="F"
	g2="uni0405"
	k="20" />
    <hkern g1="F"
	g2="uni0430"
	k="20" />
    <hkern g1="F"
	g2="uni0435,uni043E,uni0441,uni0444,uni0450,uni0451,uni0454"
	k="15" />
    <hkern g1="F"
	g2="uni0455"
	k="15" />
    <hkern g1="G"
	g2="uni0442"
	k="20" />
    <hkern g1="G"
	g2="uni0447"
	k="30" />
    <hkern g1="G"
	g2="uni0404,uni041E,uni0421,uni0424"
	k="10" />
    <hkern g1="G"
	g2="uni0430"
	k="45" />
    <hkern g1="J"
	g2="uni0408"
	k="20" />
    <hkern g1="J"
	g2="uni0402,uni040B,uni042A"
	k="30" />
    <hkern g1="J"
	g2="uni043B,uni0459"
	k="38" />
    <hkern g1="J"
	g2="uni0427"
	k="25" />
    <hkern g1="J"
	g2="uni0442"
	k="25" />
    <hkern g1="J"
	g2="uni0447"
	k="20" />
    <hkern g1="J"
	g2="uni044A"
	k="40" />
    <hkern g1="J"
	g2="uni0425"
	k="35" />
    <hkern g1="J"
	g2="uni0405"
	k="5" />
    <hkern g1="J"
	g2="uni0430"
	k="30" />
    <hkern g1="J"
	g2="uni0435,uni043E,uni0441,uni0444,uni0450,uni0451,uni0454"
	k="30" />
    <hkern g1="J"
	g2="uni0417,uni042D"
	k="40" />
    <hkern g1="J"
	g2="uni0431"
	k="20" />
    <hkern g1="J"
	g2="uni0434"
	k="20" />
    <hkern g1="J"
	g2="uni0436"
	k="35" />
    <hkern g1="J"
	g2="uni0437,uni044D"
	k="30" />
    <hkern g1="J"
	g2="uni0432,uni0433,uni0438,uni0439,uni043A,uni043C,uni043D,uni043F,uni0440,uni0446,uni0448,uni0449,uni044B,uni044C,uni044E,uni0453,uni0456,uni0457,uni0458,uni045A,uni045C,uni045D,uni045F,uni0491"
	k="30" />
    <hkern g1="J"
	g2="uni0445"
	k="25" />
    <hkern g1="J"
	g2="uni044F"
	k="25" />
    <hkern g1="J"
	g2="uni0416"
	k="50" />
    <hkern g1="K"
	g2="uni0409,uni041B"
	k="115" />
    <hkern g1="K"
	g2="uni0422"
	k="88" />
    <hkern g1="K"
	g2="uni0408"
	k="50" />
    <hkern g1="K"
	g2="uni043B,uni0459"
	k="85" />
    <hkern g1="K"
	g2="uni0427"
	k="80" />
    <hkern g1="K"
	g2="uni0442"
	k="-10" />
    <hkern g1="K"
	g2="uni0447"
	k="-20" />
    <hkern g1="K"
	g2="uni044A"
	k="40" />
    <hkern g1="K"
	g2="uni0443,uni045E"
	k="20" />
    <hkern g1="K"
	g2="uni0404,uni041E,uni0421,uni0424"
	k="15" />
    <hkern g1="K"
	g2="uni0405"
	k="28" />
    <hkern g1="K"
	g2="uni0417,uni042D"
	k="18" />
    <hkern g1="K"
	g2="uni0434"
	k="30" />
    <hkern g1="K"
	g2="uni0436"
	k="30" />
    <hkern g1="K"
	g2="uni0432,uni0433,uni0438,uni0439,uni043A,uni043C,uni043D,uni043F,uni0440,uni0446,uni0448,uni0449,uni044B,uni044C,uni044E,uni0453,uni0456,uni0457,uni0458,uni045A,uni045C,uni045D,uni045F,uni0491"
	k="50" />
    <hkern g1="L"
	g2="b,h,k,l"
	k="50" />
    <hkern g1="L"
	g2="f,f_f,fi,fl,f_f_i,f_f_l"
	k="65" />
    <hkern g1="L"
	g2="I"
	k="10" />
    <hkern g1="L"
	g2="hyphen"
	k="-5" />
    <hkern g1="L"
	g2="parenright,bracketright,braceright"
	k="-5" />
    <hkern g1="L"
	g2="uni0410"
	k="25" />
    <hkern g1="L"
	g2="uni0408"
	k="145" />
    <hkern g1="L"
	g2="uni0442"
	k="10" />
    <hkern g1="L"
	g2="uni0443,uni045E"
	k="-17" />
    <hkern g1="L"
	g2="uni0414"
	k="20" />
    <hkern g1="L"
	g2="uni0405"
	k="15" />
    <hkern g1="L"
	g2="uni0437,uni044D"
	k="20" />
    <hkern g1="P"
	g2="v"
	k="-10" />
    <hkern g1="P"
	g2="w"
	k="30" />
    <hkern g1="P"
	g2="x"
	k="25" />
    <hkern g1="P"
	g2="y"
	k="20" />
    <hkern g1="P"
	g2="b,h,k,l"
	k="20" />
    <hkern g1="P"
	g2="I"
	k="20" />
    <hkern g1="P"
	g2="uni043B,uni0459"
	k="-15" />
    <hkern g1="R"
	g2="c,d,e,g,o,q"
	k="35" />
    <hkern g1="R"
	g2="s"
	k="20" />
    <hkern g1="R"
	g2="u"
	k="15" />
    <hkern g1="R"
	g2="v"
	k="15" />
    <hkern g1="R"
	g2="w"
	k="10" />
    <hkern g1="R"
	g2="x"
	k="30" />
    <hkern g1="S"
	g2="z"
	k="80" />
    <hkern g1="S"
	g2="S"
	k="70" />
    <hkern g1="S"
	g2="c,d,e,g,o,q"
	k="10" />
    <hkern g1="S"
	g2="v"
	k="120" />
    <hkern g1="S"
	g2="w"
	k="85" />
    <hkern g1="S"
	g2="x"
	k="33" />
    <hkern g1="S"
	g2="b,h,k,l"
	k="100" />
    <hkern g1="S"
	g2="f,f_f,fi,fl,f_f_i,f_f_l"
	k="55" />
    <hkern g1="S"
	g2="I"
	k="76" />
    <hkern g1="S"
	g2="hyphen"
	k="20" />
    <hkern g1="S"
	g2="uni0410"
	k="20" />
    <hkern g1="S"
	g2="uni0409,uni041B"
	k="90" />
    <hkern g1="S"
	g2="uni0422"
	k="100" />
    <hkern g1="S"
	g2="uni0408"
	k="127" />
    <hkern g1="S"
	g2="uni0402,uni040B,uni042A"
	k="85" />
    <hkern g1="S"
	g2="uni043B,uni0459"
	k="120" />
    <hkern g1="S"
	g2="uni0427"
	k="120" />
    <hkern g1="S"
	g2="uni0442"
	k="100" />
    <hkern g1="S"
	g2="uni0447"
	k="70" />
    <hkern g1="S"
	g2="uni0443,uni045E"
	k="40" />
    <hkern g1="S"
	g2="uni0404,uni041E,uni0421,uni0424"
	k="50" />
    <hkern g1="T"
	g2="C,G,O,Q"
	k="20" />
    <hkern g1="T"
	g2="U"
	k="25" />
    <hkern g1="T"
	g2="S"
	k="5" />
    <hkern g1="U"
	g2="Y"
	k="30" />
    <hkern g1="U"
	g2="quotedbl,quotesingle"
	k="70" />
    <hkern g1="U"
	g2="U"
	k="10" />
    <hkern g1="U"
	g2="a"
	k="20" />
    <hkern g1="U"
	g2="z"
	k="70" />
    <hkern g1="U"
	g2="Z"
	k="25" />
    <hkern g1="U"
	g2="m,n,p,r"
	k="30" />
    <hkern g1="U"
	g2="c,d,e,g,o,q"
	k="18" />
    <hkern g1="U"
	g2="s"
	k="20" />
    <hkern g1="U"
	g2="u"
	k="5" />
    <hkern g1="U"
	g2="x"
	k="30" />
    <hkern g1="U"
	g2="y"
	k="30" />
    <hkern g1="U"
	g2="b,h,k,l"
	k="30" />
    <hkern g1="U"
	g2="f,f_f,fi,fl,f_f_i,f_f_l"
	k="30" />
    <hkern g1="U"
	g2="parenright,bracketright,braceright"
	k="15" />
    <hkern g1="U"
	g2="uni0410"
	k="10" />
    <hkern g1="U"
	g2="uni0409,uni041B"
	k="15" />
    <hkern g1="U"
	g2="uni0422"
	k="10" />
    <hkern g1="W"
	g2="W"
	k="10" />
    <hkern g1="W"
	g2="X"
	k="10" />
    <hkern g1="W"
	g2="Y"
	k="10" />
    <hkern g1="W"
	g2="comma,period"
	k="20" />
    <hkern g1="W"
	g2="a"
	k="20" />
    <hkern g1="W"
	g2="t"
	k="5" />
    <hkern g1="W"
	g2="i,j"
	k="10" />
    <hkern g1="W"
	g2="s"
	k="15" />
    <hkern g1="W"
	g2="u"
	k="30" />
    <hkern g1="W"
	g2="w"
	k="40" />
    <hkern g1="W"
	g2="x"
	k="20" />
    <hkern g1="W"
	g2="y"
	k="20" />
    <hkern g1="W"
	g2="hyphen"
	k="8" />
    <hkern g1="X"
	g2="J"
	k="20" />
    <hkern g1="X"
	g2="T"
	k="20" />
    <hkern g1="X"
	g2="V"
	k="20" />
    <hkern g1="X"
	g2="Y"
	k="70" />
    <hkern g1="X"
	g2="quotedbl,quotesingle"
	k="35" />
    <hkern g1="X"
	g2="comma,period"
	k="30" />
    <hkern g1="X"
	g2="C,G,O,Q"
	k="60" />
    <hkern g1="X"
	g2="U"
	k="15" />
    <hkern g1="X"
	g2="a"
	k="50" />
    <hkern g1="X"
	g2="t"
	k="30" />
    <hkern g1="X"
	g2="z"
	k="10" />
    <hkern g1="X"
	g2="S"
	k="20" />
    <hkern g1="X"
	g2="Z"
	k="65" />
    <hkern g1="X"
	g2="i,j"
	k="70" />
    <hkern g1="X"
	g2="m,n,p,r"
	k="60" />
    <hkern g1="X"
	g2="c,d,e,g,o,q"
	k="50" />
    <hkern g1="X"
	g2="s"
	k="70" />
    <hkern g1="X"
	g2="u"
	k="70" />
    <hkern g1="X"
	g2="v"
	k="40" />
    <hkern g1="X"
	g2="x"
	k="20" />
    <hkern g1="X"
	g2="y"
	k="10" />
    <hkern g1="Y"
	g2="A"
	k="15" />
    <hkern g1="Z"
	g2="V"
	k="10" />
    <hkern g1="Z"
	g2="a"
	k="23" />
    <hkern g1="Z"
	g2="uni0400,uni0401,uni0403,uni040A,uni040C,uni040D,uni040F,uni0411,uni0412,uni0413,uni0415,uni0418,uni0419,uni041A,uni041C,uni041D,uni041F,uni0420,uni0426,uni0428,uni0429,uni042B,uni042C,uni042E,uni0490"
	k="25" />
    <hkern g1="a"
	g2="comma,period"
	k="10" />
    <hkern g1="a"
	g2="C,G,O,Q"
	k="8" />
    <hkern g1="a"
	g2="U"
	k="5" />
    <hkern g1="b,o,p"
	g2="W"
	k="13" />
    <hkern g1="b,o,p"
	g2="X"
	k="13" />
    <hkern g1="b,o,p"
	g2="uni0431"
	k="-45" />
    <hkern g1="b,o,p"
	g2="uni0434"
	k="35" />
    <hkern g1="h,m,n"
	g2="comma,period"
	k="-65" />
    <hkern g1="h,m,n"
	g2="uni0434"
	k="15" />
    <hkern g1="h,m,n"
	g2="uni0416"
	k="20" />
    <hkern g1="h,m,n"
	g2="uni0400,uni0401,uni0403,uni040A,uni040C,uni040D,uni040F,uni0411,uni0412,uni0413,uni0415,uni0418,uni0419,uni041A,uni041C,uni041D,uni041F,uni0420,uni0426,uni0428,uni0429,uni042B,uni042C,uni042E,uni0490"
	k="10" />
    <hkern g1="f,f_f"
	g2="uni0417,uni042D"
	k="15" />
    <hkern g1="k"
	g2="uni044A"
	k="130" />
    <hkern g1="k"
	g2="uni0425"
	k="10" />
    <hkern g1="k"
	g2="uni0431"
	k="35" />
    <hkern g1="k"
	g2="uni0434"
	k="25" />
    <hkern g1="k"
	g2="uni0416"
	k="-10" />
    <hkern g1="d,l,fl,f_f_l"
	g2="uni0443,uni045E"
	k="10" />
    <hkern g1="d,l,fl,f_f_l"
	g2="uni042F"
	k="20" />
    <hkern g1="d,l,fl,f_f_l"
	g2="uni0431"
	k="20" />
    <hkern g1="d,l,fl,f_f_l"
	g2="uni0434"
	k="10" />
    <hkern g1="r"
	g2="uni043B,uni0459"
	k="-10" />
    <hkern g1="r"
	g2="uni0427"
	k="15" />
    <hkern g1="r"
	g2="uni0442"
	k="-15" />
    <hkern g1="r"
	g2="uni0404,uni041E,uni0421,uni0424"
	k="10" />
    <hkern g1="r"
	g2="uni0405"
	k="20" />
    <hkern g1="r"
	g2="uni0430"
	k="20" />
    <hkern g1="r"
	g2="uni0435,uni043E,uni0441,uni0444,uni0450,uni0451,uni0454"
	k="20" />
    <hkern g1="r"
	g2="uni0431"
	k="28" />
    <hkern g1="s"
	g2="I"
	k="30" />
    <hkern g1="s"
	g2="uni044A"
	k="10" />
    <hkern g1="s"
	g2="uni0405"
	k="5" />
    <hkern g1="t"
	g2="uni0402,uni040B,uni042A"
	k="8" />
    <hkern g1="w"
	g2="s"
	k="55" />
    <hkern g1="w"
	g2="x"
	k="8" />
    <hkern g1="w"
	g2="uni0410"
	k="20" />
    <hkern g1="w"
	g2="uni0409,uni041B"
	k="15" />
    <hkern g1="w"
	g2="uni0408"
	k="10" />
    <hkern g1="w"
	g2="uni0402,uni040B,uni042A"
	k="10" />
    <hkern g1="w"
	g2="uni043B,uni0459"
	k="15" />
    <hkern g1="w"
	g2="uni0414"
	k="30" />
    <hkern g1="x"
	g2="v"
	k="-7" />
    <hkern g1="y"
	g2="W"
	k="-20" />
    <hkern g1="y"
	g2="X"
	k="-20" />
    <hkern g1="y"
	g2="Y"
	k="85" />
    <hkern g1="y"
	g2="C,G,O,Q"
	k="35" />
    <hkern g1="y"
	g2="uni0402,uni040B,uni042A"
	k="-20" />
    <hkern g1="y"
	g2="uni043B,uni0459"
	k="-20" />
    <hkern g1="y"
	g2="uni0427"
	k="85" />
    <hkern g1="y"
	g2="uni0442"
	k="-20" />
    <hkern g1="y"
	g2="uni0447"
	k="50" />
    <hkern g1="y"
	g2="uni044A"
	k="-20" />
    <hkern g1="z"
	g2="A"
	k="-20" />
    <hkern g1="z"
	g2="J"
	k="-20" />
    <hkern g1="z"
	g2="T"
	k="120" />
    <hkern g1="z"
	g2="V"
	k="70" />
    <hkern g1="z"
	g2="W"
	k="70" />
    <hkern g1="z"
	g2="Y"
	k="70" />
    <hkern g1="z"
	g2="c,d,e,g,o,q"
	k="25" />
    <hkern g1="z"
	g2="v"
	k="30" />
    <hkern g1="z"
	g2="w"
	k="30" />
    <hkern g1="z"
	g2="uni0410"
	k="-20" />
    <hkern g1="z"
	g2="uni0409,uni041B"
	k="-20" />
    <hkern g1="z"
	g2="uni0422"
	k="120" />
    <hkern g1="z"
	g2="uni0408"
	k="-20" />
    <hkern g1="z"
	g2="uni0402,uni040B,uni042A"
	k="60" />
    <hkern g1="z"
	g2="uni043B,uni0459"
	k="-5" />
    <hkern g1="z"
	g2="uni0427"
	k="115" />
    <hkern g1="z"
	g2="uni0442"
	k="75" />
    <hkern g1="z"
	g2="uni0447"
	k="50" />
    <hkern g1="z"
	g2="uni044A"
	k="30" />
    <hkern g1="colon,semicolon"
	g2="hyphen"
	k="50" />
    <hkern g1="comma,period"
	g2="i,j"
	k="-30" />
    <hkern g1="comma,period"
	g2="uni0422"
	k="-30" />
    <hkern g1="hyphen"
	g2="uni042F"
	k="60" />
    <hkern g1="hyphen"
	g2="uni0431"
	k="95" />
    <hkern g1="parenright,bracketright,braceright"
	g2="U"
	k="20" />
    <hkern g1="parenright,bracketright,braceright"
	g2="t"
	k="38" />
    <hkern g1="parenright,bracketright,braceright"
	g2="z"
	k="20" />
    <hkern g1="parenright,bracketright,braceright"
	g2="m,n,p,r"
	k="10" />
    <hkern g1="parenright,bracketright,braceright"
	g2="u"
	k="33" />
    <hkern g1="parenright,bracketright,braceright"
	g2="w"
	k="20" />
    <hkern g1="parenright,bracketright,braceright"
	g2="x"
	k="20" />
    <hkern g1="parenright,bracketright,braceright"
	g2="y"
	k="45" />
    <hkern g1="parenright,bracketright,braceright"
	g2="b,h,k,l"
	k="30" />
    <hkern g1="parenright,bracketright,braceright"
	g2="f,f_f,fi,fl,f_f_i,f_f_l"
	k="35" />
    <hkern g1="parenright,bracketright,braceright"
	g2="I"
	k="30" />
    <hkern g1="quotedbl,quotesingle"
	g2="X"
	k="-60" />
    <hkern g1="quotedbl,quotesingle"
	g2="colon,semicolon"
	k="60" />
    <hkern g1="quotedbl,quotesingle"
	g2="U"
	k="50" />
    <hkern g1="quotedbl,quotesingle"
	g2="y"
	k="-22" />
    <hkern g1="uni040C,uni0416,uni041A"
	g2="X"
	k="35" />
    <hkern g1="uni040C,uni0416,uni041A"
	g2="Y"
	k="30" />
    <hkern g1="uni040C,uni0416,uni041A"
	g2="uni0414"
	k="230" />
    <hkern g1="uni040C,uni0416,uni041A"
	g2="uni0404,uni041E,uni0421,uni0424"
	k="100" />
    <hkern g1="uni0409,uni040A,uni042A,uni042C"
	g2="A"
	k="43" />
    <hkern g1="uni0409,uni040A,uni042A,uni042C"
	g2="T"
	k="83" />
    <hkern g1="uni0409,uni040A,uni042A,uni042C"
	g2="V"
	k="-10" />
    <hkern g1="uni0409,uni040A,uni042A,uni042C"
	g2="W"
	k="138" />
    <hkern g1="uni0409,uni040A,uni042A,uni042C"
	g2="Y"
	k="150" />
    <hkern g1="uni0409,uni040A,uni042A,uni042C"
	g2="quotedbl,quotesingle"
	k="118" />
    <hkern g1="uni0409,uni040A,uni042A,uni042C"
	g2="comma,period"
	k="135" />
    <hkern g1="uni0409,uni040A,uni042A,uni042C"
	g2="colon,semicolon"
	k="150" />
    <hkern g1="uni0409,uni040A,uni042A,uni042C"
	g2="C,G,O,Q"
	k="50" />
    <hkern g1="uni0409,uni040A,uni042A,uni042C"
	g2="U"
	k="50" />
    <hkern g1="uni0409,uni040A,uni042A,uni042C"
	g2="t"
	k="23" />
    <hkern g1="uni0409,uni040A,uni042A,uni042C"
	g2="z"
	k="130" />
    <hkern g1="uni0409,uni040A,uni042A,uni042C"
	g2="S"
	k="158" />
    <hkern g1="uni0409,uni040A,uni042A,uni042C"
	g2="Z"
	k="160" />
    <hkern g1="uni0409,uni040A,uni042A,uni042C"
	g2="i,j"
	k="8" />
    <hkern g1="uni0409,uni040A,uni042A,uni042C"
	g2="m,n,p,r"
	k="10" />
    <hkern g1="uni0409,uni040A,uni042A,uni042C"
	g2="c,d,e,g,o,q"
	k="25" />
    <hkern g1="uni0409,uni040A,uni042A,uni042C"
	g2="s"
	k="157" />
    <hkern g1="uni0409,uni040A,uni042A,uni042C"
	g2="u"
	k="165" />
    <hkern g1="uni0409,uni040A,uni042A,uni042C"
	g2="v"
	k="120" />
    <hkern g1="uni0409,uni040A,uni042A,uni042C"
	g2="w"
	k="158" />
    <hkern g1="uni0409,uni040A,uni042A,uni042C"
	g2="x"
	k="175" />
    <hkern g1="uni0409,uni040A,uni042A,uni042C"
	g2="y"
	k="163" />
    <hkern g1="uni0411,uni0412,uni0417"
	g2="v"
	k="-22" />
    <hkern g1="uni0411,uni0412,uni0417"
	g2="uni044F"
	k="25" />
    <hkern g1="uni0411,uni0412,uni0417"
	g2="uni040E,uni0423"
	k="18" />
    <hkern g1="uni0411,uni0412,uni0417"
	g2="uni0416"
	k="33" />
    <hkern g1="uni0411,uni0412,uni0417"
	g2="uni0400,uni0401,uni0403,uni040A,uni040C,uni040D,uni040F,uni0411,uni0412,uni0413,uni0415,uni0418,uni0419,uni041A,uni041C,uni041D,uni041F,uni0420,uni0426,uni0428,uni0429,uni042B,uni042C,uni042E,uni0490"
	k="30" />
    <hkern g1="uni0403,uni0413,uni0490"
	g2="W"
	k="20" />
    <hkern g1="uni0403,uni0413,uni0490"
	g2="c,d,e,g,o,q"
	k="30" />
    <hkern g1="uni0403,uni0413,uni0490"
	g2="parenright,bracketright,braceright"
	k="-35" />
    <hkern g1="uni0403,uni0413,uni0490"
	g2="uni0410"
	k="-35" />
    <hkern g1="uni0403,uni0413,uni0490"
	g2="uni0436"
	k="-37" />
    <hkern g1="uni0403,uni0413,uni0490"
	g2="uni0437,uni044D"
	k="-30" />
    <hkern g1="uni0403,uni0413,uni0490"
	g2="uni0445"
	k="-20" />
    <hkern g1="uni0403,uni0413,uni0490"
	g2="uni040E,uni0423"
	k="-40" />
    <hkern g1="uni0403,uni0413,uni0490"
	g2="uni0416"
	k="-15" />
    <hkern g1="uni0400,uni0401,uni0415"
	g2="A"
	k="-15" />
    <hkern g1="uni0400,uni0401,uni0415"
	g2="X"
	k="-22" />
    <hkern g1="uni0400,uni0401,uni0415"
	g2="Y"
	k="-27" />
    <hkern g1="uni0400,uni0401,uni0415"
	g2="comma,period"
	k="-35" />
    <hkern g1="uni0400,uni0401,uni0415"
	g2="colon,semicolon"
	k="-20" />
    <hkern g1="uni0400,uni0401,uni0415"
	g2="C,G,O,Q"
	k="-30" />
    <hkern g1="uni0400,uni0401,uni0415"
	g2="z"
	k="-37" />
    <hkern g1="uni0400,uni0401,uni0415"
	g2="S"
	k="-15" />
    <hkern g1="uni0400,uni0401,uni0415"
	g2="Z"
	k="-15" />
    <hkern g1="uni0400,uni0401,uni0415"
	g2="uni0434"
	k="10" />
    <hkern g1="uni0400,uni0401,uni0415"
	g2="uni0400,uni0401,uni0403,uni040A,uni040C,uni040D,uni040F,uni0411,uni0412,uni0413,uni0415,uni0418,uni0419,uni041A,uni041C,uni041D,uni041F,uni0420,uni0426,uni0428,uni0429,uni042B,uni042C,uni042E,uni0490"
	k="-15" />
    <hkern g1="uni041E,uni0424,uni042D,uni042E"
	g2="v"
	k="58" />
    <hkern g1="uni041E,uni0424,uni042D,uni042E"
	g2="w"
	k="65" />
    <hkern g1="uni041E,uni0424,uni042D,uni042E"
	g2="uni0405"
	k="80" />
    <hkern g1="uni041E,uni0424,uni042D,uni042E"
	g2="uni0430"
	k="90" />
    <hkern g1="uni041E,uni0424,uni042D,uni042E"
	g2="uni0455"
	k="90" />
    <hkern g1="uni041E,uni0424,uni042D,uni042E"
	g2="uni042F"
	k="80" />
    <hkern g1="uni041E,uni0424,uni042D,uni042E"
	g2="uni0431"
	k="-30" />
    <hkern g1="uni041E,uni0424,uni042D,uni042E"
	g2="uni0434"
	k="30" />
    <hkern g1="uni041E,uni0424,uni042D,uni042E"
	g2="uni0436"
	k="5" />
    <hkern g1="uni041E,uni0424,uni042D,uni042E"
	g2="uni0437,uni044D"
	k="40" />
    <hkern g1="uni041E,uni0424,uni042D,uni042E"
	g2="uni0445"
	k="50" />
    <hkern g1="uni041E,uni0424,uni042D,uni042E"
	g2="uni044F"
	k="5" />
    <hkern g1="uni041E,uni0424,uni042D,uni042E"
	g2="uni040E,uni0423"
	k="15" />
    <hkern g1="uni041E,uni0424,uni042D,uni042E"
	g2="uni0416"
	k="8" />
    <hkern g1="uni041E,uni0424,uni042D,uni042E"
	g2="uni0400,uni0401,uni0403,uni040A,uni040C,uni040D,uni040F,uni0411,uni0412,uni0413,uni0415,uni0418,uni0419,uni041A,uni041C,uni041D,uni041F,uni0420,uni0426,uni0428,uni0429,uni042B,uni042C,uni042E,uni0490"
	k="55" />
    <hkern g1="uni0414,uni0426,uni0429"
	g2="A"
	k="65" />
    <hkern g1="uni0414,uni0426,uni0429"
	g2="J"
	k="30" />
    <hkern g1="uni0414,uni0426,uni0429"
	g2="T"
	k="30" />
    <hkern g1="uni0414,uni0426,uni0429"
	g2="V"
	k="30" />
    <hkern g1="uni0414,uni0426,uni0429"
	g2="W"
	k="45" />
    <hkern g1="uni0414,uni0426,uni0429"
	g2="X"
	k="65" />
    <hkern g1="uni0414,uni0426,uni0429"
	g2="quotedbl,quotesingle"
	k="35" />
    <hkern g1="uni0414,uni0426,uni0429"
	g2="m,n,p,r"
	k="-30" />
    <hkern g1="uni0414,uni0426,uni0429"
	g2="c,d,e,g,o,q"
	k="-30" />
    <hkern g1="uni0414,uni0426,uni0429"
	g2="uni0404,uni041E,uni0421,uni0424"
	k="80" />
    <hkern g1="uni0414,uni0426,uni0429"
	g2="uni0405"
	k="75" />
    <hkern g1="uni0414,uni0426,uni0429"
	g2="uni0417,uni042D"
	k="10" />
    <hkern g1="uni0414,uni0426,uni0429"
	g2="uni042F"
	k="28" />
    <hkern g1="uni0414,uni0426,uni0429"
	g2="uni0436"
	k="25" />
    <hkern g1="uni0414,uni0426,uni0429"
	g2="uni0445"
	k="15" />
    <hkern g1="uni0404,uni0421"
	g2="V"
	k="30" />
    <hkern g1="uni0404,uni0421"
	g2="z"
	k="145" />
    <hkern g1="uni0404,uni0421"
	g2="uni0427"
	k="50" />
    <hkern g1="uni0404,uni0421"
	g2="uni0442"
	k="68" />
    <hkern g1="uni0404,uni0421"
	g2="uni0447"
	k="10" />
    <hkern g1="uni0404,uni0421"
	g2="uni044A"
	k="65" />
    <hkern g1="uni0404,uni0421"
	g2="uni0414"
	k="60" />
    <hkern g1="uni0404,uni0421"
	g2="uni0404,uni041E,uni0421,uni0424"
	k="-32" />
    <hkern g1="uni0404,uni0421"
	g2="uni0405"
	k="-27" />
    <hkern g1="uni0404,uni0421"
	g2="uni0455"
	k="55" />
    <hkern g1="uni0404,uni0421"
	g2="uni042F"
	k="25" />
    <hkern g1="uni0404,uni0421"
	g2="uni0431"
	k="-17" />
    <hkern g1="uni0404,uni0421"
	g2="uni0434"
	k="10" />
    <hkern g1="uni0404,uni0421"
	g2="uni0436"
	k="15" />
    <hkern g1="uni0404,uni0421"
	g2="uni040E,uni0423"
	k="90" />
    <hkern g1="uni040E,uni0423"
	g2="uni0410"
	k="-20" />
    <hkern g1="uni040E,uni0423"
	g2="uni0409,uni041B"
	k="-10" />
    <hkern g1="uni040E,uni0423"
	g2="uni0402,uni040B,uni042A"
	k="75" />
    <hkern g1="uni0410"
	g2="Y"
	k="120" />
    <hkern g1="uni0410"
	g2="quotedbl,quotesingle"
	k="85" />
    <hkern g1="uni0410"
	g2="f,f_f,fi,fl,f_f_i,f_f_l"
	k="50" />
    <hkern g1="uni0410"
	g2="hyphen"
	k="80" />
    <hkern g1="uni0410"
	g2="parenright,bracketright,braceright"
	k="65" />
    <hkern g1="uni0410"
	g2="uni0409,uni041B"
	k="70" />
    <hkern g1="uni0410"
	g2="uni0408"
	k="113" />
    <hkern g1="uni0410"
	g2="uni0402,uni040B,uni042A"
	k="-22" />
    <hkern g1="uni0410"
	g2="uni043B,uni0459"
	k="110" />
    <hkern g1="uni0410"
	g2="uni0427"
	k="95" />
    <hkern g1="uni0410"
	g2="uni0442"
	k="90" />
    <hkern g1="uni0410"
	g2="uni0447"
	k="70" />
    <hkern g1="uni0410"
	g2="uni044A"
	k="55" />
    <hkern g1="uni0410"
	g2="uni0443,uni045E"
	k="33" />
    <hkern g1="uni0410"
	g2="uni0414"
	k="10" />
    <hkern g1="uni0410"
	g2="uni0404,uni041E,uni0421,uni0424"
	k="20" />
    <hkern g1="uni0410"
	g2="uni0425"
	k="100" />
    <hkern g1="uni0410"
	g2="uni0405"
	k="100" />
    <hkern g1="uni0410"
	g2="uni0430"
	k="127" />
    <hkern g1="uni0410"
	g2="uni0455"
	k="25" />
    <hkern g1="uni0410"
	g2="uni0417,uni042D"
	k="30" />
    <hkern g1="uni0410"
	g2="uni042F"
	k="128" />
    <hkern g1="uni0410"
	g2="uni0431"
	k="90" />
    <hkern g1="uni0410"
	g2="uni0434"
	k="80" />
    <hkern g1="uni0410"
	g2="uni0436"
	k="90" />
    <hkern g1="uni0410"
	g2="uni0437,uni044D"
	k="100" />
    <hkern g1="uni0410"
	g2="uni0432,uni0433,uni0438,uni0439,uni043A,uni043C,uni043D,uni043F,uni0440,uni0446,uni0448,uni0449,uni044B,uni044C,uni044E,uni0453,uni0456,uni0457,uni0458,uni045A,uni045C,uni045D,uni045F,uni0491"
	k="90" />
    <hkern g1="uni0420"
	g2="f,f_f,fi,fl,f_f_i,f_f_l"
	k="10" />
    <hkern g1="uni0420"
	g2="uni0427"
	k="20" />
    <hkern g1="uni0420"
	g2="uni0447"
	k="10" />
    <hkern g1="uni0420"
	g2="uni0443,uni045E"
	k="30" />
    <hkern g1="uni0420"
	g2="uni0434"
	k="-15" />
    <hkern g1="uni0402,uni040B"
	g2="v"
	k="13" />
    <hkern g1="uni0402,uni040B"
	g2="w"
	k="20" />
    <hkern g1="uni0402,uni040B"
	g2="x"
	k="35" />
    <hkern g1="uni0402,uni040B"
	g2="I"
	k="20" />
    <hkern g1="uni0402,uni040B"
	g2="uni0408"
	k="10" />
    <hkern g1="uni0402,uni040B"
	g2="uni0414"
	k="23" />
    <hkern g1="uni0422"
	g2="x"
	k="15" />
    <hkern g1="uni0422"
	g2="f,f_f,fi,fl,f_f_i,f_f_l"
	k="5" />
    <hkern g1="uni0422"
	g2="uni0442"
	k="20" />
    <hkern g1="uni0422"
	g2="uni0447"
	k="5" />
    <hkern g1="uni0422"
	g2="uni0414"
	k="8" />
    <hkern g1="uni0422"
	g2="uni0445"
	k="100" />
    <hkern g1="uni0422"
	g2="uni044F"
	k="-20" />
    <hkern g1="uni0425"
	g2="U"
	k="80" />
    <hkern g1="uni0425"
	g2="m,n,p,r"
	k="55" />
    <hkern g1="uni0425"
	g2="s"
	k="-15" />
    <hkern g1="uni0425"
	g2="v"
	k="-27" />
    <hkern g1="uni0425"
	g2="I"
	k="5" />
    <hkern g1="uni0425"
	g2="hyphen"
	k="5" />
    <hkern g1="uni0425"
	g2="uni0408"
	k="55" />
    <hkern g1="uni0425"
	g2="uni0447"
	k="15" />
    <hkern g1="uni0405"
	g2="x"
	k="15" />
    <hkern g1="uni0405"
	g2="y"
	k="5" />
    <hkern g1="uni0405"
	g2="b,h,k,l"
	k="10" />
    <hkern g1="uni0405"
	g2="hyphen"
	k="5" />
    <hkern g1="uni0405"
	g2="uni0455"
	k="-20" />
    <hkern g1="uni0405"
	g2="uni0417,uni042D"
	k="-20" />
    <hkern g1="uni0431,uni043E,uni0440,uni0444,uni044D,uni044E"
	g2="W"
	k="-30" />
    <hkern g1="uni0431,uni043E,uni0440,uni0444,uni044D,uni044E"
	g2="C,G,O,Q"
	k="-30" />
    <hkern g1="uni0431,uni043E,uni0440,uni0444,uni044D,uni044E"
	g2="S"
	k="-17" />
    <hkern g1="uni0431,uni043E,uni0440,uni0444,uni044D,uni044E"
	g2="y"
	k="-22" />
    <hkern g1="uni0431,uni043E,uni0440,uni0444,uni044D,uni044E"
	g2="b,h,k,l"
	k="-35" />
    <hkern g1="uni0431,uni043E,uni0440,uni0444,uni044D,uni044E"
	g2="f,f_f,fi,fl,f_f_i,f_f_l"
	k="-10" />
    <hkern g1="uni0431,uni043E,uni0440,uni0444,uni044D,uni044E"
	g2="I"
	k="-15" />
    <hkern g1="uni0431,uni043E,uni0440,uni0444,uni044D,uni044E"
	g2="hyphen"
	k="-15" />
    <hkern g1="uni0431,uni043E,uni0440,uni0444,uni044D,uni044E"
	g2="parenright,bracketright,braceright"
	k="-22" />
    <hkern g1="uni0431,uni043E,uni0440,uni0444,uni044D,uni044E"
	g2="uni0410"
	k="-22" />
    <hkern g1="uni0433,uni0453,uni0491"
	g2="Y"
	k="-22" />
    <hkern g1="uni0433,uni0453,uni0491"
	g2="comma,period"
	k="5" />
    <hkern g1="uni0433,uni0453,uni0491"
	g2="C,G,O,Q"
	k="15" />
    <hkern g1="uni0433,uni0453,uni0491"
	g2="v"
	k="-15" />
    <hkern g1="uni0436,uni043A,uni045C"
	g2="W"
	k="18" />
    <hkern g1="uni0436,uni043A,uni045C"
	g2="Y"
	k="5" />
    <hkern g1="uni0436,uni043A,uni045C"
	g2="uni040E,uni0423"
	k="30" />
    <hkern g1="uni0434,uni0446,uni0449"
	g2="comma,period"
	k="8" />
    <hkern g1="uni0434,uni0446,uni0449"
	g2="colon,semicolon"
	k="20" />
    <hkern g1="uni0434,uni0446,uni0449"
	g2="C,G,O,Q"
	k="15" />
    <hkern g1="uni0434,uni0446,uni0449"
	g2="z"
	k="60" />
    <hkern g1="uni0434,uni0446,uni0449"
	g2="m,n,p,r"
	k="15" />
    <hkern g1="uni0434,uni0446,uni0449"
	g2="c,d,e,g,o,q"
	k="18" />
    <hkern g1="uni0434,uni0446,uni0449"
	g2="uni0409,uni041B"
	k="75" />
    <hkern g1="uni0434,uni0446,uni0449"
	g2="uni0400,uni0401,uni0403,uni040A,uni040C,uni040D,uni040F,uni0411,uni0412,uni0413,uni0415,uni0418,uni0419,uni041A,uni041C,uni041D,uni041F,uni0420,uni0426,uni0428,uni0429,uni042B,uni042C,uni042E,uni0490"
	k="50" />
    <hkern g1="uni044A,uni044C,uni0459,uni045A"
	g2="X"
	k="15" />
    <hkern g1="uni044A,uni044C,uni0459,uni045A"
	g2="C,G,O,Q"
	k="60" />
    <hkern g1="uni0430"
	g2="J"
	k="8" />
    <hkern g1="uni0443,uni045E"
	g2="Y"
	k="10" />
    <hkern g1="uni0443,uni045E"
	g2="uni0404,uni041E,uni0421,uni0424"
	k="10" />
    <hkern g1="uni0443,uni045E"
	g2="uni0425"
	k="20" />
    <hkern g1="uni0443,uni045E"
	g2="uni0430"
	k="30" />
    <hkern g1="uni0443,uni045E"
	g2="uni0455"
	k="15" />
    <hkern g1="uni0443,uni045E"
	g2="uni0417,uni042D"
	k="-30" />
    <hkern g1="uni0443,uni045E"
	g2="uni0437,uni044D"
	k="60" />
    <hkern g1="uni0443,uni045E"
	g2="uni0445"
	k="10" />
    <hkern g1="uni0442"
	g2="comma,period"
	k="48" />
    <hkern g1="uni0442"
	g2="colon,semicolon"
	k="70" />
    <hkern g1="uni0442"
	g2="t"
	k="10" />
    <hkern g1="uni0442"
	g2="z"
	k="20" />
    <hkern g1="uni0442"
	g2="Z"
	k="70" />
    <hkern g1="uni0442"
	g2="m,n,p,r"
	k="25" />
    <hkern g1="uni0442"
	g2="s"
	k="30" />
    <hkern g1="uni0442"
	g2="u"
	k="18" />
    <hkern g1="uni0442"
	g2="v"
	k="20" />
    <hkern g1="uni0442"
	g2="w"
	k="5" />
    <hkern g1="uni0442"
	g2="b,h,k,l"
	k="30" />
    <hkern g1="uni0442"
	g2="f,f_f,fi,fl,f_f_i,f_f_l"
	k="30" />
    <hkern g1="uni0442"
	g2="I"
	k="30" />
    <hkern g1="uni0442"
	g2="hyphen"
	k="30" />
    <hkern g1="uni0442"
	g2="uni0409,uni041B"
	k="15" />
    <hkern g1="uni0442"
	g2="uni0422"
	k="10" />
    <hkern g1="uni0442"
	g2="uni0408"
	k="15" />
    <hkern g1="uni0442"
	g2="uni0402,uni040B,uni042A"
	k="10" />
    <hkern g1="uni0445"
	g2="a"
	k="30" />
    <hkern g1="uni0445"
	g2="Z"
	k="18" />
    <hkern g1="uni0445"
	g2="w"
	k="10" />
    <hkern g1="uni0445"
	g2="x"
	k="10" />
    <hkern g1="uni0445"
	g2="b,h,k,l"
	k="15" />
    <hkern g1="uni0445"
	g2="hyphen"
	k="5" />
  </font>
</defs></svg>
