<?xml version="1.0" encoding="utf-8"?>
<!-- Generator: Adobe Illustrator 22.0.1, SVG Export Plug-In . SVG Version: 6.00 Build 0)  -->
<svg version="1.1" id="Layer_1" xmlns="http://www.w3.org/2000/svg" xmlns:xlink="http://www.w3.org/1999/xlink" x="0px" y="0px"
	 viewBox="0 0 488.1 512.7" style="enable-background:new 0 0 488.1 512.7;" xml:space="preserve">
<style type="text/css">
	.st0{fill:#00B4DB;}
</style>
<g id="_x32_3_lead_x2C__money_x2C__coin_x2C__seo_x2C__promotion_x2C__monetization_x2C__money_1_">
	<g>
		<g>
			<g>
				<path class="st0" d="M323.9,118.1v0.7C325.6,120.5,326.2,120.9,323.9,118.1z"/>
			</g>
		</g>
	</g>
	<g>
		<g>
			<g>
				<path class="st0" d="M339.9,118.1v0.7C338.1,120.5,337.5,120.9,339.9,118.1z"/>
			</g>
		</g>
	</g>
	<g>
		<g>
			<g>
				<path class="st0" d="M203.9,74.1v0.7C205.7,76.6,206.2,76.9,203.9,74.1z"/>
			</g>
		</g>
	</g>
	<g>
		<g>
			<g>
				<path class="st0" d="M219.9,74.1v0.7C218.2,76.6,217.6,76.9,219.9,74.1z"/>
			</g>
		</g>
	</g>
	<g>
		<g>
			<g>
				<path class="st0" d="M84,118.1v0.7C85.7,120.5,86.3,120.9,84,118.1z"/>
			</g>
		</g>
	</g>
	<g>
		<g>
			<g>
				<path class="st0" d="M100,118.1v0.7C98.2,120.5,97.6,120.9,100,118.1z"/>
			</g>
		</g>
	</g>
	<g id="_x32_3_lead_x2C__money_x2C__coin_x2C__seo_x2C__promotion_x2C__monetization_x2C__money">
		<g>
			<g>
				<g>
					<path class="st0" d="M20.2,207.9c-2.2,0-4-1.8-4-4s1.8-4,4-4h0.1c2.2,0,4,1.8,4,4S22.4,207.9,20.2,207.9z"/>
				</g>
			</g>
			<g>
				<g>
					<path class="st0" d="M36.2,207.9c-2.2,0-4-1.8-4-4s1.8-4,4-4h0.1c2.2,0,4,1.8,4,4S38.4,207.9,36.2,207.9z"/>
				</g>
			</g>
			<g>
				<g>
					<path class="st0" d="M52.2,207.9c-2.2,0-4-1.8-4-4s1.8-4,4-4h0.1c2.2,0,4,1.8,4,4S54.4,207.9,52.2,207.9z"/>
				</g>
			</g>
			<g>
				<g>
					<path class="st0" d="M419.8,215.9H4c-2.2,0-4-1.8-4-4v-8c0-6.6,5.4-12,12-12h399.8c6.6,0,12,5.4,12,12v8
						C423.8,214.1,422,215.9,419.8,215.9z M8,207.9h407.8v-4c0-2.2-1.8-4-4-4H12c-2.2,0-4,1.8-4,4V207.9z"/>
				</g>
			</g>
			<g>
				<g>
					<path class="st0" d="M419.8,359.8c-2.2,0-4-1.8-4-4V211.9c0-2.2,1.8-4,4-4s4,1.8,4,4v143.9C423.8,358,422,359.8,419.8,359.8z"
						/>
				</g>
			</g>
			<g>
				<g>
					<path class="st0" d="M4,471.8c-2.2,0-4-1.8-4-4V211.9c0-2.2,1.8-4,4-4s4,1.8,4,4v255.9C8,470,6.2,471.8,4,471.8z"/>
				</g>
			</g>
			<g>
				<g>
					<path class="st0" d="M315.9,471.8H4c-2.2,0-4-1.8-4-4c0-2.2,1.8-4,4-4h311.9c2.2,0,4,1.8,4,4
						C319.9,470,318.1,471.8,315.9,471.8z"/>
				</g>
			</g>
			<g>
				<g>
					<path class="st0" d="M187.9,439.8c-1.3,0-2.6-0.7-3.4-1.9l-36.6-58.5l-36.6,58.5c-1.2,1.9-3.6,2.5-5.5,1.3
						c-1.9-1.2-2.4-3.6-1.3-5.5l40-64c1.5-2.3,5.3-2.3,6.8,0l40,64c1.2,1.9,0.6,4.3-1.3,5.5C189.4,439.6,188.6,439.8,187.9,439.8z"
						/>
				</g>
			</g>
			<g>
				<g>
					<path class="st0" d="M68,439.8c-0.8,0-1.6-0.2-2.3-0.7c-1.8-1.3-2.2-3.8-1-5.6l28.1-40c0.8-1.1,2-1.7,3.3-1.7c0,0,0,0,0,0
						c1.3,0,2.5,0.6,3.3,1.7l19.4,27.9c1.3,1.8,0.8,4.3-1,5.6c-1.8,1.3-4.3,0.8-5.6-1l-16.2-23.2l-24.8,35.3
						C70.5,439.2,69.2,439.8,68,439.8z"/>
				</g>
			</g>
			<g>
				<g>
					<path class="st0" d="M387.8,311.9H36c-2.2,0-4-1.8-4-4v-64c0-2.2,1.8-4,4-4h351.8c2.2,0,4,1.8,4,4v64
						C391.8,310.1,390,311.9,387.8,311.9z M40,303.9h343.8v-56H40V303.9z"/>
				</g>
			</g>
			<g>
				<g>
					<path class="st0" d="M195.9,439.8H36c-2.2,0-4-1.8-4-4v-104c0-2.2,1.8-4,4-4h159.9c2.2,0,4,1.8,4,4v104
						C199.9,438,198.1,439.8,195.9,439.8z M40,431.8h151.9v-96H40V431.8z"/>
				</g>
			</g>
			<g>
				<g>
					<path class="st0" d="M64,375.8c-8.8,0-16-7.2-16-16s7.2-16,16-16s16,7.2,16,16S72.8,375.8,64,375.8z M64,351.8
						c-4.4,0-8,3.6-8,8c0,4.4,3.6,8,8,8s8-3.6,8-8C72,355.4,68.4,351.8,64,351.8z"/>
				</g>
			</g>
			<g>
				<g>
					<path class="st0" d="M387.8,351.8H227.9c-2.2,0-4-1.8-4-4c0-2.2,1.8-4,4-4h159.9c2.2,0,4,1.8,4,4
						C391.8,350.1,390,351.8,387.8,351.8z"/>
				</g>
			</g>
			<g>
				<g>
					<path class="st0" d="M323.9,375.8h-96c-2.2,0-4-1.8-4-4c0-2.2,1.8-4,4-4h96c2.2,0,4,1.8,4,4C327.9,374,326.1,375.8,323.9,375.8
						z"/>
				</g>
			</g>
			<g>
				<g>
					<path class="st0" d="M307.9,399.8h-80c-2.2,0-4-1.8-4-4c0-2.2,1.8-4,4-4h80c2.2,0,4,1.8,4,4C311.9,398,310.1,399.8,307.9,399.8
						z"/>
				</g>
			</g>
			<g>
				<g>
					<path class="st0" d="M299.9,423.8h-72c-2.2,0-4-1.8-4-4c0-2.2,1.8-4,4-4h72c2.2,0,4,1.8,4,4C303.9,422,302.1,423.8,299.9,423.8
						z"/>
				</g>
			</g>
			<g>
				<g>
					<path class="st0" d="M347.9,271.9H76c-2.2,0-4-1.8-4-4c0-2.2,1.8-4,4-4h271.9c2.2,0,4,1.8,4,4
						C351.9,270.1,350,271.9,347.9,271.9z"/>
				</g>
			</g>
			<g>
				<g>
					<path class="st0" d="M299.9,287.9H124c-2.2,0-4-1.8-4-4c0-2.2,1.8-4,4-4h175.9c2.2,0,4,1.8,4,4
						C303.9,286.1,302.1,287.9,299.9,287.9z"/>
				</g>
			</g>
		</g>
		<g>
			<g>
				<g>
					<path class="st0" d="M92,123.9c-12,0-28-16.8-28-34c0-17.1,12-30,28-30c16,0,28,12.9,28,30C120,107.1,103.9,123.9,92,123.9z
						 M92,68c-11.6,0-20,9.2-20,21.9c0,13.7,13.6,26,20,26c6.6,0,20-12.1,20-26C112,77.2,103.5,68,92,68z"/>
				</g>
			</g>
			<g>
				<g>
					<g>
						<path class="st0" d="M126.2,133.6c-0.5,0-1-0.1-1.5-0.3c-20.8-8.2-20.8-11-20.8-13.3c0-2.2,1.8-4,4-4c1.6,0,3,0.9,3.6,2.3
							c2,1.6,9.7,5.1,16.1,7.6c2,0.8,3.1,3.1,2.3,5.2C129.3,132.6,127.8,133.6,126.2,133.6z"/>
					</g>
				</g>
				<g>
					<g>
						<path class="st0" d="M108,123.9c-2.2,0-4-1.8-4-4v-9.8c0-2.2,1.8-4,4-4s4,1.8,4,4v9.8C112,122.2,110.2,123.9,108,123.9z"/>
					</g>
				</g>
			</g>
			<g>
				<g>
					<g>
						<path class="st0" d="M57.7,133.6c-1.6,0-3.1-1-3.7-2.5c-0.8-2.1,0.2-4.4,2.3-5.2c6.4-2.5,14.1-6.1,16.1-7.6
							c0.6-1.3,2-2.3,3.6-2.3c2.2,0,4,1.8,4,4c0,2.3,0,5.2-20.8,13.3C58.7,133.5,58.2,133.6,57.7,133.6z"/>
					</g>
				</g>
				<g>
					<g>
						<path class="st0" d="M76,123.9c-2.2,0-4-1.8-4-4v-9.8c0-2.2,1.8-4,4-4s4,1.8,4,4v9.8C80,122.2,78.2,123.9,76,123.9z"/>
					</g>
				</g>
			</g>
			<g>
				<g>
					<path class="st0" d="M92,147.9c-28.7,0-52-23.3-52-52s23.3-52,52-52s52,23.3,52,52S120.6,147.9,92,147.9z M92,52
						c-24.2,0-44,19.7-44,44s19.7,44,44,44s44-19.7,44-44C135.9,71.7,116.2,52,92,52z"/>
				</g>
			</g>
		</g>
		<g>
			<g>
				<g>
					<path class="st0" d="M331.8,123.9c-12,0-28-16.8-28-34c0-17.1,12-30,28-30c16,0,28,12.9,28,30
						C359.8,107.1,343.8,123.9,331.8,123.9z M331.8,68c-11.6,0-20,9.2-20,21.9c0,13.7,13.6,26,20,26c6.6,0,20-12.1,20-26
						C351.8,77.2,343.4,68,331.8,68z"/>
				</g>
			</g>
			<g>
				<g>
					<g>
						<path class="st0" d="M366.1,133.6c-0.5,0-1-0.1-1.5-0.3c-20.8-8.2-20.8-11-20.8-13.3c0-2.2,1.8-4,4-4c1.6,0,3,0.9,3.6,2.3
							c2,1.6,9.7,5.1,16.1,7.6c2,0.8,3.1,3.1,2.3,5.2C369.2,132.6,367.7,133.6,366.1,133.6z"/>
					</g>
				</g>
				<g>
					<g>
						<path class="st0" d="M347.9,123.9c-2.2,0-4-1.8-4-4v-9.8c0-2.2,1.8-4,4-4s4,1.8,4,4v9.8C351.8,122.2,350,123.9,347.9,123.9z"
							/>
					</g>
				</g>
			</g>
			<g>
				<g>
					<g>
						<path class="st0" d="M297.6,133.6c-1.6,0-3.1-1-3.7-2.5c-0.8-2.1,0.2-4.4,2.3-5.2c6.4-2.5,14.1-6.1,16.1-7.6
							c0.6-1.3,2-2.3,3.6-2.3c2.2,0,4,1.8,4,4c0,2.3,0,5.2-20.8,13.3C298.6,133.5,298.1,133.6,297.6,133.6z"/>
					</g>
				</g>
				<g>
					<g>
						<path class="st0" d="M311.9,119.9v-9.8c0-2.2,1.8-4,4-4s4,1.8,4,4v9.8"/>
					</g>
				</g>
			</g>
			<g>
				<g>
					<path class="st0" d="M331.9,147.9c-28.7,0-52-23.3-52-52s23.3-52,52-52s52,23.3,52,52C383.8,124.6,360.5,147.9,331.9,147.9z
						 M331.9,52c-24.2,0-44,19.7-44,44s19.7,44,44,44s44-19.7,44-44C375.8,71.7,356.1,52,331.9,52z"/>
				</g>
			</g>
		</g>
		<g>
			<g>
				<g>
					<path class="st0" d="M211.9,80c-12,0-28-16.8-28-34c0-17.1,12-30,28-30c16,0,28,12.9,28,30C239.9,63.1,223.9,80,211.9,80z
						 M211.9,24c-11.6,0-20,9.2-20,22c0,13.7,13.6,26,20,26c6.6,0,20-12,20-26C231.9,33.2,223.5,24,211.9,24z"/>
				</g>
			</g>
			<g>
				<g>
					<g>
						<path class="st0" d="M246.1,89.6c-0.5,0-1-0.1-1.5-0.3c-20.8-8.2-20.8-11-20.8-13.3c0-2.2,1.8-4,4-4c1.6,0,3,0.9,3.6,2.3
							c2,1.6,9.7,5.1,16.1,7.6c2,0.8,3.1,3.1,2.3,5.2C249.2,88.6,247.7,89.6,246.1,89.6z"/>
					</g>
				</g>
				<g>
					<g>
						<path class="st0" d="M227.9,80c-2.2,0-4-1.8-4-4v-9.8c0-2.2,1.8-4,4-4s4,1.8,4,4V76C231.9,78.2,230.1,80,227.9,80z"/>
					</g>
				</g>
			</g>
			<g>
				<g>
					<g>
						<path class="st0" d="M177.7,89.6c-1.6,0-3.1-1-3.7-2.5c-0.8-2.1,0.2-4.4,2.3-5.2c6.4-2.5,14.1-6.1,16.1-7.6
							c0.6-1.3,2-2.3,3.6-2.3c2.2,0,4,1.8,4,4c0,2.3,0,5.2-20.8,13.3C178.7,89.5,178.2,89.6,177.7,89.6z"/>
					</g>
				</g>
				<g>
					<g>
						<path class="st0" d="M195.9,80c-2.2,0-4-1.8-4-4v-9.8c0-2.2,1.8-4,4-4c2.2,0,4,1.8,4,4V76C199.9,78.2,198.1,80,195.9,80z"/>
					</g>
				</g>
			</g>
			<g>
				<g>
					<path class="st0" d="M211.9,104c-28.7,0-52-23.3-52-52s23.3-52,52-52c28.7,0,52,23.3,52,52C263.9,80.6,240.6,104,211.9,104z
						 M211.9,8c-24.2,0-44,19.7-44,44s19.7,44,44,44s44-19.7,44-44C255.9,27.7,236.1,8,211.9,8z"/>
				</g>
			</g>
		</g>
		<g>
			<g>
				<path class="st0" d="M243.9,175.9c-1.2,0-2.3-0.5-3.1-1.5c-1.4-1.7-1.1-4.2,0.6-5.6l40-32c1.7-1.4,4.2-1.1,5.6,0.6
					c1.4,1.7,1.1,4.2-0.6,5.6l-40,32C245.6,175.6,244.8,175.9,243.9,175.9z"/>
			</g>
		</g>
		<g>
			<g>
				<path class="st0" d="M243.9,175.9c-2.2,0-4-1.8-4-4v-8c0-2.2,1.8-4,4-4s4,1.8,4,4v8C247.9,174.1,246.1,175.9,243.9,175.9z"/>
			</g>
		</g>
		<g>
			<g>
				<path class="st0" d="M251.9,175.9h-8c-2.2,0-4-1.8-4-4s1.8-4,4-4h8c2.2,0,4,1.8,4,4S254.1,175.9,251.9,175.9z"/>
			</g>
		</g>
		<g>
			<g>
				<path class="st0" d="M179.9,175.9c-0.9,0-1.8-0.3-2.5-0.9l-40-32c-1.7-1.4-2-3.9-0.6-5.6s3.9-2,5.6-0.6l40,32
					c1.7,1.4,2,3.9,0.6,5.6C182.3,175.4,181.1,175.9,179.9,175.9z"/>
			</g>
		</g>
		<g>
			<g>
				<path class="st0" d="M179.9,175.9c-2.2,0-4-1.8-4-4v-8c0-2.2,1.8-4,4-4c2.2,0,4,1.8,4,4v8C183.9,174.1,182.1,175.9,179.9,175.9z
					"/>
			</g>
		</g>
		<g>
			<g>
				<path class="st0" d="M179.9,175.9h-8c-2.2,0-4-1.8-4-4s1.8-4,4-4h8c2.2,0,4,1.8,4,4S182.1,175.9,179.9,175.9z"/>
			</g>
		</g>
		<g>
			<g>
				<path class="st0" d="M211.9,167.9c-2.2,0-4-1.8-4-4v-48c0-2.2,1.8-4,4-4c2.2,0,4,1.8,4,4v48
					C215.9,166.1,214.1,167.9,211.9,167.9z"/>
			</g>
		</g>
		<g>
			<g>
				<path class="st0" d="M211.9,167.9c-1,0-2.1-0.4-2.8-1.2c-1.6-1.6-1.6-4.1,0-5.6l5.7-5.7c1.6-1.6,4.1-1.6,5.6,0s1.6,4.1,0,5.6
					l-5.7,5.7C214,167.5,212.9,167.9,211.9,167.9z"/>
			</g>
		</g>
		<g>
			<g>
				<path class="st0" d="M211.9,167.9c-1,0-2.1-0.4-2.8-1.2l-5.7-5.7c-1.6-1.6-1.6-4.1,0-5.6s4.1-1.6,5.6,0l5.7,5.7
					c1.6,1.6,1.6,4.1,0,5.6C214,167.5,212.9,167.9,211.9,167.9z"/>
			</g>
		</g>
		<g>
			<g>
				<path class="st0" d="M387.8,495.8c-37.5,0-68-30.5-68-68c0-37.5,30.5-68,68-68s68,30.5,68,68
					C455.8,465.3,425.3,495.8,387.8,495.8z M387.8,367.8c-33.1,0-60,26.9-60,60s26.9,60,60,60s60-26.9,60-60
					S420.9,367.8,387.8,367.8z"/>
			</g>
		</g>
	</g>
</g>
<g>
	<path class="st0" d="M483.1,512.7c-1.1,0-2.3-0.4-3.2-1.2l-44.3-37.9c-2.1-1.8-2.3-5-0.6-7c1.8-2.1,5-2.3,7-0.6l44.3,37.9
		c2.1,1.8,2.3,5,0.6,7C485.9,512.1,484.5,512.7,483.1,512.7z"/>
</g>
</svg>
