<?xml version="1.0" encoding="utf-8"?>
<!-- Generator: Adobe Illustrator 23.0.1, SVG Export Plug-In . SVG Version: 6.00 Build 0)  -->
<svg version="1.1" id="Слой_1" xmlns="http://www.w3.org/2000/svg" xmlns:xlink="http://www.w3.org/1999/xlink" x="0px" y="0px"
	 viewBox="0 0 512 407.9" style="enable-background:new 0 0 512 407.9;" xml:space="preserve">
<style type="text/css">
	.st0{fill:#00B4DB;}
</style>
<g>
	<g>
		<g>
			<g>
				<path class="st0" d="M28,359.9c-2.2,0-4-1.8-4-4V12c0-2.2,1.8-4,4-4s4,1.8,4,4v344C32,358.2,30.2,359.9,28,359.9z"/>
			</g>
		</g>
		<g>
			<g>
				<path class="st0" d="M256,375.9c-1.1,0-2.3-0.5-3.1-1.4c-13.7-16.4-145.1-17.6-224.8-14.6c-0.1,0-0.1,0-0.2,0
					c-2.1,0-3.9-1.7-4-3.8c-0.1-2.2,1.6-4.1,3.8-4.2c21.5-0.8,210.6-7.4,231.2,17.4c1.4,1.7,1.2,4.2-0.5,5.6
					C257.8,375.6,256.9,375.9,256,375.9z"/>
			</g>
		</g>
		<g>
			<g>
				<path class="st0" d="M256,32c-1.1,0-2.3-0.5-3.1-1.4C239.3,14.1,107.8,12.9,28.2,16c-0.1,0-0.1,0-0.2,0c-2.1,0-3.9-1.7-4-3.8
					C23.9,9.9,25.6,8,27.8,8c21.5-0.8,210.6-7.4,231.2,17.4c1.4,1.7,1.2,4.2-0.5,5.6C257.8,31.6,256.9,32,256,32z"/>
			</g>
		</g>
		<g>
			<g>
				<path class="st0" d="M4,375.9c-2.2,0-4-1.8-4-4V44c0-2.2,1.8-4,4-4s4,1.8,4,4v328C8,374.2,6.2,375.9,4,375.9z"/>
			</g>
		</g>
		<g>
			<g>
				<path class="st0" d="M256,391.9c-10.9,0-24.5-6.2-28.1-8H12c-2.2,0-4-1.8-4-4s1.8-4,4-4h216.9c0.6,0,1.3,0.2,1.8,0.4
					c0.1,0.1,14.8,7.6,25.3,7.6c2.2,0,4,1.8,4,4S258.2,391.9,256,391.9z"/>
			</g>
		</g>
		<g>
			<g>
				<path class="st0" d="M256,351.9c-2.2,0-4-1.8-4-4V44c0-2.2,1.8-4,4-4s4,1.8,4,4v304C260,350.2,258.2,351.9,256,351.9z"/>
			</g>
		</g>
		<g>
			<g>
				<path class="st0" d="M4,48c-2.2,0-4-1.8-4-4v-8c0-6.7,5.3-12,12-12c2.2,0,4,1.8,4,4s-1.8,4-4,4c-2.3,0-4,1.7-4,4v8
					C8,46.2,6.2,48,4,48z"/>
			</g>
		</g>
		<g>
			<g>
				<path class="st0" d="M12,383.9c-6.6,0-12-5.4-12-12c0-2.2,1.8-4,4-4s4,1.8,4,4c0,2.2,1.8,4,4,4s4,1.8,4,4S14.2,383.9,12,383.9z"
					/>
			</g>
		</g>
	</g>
	<g>
		<g>
			<g>
				<path class="st0" d="M484,359.9c-2.2,0-4-1.8-4-4V12c0-2.2,1.8-4,4-4s4,1.8,4,4v344C488,358.2,486.2,359.9,484,359.9z"/>
			</g>
		</g>
		<g>
			<g>
				<path class="st0" d="M256,375.9c-0.9,0-1.8-0.3-2.6-0.9c-1.7-1.4-1.9-3.9-0.5-5.6c3.5-4.2,10.5-7.4,22.2-10
					c2.2-0.5,4.3,0.9,4.8,3c0.5,2.2-0.9,4.3-3,4.8c-12.6,2.9-16.6,5.9-17.8,7.4C258.3,375.5,257.1,375.9,256,375.9z"/>
			</g>
		</g>
		<g>
			<g>
				<path class="st0" d="M324,361.1c-2.1,0-3.8-1.6-4-3.7c-0.2-2.2,1.5-4.1,3.7-4.3c67-4.7,159.5-1.2,160.4-1.2
					c2.2,0.1,3.9,1.9,3.8,4.2c-0.1,2.2-1.7,3.8-4.2,3.8c-0.9,0-93-3.5-159.6,1.2C324.2,361.1,324.1,361.1,324,361.1z"/>
			</g>
		</g>
		<g>
			<g>
				<path class="st0" d="M256,32c-0.9,0-1.8-0.3-2.6-0.9c-1.7-1.4-1.9-3.9-0.5-5.6c3.4-4.1,10.7-7.4,22.2-10c2.2-0.5,4.3,0.9,4.8,3
					s-0.9,4.3-3,4.8c-12.6,2.9-16.6,5.8-17.8,7.4C258.3,31.5,257.1,32,256,32z"/>
			</g>
		</g>
		<g>
			<g>
				<path class="st0" d="M324,17.1c-2.1,0-3.8-1.6-4-3.7c-0.2-2.2,1.5-4.1,3.7-4.3c67-4.7,159.5-1.2,160.4-1.2
					c2.2,0.1,3.9,1.9,3.8,4.2c-0.1,2.2-1.7,4-4.2,3.8c-0.9,0-93-3.5-159.6,1.2C324.2,17.1,324.1,17.1,324,17.1z"/>
			</g>
		</g>
		<g>
			<g>
				<path class="st0" d="M508,375.9c-2.2,0-4-1.8-4-4V44c0-2.2,1.8-4,4-4c2.2,0,4,1.8,4,4v328C512,374.2,510.2,375.9,508,375.9z"/>
			</g>
		</g>
		<g>
			<g>
				<path class="st0" d="M256,391.9c-2.2,0-4-1.8-4-4s1.8-4,4-4c6,0,13.4-2.5,18.5-4.5c2-0.8,4.4,0.2,5.2,2.2c0.8,2-0.2,4.4-2.2,5.2
					C271.7,389.2,263.3,391.9,256,391.9z"/>
			</g>
		</g>
		<g>
			<g>
				<path class="st0" d="M500,383.9H324.5c-2.2,0-4-1.8-4-4s1.8-4,4-4H500c2.2,0,4,1.8,4,4S502.2,383.9,500,383.9z"/>
			</g>
		</g>
		<g>
			<g>
				<path class="st0" d="M508,48c-2.2,0-4-1.8-4-4v-8c0-2.3-1.7-4-4-4c-2.2,0-4-1.8-4-4s1.8-4,4-4c6.7,0,12,5.3,12,12v8
					C512,46.2,510.2,48,508,48z"/>
			</g>
		</g>
		<g>
			<g>
				<path class="st0" d="M500,383.9c-2.2,0-4-1.8-4-4s1.8-4,4-4c2.2,0,4-1.8,4-4c0-2.2,1.8-4,4-4c2.2,0,4,1.8,4,4
					C512,378.6,506.6,383.9,500,383.9z"/>
			</g>
		</g>
	</g>
	<g>
		<g>
			<g>
				<path class="st0" d="M444,80H324c-2.2,0-4-1.8-4-4s1.8-4,4-4h120c2.2,0,4,1.8,4,4S446.2,80,444,80z"/>
			</g>
		</g>
		<g>
			<g>
				<path class="st0" d="M444,104H324c-2.2,0-4-1.8-4-4s1.8-4,4-4h120c2.2,0,4,1.8,4,4S446.2,104,444,104z"/>
			</g>
		</g>
		<g>
			<g>
				<path class="st0" d="M444,128H324c-2.2,0-4-1.8-4-4s1.8-4,4-4h120c2.2,0,4,1.8,4,4S446.2,128,444,128z"/>
			</g>
		</g>
		<g>
			<g>
				<path class="st0" d="M444,152H324c-2.2,0-4-1.8-4-4s1.8-4,4-4h120c2.2,0,4,1.8,4,4S446.2,152,444,152z"/>
			</g>
		</g>
		<g>
			<g>
				<path class="st0" d="M444,176H324c-2.2,0-4-1.8-4-4s1.8-4,4-4h120c2.2,0,4,1.8,4,4S446.2,176,444,176z"/>
			</g>
		</g>
		<g>
			<g>
				<path class="st0" d="M444,200H324c-2.2,0-4-1.8-4-4s1.8-4,4-4h120c2.2,0,4,1.8,4,4S446.2,200,444,200z"/>
			</g>
		</g>
		<g>
			<g>
				<path class="st0" d="M444,224H324c-2.2,0-4-1.8-4-4c0-2.2,1.8-4,4-4h120c2.2,0,4,1.8,4,4C448,222.2,446.2,224,444,224z"/>
			</g>
		</g>
		<g>
			<g>
				<path class="st0" d="M444,248H324c-2.2,0-4-1.8-4-4s1.8-4,4-4h120c2.2,0,4,1.8,4,4S446.2,248,444,248z"/>
			</g>
		</g>
		<g>
			<g>
				<path class="st0" d="M444,272H324c-2.2,0-4-1.8-4-4s1.8-4,4-4h120c2.2,0,4,1.8,4,4S446.2,272,444,272z"/>
			</g>
		</g>
		<g>
			<g>
				<path class="st0" d="M444,296H324c-2.2,0-4-1.8-4-4s1.8-4,4-4h120c2.2,0,4,1.8,4,4S446.2,296,444,296z"/>
			</g>
		</g>
	</g>
	<g>
		<g>
			<g>
				<path class="st0" d="M217.1,80H68.7c-2.7,0-4.9-1.8-4.9-4s2.2-4,4.9-4h148.4c2.7,0,4.9,1.8,4.9,4S219.8,80,217.1,80z"/>
			</g>
		</g>
		<g>
			<g>
				<path class="st0" d="M217.1,104H68.7c-2.7,0-4.9-1.8-4.9-4s2.2-4,4.9-4h148.4c2.7,0,4.9,1.8,4.9,4S219.8,104,217.1,104z"/>
			</g>
		</g>
		<g>
			<g>
				<path class="st0" d="M217.1,128H68.7c-2.7,0-4.9-1.8-4.9-4s2.2-4,4.9-4h148.4c2.7,0,4.9,1.8,4.9,4S219.8,128,217.1,128z"/>
			</g>
		</g>
		<g>
			<g>
				<path class="st0" d="M217.1,152H68.7c-2.7,0-4.9-1.8-4.9-4s2.2-4,4.9-4h148.4c2.7,0,4.9,1.8,4.9,4S219.8,152,217.1,152z"/>
			</g>
		</g>
		<g>
			<g>
				<path class="st0" d="M217.1,176H68.7c-2.7,0-4.9-1.8-4.9-4s2.2-4,4.9-4h148.4c2.7,0,4.9,1.8,4.9,4S219.8,176,217.1,176z"/>
			</g>
		</g>
		<g>
			<g>
				<path class="st0" d="M217.1,200H68.7c-2.7,0-4.9-1.8-4.9-4s2.2-4,4.9-4h148.4c2.7,0,4.9,1.8,4.9,4S219.8,200,217.1,200z"/>
			</g>
		</g>
		<g>
			<g>
				<path class="st0" d="M217.1,224H68.7c-2.7,0-4.9-1.8-4.9-4c0-2.2,2.2-4,4.9-4h148.4c2.7,0,4.9,1.8,4.9,4
					C222,222.2,219.8,224,217.1,224z"/>
			</g>
		</g>
		<g>
			<g>
				<path class="st0" d="M217.1,248H68.7c-2.7,0-4.9-1.8-4.9-4s2.2-4,4.9-4h148.4c2.7,0,4.9,1.8,4.9,4S219.8,248,217.1,248z"/>
			</g>
		</g>
		<g>
			<g>
				<path class="st0" d="M217.1,272H68.7c-2.7,0-4.9-1.8-4.9-4s2.2-4,4.9-4h148.4c2.7,0,4.9,1.8,4.9,4S219.8,272,217.1,272z"/>
			</g>
		</g>
		<g>
			<g>
				<path class="st0" d="M217.1,296H68.7c-2.7,0-4.9-1.8-4.9-4s2.2-4,4.9-4h148.4c2.7,0,4.9,1.8,4.9,4S219.8,296,217.1,296z"/>
			</g>
		</g>
	</g>
	<g>
		<g>
			<path class="st0" d="M292,407.9c-2.2,0-4-1.8-4-4V4c0-2.2,1.8-4,4-4s4,1.8,4,4v399.9C296,406.2,294.2,407.9,292,407.9z"/>
		</g>
	</g>
	<g>
		<g>
			<path class="st0" d="M308,407.9c-2.2,0-4-1.8-4-4V4c0-2.2,1.8-4,4-4s4,1.8,4,4v399.9C312,406.2,310.2,407.9,308,407.9z"/>
		</g>
	</g>
	<g>
		<g>
			<path class="st0" d="M308,8h-16c-2.2,0-4-1.8-4-4s1.8-4,4-4h16c2.2,0,4,1.8,4,4S310.2,8,308,8z"/>
		</g>
	</g>
	<g>
		<g>
			<path class="st0" d="M292,407.9c-1,0-2.1-0.4-2.8-1.2c-1.6-1.6-1.6-4.1,0-5.7l8-8c1.6-1.6,4.1-1.6,5.7,0s1.6,4.1,0,5.7l-8,8
				C294,407.6,293,407.9,292,407.9z"/>
		</g>
	</g>
	<g>
		<g>
			<path class="st0" d="M308,407.9c-1,0-2-0.4-2.8-1.2l-8-8c-1.6-1.6-1.6-4.1,0-5.7s4.1-1.6,5.7,0l8,8c1.6,1.6,1.6,4.1,0,5.7
				C310,407.6,309,407.9,308,407.9z"/>
		</g>
	</g>
</g>
</svg>
