<?xml version="1.0" encoding="utf-8"?>
<!-- Generator: Adobe Illustrator 22.0.1, SVG Export Plug-In . SVG Version: 6.00 Build 0)  -->
<svg version="1.1" id="Layer_1" xmlns="http://www.w3.org/2000/svg" xmlns:xlink="http://www.w3.org/1999/xlink" x="0px" y="0px"
	 viewBox="0 0 512 512" style="enable-background:new 0 0 512 512;" xml:space="preserve">
<style type="text/css">
	.st0{fill:#00B4DB;}
</style>
<g id="_x31__site_x2C__seo_x2C__marketing_x2C__target_x2C__arrow_x2C__business_1_">
	<g id="_x31__site_x2C__seo_x2C__marketing_x2C__target_x2C__arrow_x2C__business">
		<g>
			<path class="st0" d="M220.1,472c-110.2,0-199.9-89.7-199.9-199.9c0-110.2,89.7-199.9,199.9-199.9c45,0,87.5,14.6,122.9,42.2
				c1.7,1.4,2,3.9,0.7,5.6c-1.4,1.7-3.9,2.1-5.6,0.7c-34-26.5-74.7-40.5-118-40.5C114.2,80.1,28.2,166.2,28.2,272
				c0,105.8,86.1,191.9,191.9,191.9C325.9,463.9,412,377.8,412,272c0-43.3-14.1-84.1-40.7-118.1c-1.4-1.7-1-4.2,0.7-5.6
				c1.7-1.4,4.2-1.1,5.6,0.7c27.7,35.4,42.4,78,42.4,123.1C420,382.2,330.3,471.9,220.1,472z"/>
		</g>
		<g>
			<path class="st0" d="M220.1,436c-43.8,0-84.9-17-115.9-48c-31-31-48-72.1-48-115.9c0-43.8,17-84.9,48-115.9s72.1-48,115.9-48
				c0,0,0,0,0,0c35.3,0,68.8,11,97.1,31.9c1.8,1.3,2.1,3.8,0.8,5.6c-1.3,1.8-3.8,2.2-5.6,0.9c-26.9-19.8-58.9-30.3-92.4-30.3
				c0,0,0,0,0,0c-41.6,0-80.8,16.2-110.2,45.7C80.3,191.2,64.1,230.4,64.1,272c0,41.6,16.2,80.8,45.7,110.2
				c29.5,29.5,68.6,45.7,110.3,45.7c86,0,155.9-70,155.9-155.9c0-33.6-10.5-65.6-30.4-92.6c-1.3-1.8-0.9-4.3,0.8-5.6
				c1.8-1.3,4.3-0.9,5.6,0.8c20.9,28.3,32,62,32,97.3C384,362.4,310.4,435.9,220.1,436z"/>
		</g>
		<g>
			<path class="st0" d="M220.1,400c-70.6,0-127.9-57.4-127.9-128c0-34.2,13.3-66.3,37.5-90.5c24.2-24.2,56.3-37.5,90.4-37.5
				c0,0,0,0,0,0c25.5,0,50.1,7.5,71.1,21.6c1.8,1.2,2.3,3.7,1.1,5.6c-1.2,1.8-3.7,2.3-5.5,1.1c-19.8-13.2-42.8-20.2-66.7-20.2
				c0,0,0,0,0,0c-32,0-62.1,12.5-84.8,35.1c-22.7,22.7-35.1,52.8-35.1,84.8c0,66.1,53.8,120,119.9,120C286.2,392,340,338.2,340,272
				c0-24.1-7.1-47.2-20.5-67.1c-1.2-1.8-0.8-4.3,1.1-5.6c1.8-1.2,4.3-0.8,5.5,1.1c14.3,21.2,21.8,45.9,21.8,71.6
				C348,342.6,290.6,400,220.1,400z"/>
		</g>
		<g>
			<path class="st0" d="M220.1,364c-24.6,0-47.7-9.6-65-26.9s-26.9-40.5-26.9-65c0-50.7,41.2-92,92-92c15.6,0,31.1,4,44.7,11.6
				c1.9,1.1,2.6,3.5,1.5,5.4c-1.1,1.9-3.5,2.6-5.4,1.5c-12.4-6.9-26.5-10.6-40.8-10.6c-46.3,0-84,37.7-84,84
				c0,22.4,8.7,43.5,24.6,59.4c15.9,15.9,36.9,24.6,59.4,24.6c46.3,0,84-37.7,84-84c0-14.4-3.7-28.5-10.7-41
				c-1.1-1.9-0.4-4.4,1.5-5.4c1.9-1.1,4.4-0.4,5.4,1.5C308,240.8,312,256.3,312,272C312,322.7,270.8,364,220.1,364z"/>
		</g>
		<g>
			<path class="st0" d="M220.1,328c-30.9,0-56-25.1-56-56c0-30.9,25.1-56,56-56c5.7,0,11.3,0.9,16.7,2.5c2.1,0.7,3.3,2.9,2.6,5
				c-0.6,2.1-2.9,3.3-5,2.6c-4.6-1.4-9.4-2.2-14.3-2.2c-26.4,0-48,21.5-48,48c0,26.4,21.5,48,48,48c26.5,0,48-21.5,48-48
				c0-5-0.8-9.9-2.2-14.5c-0.7-2.1,0.5-4.4,2.6-5c2.1-0.7,4.4,0.5,5,2.6c1.7,5.5,2.6,11.2,2.6,17C276,302.9,250.9,328,220.1,328z"/>
		</g>
		<g>
			<path class="st0" d="M220.7,291.2c-5.3,0-10.4-2.1-14.1-5.9c-7.8-7.8-7.8-20.5,0-28.3c1.6-1.6,4.1-1.6,5.7,0s1.6,4.1,0,5.7
				c-4.7,4.7-4.7,12.3,0,17c2.3,2.3,5.3,3.5,8.5,3.5h0c3.2,0,6.2-1.3,8.5-3.5c1.6-1.6,4.1-1.6,5.7,0s1.6,4.1,0,5.6
				C231,289.2,226,291.2,220.7,291.2C220.7,291.2,220.7,291.2,220.7,291.2z"/>
		</g>
		<g>
			<path class="st0" d="M220.1,276c-1,0-2.1-0.4-2.8-1.2c-1.6-1.6-1.6-4.1,0-5.6L479.4,6.9c1.6-1.6,4.1-1.6,5.6,0s1.6,4.1,0,5.7
				L222.9,274.8C222.1,275.6,221.1,276,220.1,276z"/>
		</g>
		<g>
			<path class="st0" d="M83.8,511.9c-5.8,0-9.9-0.2-12.6-3c-2.8-2.8-3-7-3-13c0-11.4,14.5-56.1,16.2-61.2c0.7-2.1,2.9-3.3,5-2.5
				c2.1,0.7,3.2,2.9,2.6,5c-4.4,13.4-15.8,50.2-15.8,58.7c0,4.4,0.2,6.9,0.7,7.3c0.5,0.5,2.9,0.6,7.3,0.7c0,0,0,0,0,0
				c15.1,0,46.3-28,57.2-38.8c1.6-1.6,4.1-1.6,5.6,0s1.6,4.1,0,5.6c-4.2,4.2-41.7,41.1-62.8,41.1C84,511.9,83.9,511.9,83.8,511.9z"
				/>
		</g>
		<g>
			<path class="st0" d="M356,511.9c-21,0-58.6-37-62.8-41.2c-1.6-1.6-1.6-4.1,0-5.6s4.1-1.6,5.6,0c10.8,10.8,42.1,38.8,57.1,38.8
				c8,0,8,0,8-8c0-8.5-11.4-45.3-15.8-58.8c-0.7-2.1,0.5-4.4,2.5-5c2.1-0.7,4.4,0.5,5,2.5c1.6,5.1,16.2,49.9,16.2,61.2
				C372,509.2,369.3,511.9,356,511.9z"/>
		</g>
		<g>
			<path class="st0" d="M470.9,25c-1.7,0-3.2-1.1-3.8-2.7l-5.6-17c-0.7-2.1,0.4-4.4,2.5-5.1c2.1-0.7,4.4,0.4,5.1,2.5l5.6,17
				c0.7,2.1-0.4,4.4-2.5,5.1C471.7,25,471.3,25,470.9,25z"/>
		</g>
		<g>
			<path class="st0" d="M425.6,47.7c-1,0-2-0.4-2.8-1.2c-1.6-1.6-1.6-4.1,0-5.7l39.6-39.6c1.6-1.6,4.1-1.6,5.6,0s1.6,4.1,0,5.7
				l-39.6,39.6C427.7,47.3,426.7,47.7,425.6,47.7z"/>
		</g>
		<g>
			<path class="st0" d="M425.6,70.3c-2.2,0-4-1.8-4-4V43.7c0-2.2,1.8-4,4-4s4,1.8,4,4v22.6C429.6,68.5,427.9,70.3,425.6,70.3z"/>
		</g>
		<g>
			<path class="st0" d="M487.9,30.7c-0.4,0-0.8-0.1-1.3-0.2l-17-5.6c-2.1-0.7-3.2-3-2.5-5.1c0.7-2.1,3-3.2,5.1-2.5l17,5.6
				c2.1,0.7,3.2,3,2.5,5.1C491.1,29.6,489.5,30.7,487.9,30.7z"/>
		</g>
		<g>
			<path class="st0" d="M448.3,70.3c-1,0-2-0.4-2.8-1.2c-1.6-1.6-1.6-4.1,0-5.7L485,23.9c1.6-1.6,4.1-1.6,5.6,0s1.6,4.1,0,5.6
				l-39.6,39.6C450.3,69.9,449.3,70.3,448.3,70.3z"/>
		</g>
		<g>
			<path class="st0" d="M448.3,70.3h-22.6c-2.2,0-4-1.8-4-4s1.8-4,4-4h22.6c2.2,0,4,1.8,4,4S450.5,70.3,448.3,70.3z"/>
		</g>
	</g>
</g>
</svg>
