<?xml version="1.0" encoding="utf-8"?>
<!-- Generator: Adobe Illustrator 23.0.1, SVG Export Plug-In . SVG Version: 6.00 Build 0)  -->
<svg version="1.1" id="Слой_1" xmlns="http://www.w3.org/2000/svg" xmlns:xlink="http://www.w3.org/1999/xlink" x="0px" y="0px"
	 viewBox="0 0 511.8 463.9" style="enable-background:new 0 0 511.8 463.9;" xml:space="preserve">
<style type="text/css">
	.st0{fill:#00B4DB;}
</style>
<g>
	<path class="st0" d="M239.9,343.8c0,8.8,7.2,16,16,16c8.8,0,16-7.2,16-16s-7.2-16-16-16C247.1,327.8,239.9,334.9,239.9,343.8z
		 M263.9,343.8c0,4.4-3.6,8-8,8c-4.4,0-8-3.6-8-8s3.6-8,8-8C260.3,335.8,263.9,339.4,263.9,343.8z"/>
	<path class="st0" d="M483.9,215.8h-88c-15.4,0-28,12.6-28,28v175.9c0,0,0,0.1,0,0.1c0,0,0,0,0,0v16c0,15.7,12.3,28,28,28h88
		c15.7,0,28-12.3,28-28V420c0,0,0-0.1,0-0.1c0-0.1,0-0.1,0-0.2V243.8C511.8,228.4,499.3,215.8,483.9,215.8z M483.9,455.9h-88
		c-9.9,0-17.9-6.9-19.6-16.2c5.1,5,12,8.1,19.6,8.1h88c7.6,0,14.6-3.1,19.6-8.1C501.7,449,493.8,455.9,483.9,455.9z M503.8,419.7
		c0,11-9,20-20,20h-42.5c6-0.6,10.8-5.7,10.8-11.9c0-6.6-5.4-12-12-12s-12,5.4-12,12c0,6.2,4.7,11.2,10.8,11.9h-43c-11,0-20-9-20-20
		V243.8c0-11,9-20,20-20h88c11,0,20,9,20,20L503.8,419.7L503.8,419.7z M440.1,431.9c-2.2,0-4-1.8-4-4c0-2.2,1.8-4,4-4
		c2.2,0,4,1.8,4,4S442.3,431.9,440.1,431.9z"/>
	<path class="st0" d="M491.9,247.9h-104c-2.2,0-4,1.8-4,4v48c0,2.2,1.8,4,4,4h104c2.2,0,4-1.8,4-4v-48
		C495.8,249.7,494.1,247.9,491.9,247.9z M487.9,295.9h-96v-40h96V295.9z"/>
	<path class="st0" d="M491.9,311.9h-104c-2.2,0-4,1.8-4,4v56c0,2.2,1.8,4,4,4h104l0,0l0,0c0,0,0,0,0,0c0.7,0,1.3-0.2,1.8-0.5
		c0.1,0,0.1,0,0.2,0c0.1-0.1,0.2-0.2,0.3-0.3c0.2-0.2,0.4-0.3,0.6-0.6c0.2-0.2,0.3-0.4,0.4-0.6c0.1-0.2,0.2-0.4,0.3-0.7
		c0.1-0.3,0.1-0.5,0.2-0.8c0-0.2,0.1-0.3,0.1-0.5v-56C495.8,313.7,494.1,311.9,491.9,311.9z M391.9,319.9h96v37.5l-16.6-27.7
		c-1.5-2.4-5.4-2.4-6.9,0L447.5,358l-8.3-12.5c-1.5-2.2-5.2-2.2-6.7,0l-14.8,22.3h-25.9V319.9z M427.3,367.9l8.5-12.9l7.1,10.7
		l-1.3,2.2L427.3,367.9L427.3,367.9z M451,367.8C451,367.8,451,367.8,451,367.8l16.9-28.2l16.9,28.3h-33.9L451,367.8z"/>
	<path class="st0" d="M427.9,239.9h24c2.2,0,4-1.8,4-4c0-2.2-1.8-4-4-4h-24c-2.2,0-4,1.8-4,4C423.9,238.1,425.7,239.9,427.9,239.9z"
		/>
	<path class="st0" d="M404.1,271.9h72c2.2,0,4-1.8,4-4c0-2.2-1.8-4-4-4h-72c-2.2,0-4,1.8-4,4C400.1,270.1,401.9,271.9,404.1,271.9z"
		/>
	<path class="st0" d="M459.9,279.9h-39.5c-2.2,0-4,1.8-4,4c0,2.2,1.8,4,4,4h39.5c2.2,0,4-1.8,4-4
		C463.9,281.7,462.1,279.9,459.9,279.9z"/>
	<path class="st0" d="M491.9,383.9h-104c-2.2,0-4,1.8-4,4s1.8,4,4,4h104c2.2,0,4-1.8,4-4S494.1,383.9,491.9,383.9z"/>
	<path class="st0" d="M491.9,399.9h-104c-2.2,0-4,1.8-4,4c0,2.2,1.8,4,4,4h104c2.2,0,4-1.8,4-4C495.8,401.7,494.1,399.9,491.9,399.9
		z"/>
	<path class="st0" d="M424.1,339.9c0-6.6-5.4-12-12-12s-12,5.4-12,12s5.4,12,12,12S424.1,346.5,424.1,339.9z M408.1,339.9
		c0-2.2,1.8-4,4-4s4,1.8,4,4c0,2.2-1.8,4-4,4S408.1,342.1,408.1,339.9z"/>
	<path class="st0" d="M92,215.9c11,0,20-9,20-20c0-11-9-20-20-20s-20,9-20,20C72,207,80.9,215.9,92,215.9z M92,183.9
		c6.6,0,12,5.4,12,12c0,6.6-5.4,12-12,12s-12-5.4-12-12S85.4,183.9,92,183.9z"/>
	<path class="st0" d="M463.9,68c0-2.2-1.8-4-4-4H52c-2.2,0-4,1.8-4,4v64c0,2.2,1.8,4,4,4h407.9c2.2,0,4-1.8,4-4L463.9,68L463.9,68z
		 M455.9,128H56V72h399.9L455.9,128L455.9,128z"/>
	<path class="st0" d="M52,152c-2.2,0-4,1.8-4,4v112c0,2.2,1.8,4,4,4h191.9c2.2,0,4-1.8,4-4V156c0-2.2-1.8-4-4-4H52z M183.9,195.3
		l44.6,68.6h-89.2L183.9,195.3z M129.8,263.9h-22.3l24.5-36.7l11,16.5L129.8,263.9z M239.9,263.9h-1.8l-50.8-78.2
		c-1.5-2.3-5.2-2.3-6.7,0l-32.9,50.6l-12.4-18.6c-0.7-1.1-2-1.8-3.3-1.8c-1.3,0-2.6,0.7-3.3,1.8l-30.8,46.2H56V160h183.9V263.9z"/>
	<path class="st0" d="M459.9,183.9H267.9c-2.2,0-4,1.8-4,4c0,2.2,1.8,4,4,4h191.9c2.2,0,4-1.8,4-4
		C463.9,185.7,462.1,183.9,459.9,183.9z"/>
	<path class="st0" d="M459.9,160H267.9c-2.2,0-4,1.8-4,4c0,2.2,1.8,4,4,4h191.9c2.2,0,4-1.8,4-4C463.9,161.7,462.1,160,459.9,160z"
		/>
	<path class="st0" d="M347.9,207.9h-80c-2.2,0-4,1.8-4,4s1.8,4,4,4h80c2.2,0,4-1.8,4-4C351.9,209.7,350.1,207.9,347.9,207.9z"/>
	<path class="st0" d="M339.9,231.9h-72c-2.2,0-4,1.8-4,4c0,2.2,1.8,4,4,4h72c2.2,0,4-1.8,4-4C343.9,233.7,342.1,231.9,339.9,231.9z"
		/>
	<path class="st0" d="M339.9,255.9h-72c-2.2,0-4,1.8-4,4s1.8,4,4,4h72c2.2,0,4-1.8,4-4S342.1,255.9,339.9,255.9z"/>
	<path class="st0" d="M483.9,0H28C12.3,0,0,12.3,0,28v303.8v16c0,0,0,0,0,0c0,0,0,0,0,0v16c0,15.7,12.3,28,28,28h171l-14.2,63.9
		h-8.8c-2.2,0-4,1.8-4,4s1.8,4,4,4h160c2.2,0,4-1.8,4-4s-1.8-4-4-4h-8.8l-14.2-63.9h27c2.2,0,4-1.8,4-4s-1.8-4-4-4h-31.2
		c-0.6-0.1-1.1-0.2-1.7,0c0,0,0,0-0.1,0h-102c0,0,0,0-0.1,0c-0.6-0.1-1.1-0.1-1.7,0H28c-9.8,0-17.8-6.7-19.6-15.9
		c5,4.9,11.9,7.9,19.6,7.9h311.9c2.2,0,4-1.8,4-4c0-2.2-1.8-4-4-4H28c-11.2,0-20-8.8-20-20v-16v-12.1h331.9c2.2,0,4-1.8,4-4
		c0-2.2-1.8-4-4-4H8V28C8,16.8,16.8,8,28,8h455.9c11.2,0,20,8.8,20,20v167.9c0,2.2,1.8,4,4,4s4-1.8,4-4V28
		C511.8,12.3,499.6,0,483.9,0z M318.9,455.7H193l14.2-63.9h97.5L318.9,455.7z"/>
	<path class="st0" d="M483.9,191.9c2.2,0,4-1.8,4-4V28c0-2.2-1.8-4-4-4H28c-2.2,0-4,1.8-4,4v263.9c0,2.2,1.8,4,4,4h311.9
		c2.2,0,4-1.8,4-4s-1.8-4-4-4H32V48h447.9v140C479.9,190.2,481.6,191.9,483.9,191.9z M76.2,40h-16h-16H32v-8h12.2c-2.2,0-4,1.8-4,4
		s1.8,4,4,4c2.2,0,4-1.8,4-4s-1.8-4-4-4h15.9c-2.2,0-4,1.8-4,4s1.8,4,4,4c2.2,0,4-1.8,4-4s-1.8-4-4-4h15.9c-2.2,0-4,1.8-4,4
		C72.2,38.2,74,40,76.2,40c2.2,0,4-1.8,4-4s-1.8-4-4-4h403.6v8H76.2z"/>
	<path class="st0" d="M84,104h343.9c2.2,0,4-1.8,4-4s-1.8-4-4-4H84c-2.2,0-4,1.8-4,4C80,102.2,81.8,104,84,104z"/>
</g>
</svg>
