<?xml version="1.0" encoding="utf-8"?>
<!-- Generator: Adobe Illustrator 22.0.1, SVG Export Plug-In . SVG Version: 6.00 Build 0)  -->
<svg version="1.1" id="Layer_1" xmlns="http://www.w3.org/2000/svg" xmlns:xlink="http://www.w3.org/1999/xlink" x="0px" y="0px"
	 viewBox="0 0 367.6 502" style="enable-background:new 0 0 367.6 502;" xml:space="preserve">
<style type="text/css">
	.st0{fill:#FFFFFF;}
</style>
<g>
	<g>
		<g>
			<path class="st0" d="M124,318.8c-4.5-3.1-10.8-2-13.9,2.5c-14.1,20.4-23.3,45.8-26.7,73.5c-0.7,5.5,3.2,10.5,8.7,11.1
				c0.4,0,0.8,0.1,1.2,0.1c5,0,9.3-3.7,9.9-8.8c3-24.4,11-46.7,23.3-64.5C129.6,328.1,128.5,321.9,124,318.8z"/>
			<path class="st0" d="M158.3,281.8c-8.7,3.2-17,7.9-24.7,14c-4.3,3.4-5.1,9.7-1.7,14c2,2.5,4.9,3.8,7.9,3.8c2.2,0,4.4-0.7,6.2-2.1
				c6.1-4.8,12.6-8.5,19.3-11c5.2-1.9,7.8-7.7,5.9-12.9C169.3,282.6,163.5,279.9,158.3,281.8z"/>
			<path class="st0" d="M164.3,204.5c-22.1-13.7-39.3-33.1-47.2-53.2c-2-5.1-7.8-7.7-13-5.7c-5.1,2-7.7,7.8-5.7,13
				c9.4,24,29.6,47,55.3,62.9c1.6,1,3.5,1.5,5.3,1.5c3.3,0,6.6-1.7,8.5-4.7C170.5,213.6,169,207.5,164.3,204.5z"/>
			<path class="st0" d="M327.6,421.9h-6.9c-1.2-46.8-15-90.7-39-124.2c-15.5-21.7-34.3-37.5-54.8-46.7c20.5-9.2,39.3-25,54.8-46.7
				c24-33.5,37.7-77.4,39-124.2h6.9c22.1,0,40.1-18,40.1-40.1c0-22.1-18-40.1-40.1-40.1H40.1C18,0,0,18,0,40.1s18,40.1,40.1,40.1
				h6.9c1.2,46.8,15,90.7,39,124.2c15.5,21.7,34.3,37.5,54.8,46.7c-20.5,9.2-39.3,25-54.8,46.7c-24,33.5-37.7,77.4-39,124.2h-6.9
				C18,421.9,0,439.9,0,461.9S18,502,40.1,502h287.5c22.1,0,40.1-18,40.1-40.1S349.6,421.9,327.6,421.9z M40.1,60.1
				C29,60.1,20,51.1,20,40.1C20,29,29,20,40.1,20h287.5c11.1,0,20.1,9,20.1,20.1s-9,20.1-20.1,20.1C327.6,60.1,40.1,60.1,40.1,60.1z
				 M66.9,80.1h233.7c-2.6,89-54,160.2-116.9,160.2S69.5,169.1,66.9,80.1z M183.8,261.7c62.9,0,114.3,71.3,116.9,160.2H66.9
				C69.5,332.9,120.9,261.7,183.8,261.7z M327.6,482H40.1C29,482,20,473,20,461.9s9-20.1,20.1-20.1h287.5c11.1,0,20.1,9,20.1,20.1
				S338.6,482,327.6,482z"/>
		</g>
	</g>
</g>
</svg>
