<?xml version="1.0" encoding="utf-8"?>
<!-- Generator: Adobe Illustrator 22.1.0, SVG Export Plug-In . SVG Version: 6.00 Build 0)  -->
<svg version="1.1" id="Layer_1" xmlns="http://www.w3.org/2000/svg" xmlns:xlink="http://www.w3.org/1999/xlink" x="0px" y="0px"
	 viewBox="0 0 511.8 511.8" style="enable-background:new 0 0 511.8 511.8;" xml:space="preserve">
<g>
	<g>
		<path d="M440.1,314.7V68.6H71.7v246.1L0,443.2h511.8L440.1,314.7z M87.7,84.6h336.4v224.2H87.7V84.6z M84.4,324.8h343l57.2,102.5
			H27.2L84.4,324.8z"/>
	</g>
</g>
<g>
	<g>
		<rect x="109.1" y="349.6" width="297.3" height="16"/>
	</g>
</g>
<g>
	<g>
		<rect x="222.4" y="383" width="70.6" height="16"/>
	</g>
</g>
</svg>
