<?xml version="1.0" encoding="utf-8"?>
<!-- Generator: Adobe Illustrator 22.0.1, SVG Export Plug-In . SVG Version: 6.00 Build 0)  -->
<svg version="1.1" id="Слой_1" xmlns="http://www.w3.org/2000/svg" xmlns:xlink="http://www.w3.org/1999/xlink" x="0px" y="0px"
	 viewBox="0 0 509 509" style="enable-background:new 0 0 509 509;" xml:space="preserve">
<style type="text/css">
	.st0{fill:#FFFFFF;}
</style>
<circle class="st0" cx="314.5" cy="354.5" r="8.5"/>
<path class="st0" d="M509,48.5C509,21.8,487.2,0,460.5,0h-412C21.8,0,0,21.8,0,48.5v306C0,381.2,21.8,403,48.5,403H206v49h-11.5
	c-12.9,0-25.1,5-34.3,14.2S146,487.5,146,500.5c0,4.7,3.8,8.5,8.5,8.5h200c4.7,0,8.5-3.8,8.5-8.5c0-26.7-21.8-48.5-48.5-48.5H303
	v-49h157.5c26.7,0,48.5-21.8,48.5-48.5V48.5z M314.5,469c13.3,0,25.2,8.4,29.7,21l0.7,2H164.1l0.7-2c1.6-4.4,4.1-8.4,7.4-11.8
	c6-6,13.9-9.2,22.3-9.2H314.5z M223,452v-49h63v49H223z M492,354.5c0,17.4-14.1,31.5-31.5,31.5h-412C31.1,386,17,371.9,17,354.5V323
	h475V354.5z M88.3,146l26.2-52.5l26.2,52.5H88.3z M146,163v143h-23V163H146z M106,163v143H83V163H106z M275.5,283v1.5
	c0.2,6.7,0.4,13.4,0.4,20v1.5H233v-1.5c0.1-6.6,0.2-13.3,0.5-20v-1.4h42V283z M234.3,266l0.1-1.6c1.7-28.6,4.5-49.9,6.5-62.8
	l0.3-1.7l1.6,0.5c7.6,2.2,15.7,2.5,23.8,0.7l1.6-0.3l0.2,1.6c2,12.5,4.6,33.5,6.2,62l0.1,1.6H234.3z M256.2,185.3
	c-11.4,0-21.6-5.9-27.3-15.8c-5.7-9.8-5.7-21.6,0-31.4l27.3-47.3l27.3,47.3c5.7,9.8,5.7,21.6,0,31.5
	C277.7,179.4,267.5,185.3,256.2,185.3z M414.5,123H426v33h-11.5c-4.7,0-8.5,3.8-8.5,8.5s3.8,8.5,8.5,8.5H426v33h-11.5
	c-4.7,0-8.5,3.8-8.5,8.5s3.8,8.5,8.5,8.5H426v43h-11.5c-4.7,0-8.5,3.8-8.5,8.5s3.8,8.5,8.5,8.5H426v23h-63V83h63v23h-11.5
	c-4.7,0-8.5,3.8-8.5,8.5S409.8,123,414.5,123z M492,306h-49V74.5c0-4.7-3.8-8.5-8.5-8.5h-80c-4.7,0-8.5,3.8-8.5,8.5V306h-53v-1.5
	c-0.1-10.3-0.4-20.5-0.8-30.4c-1.7-40.2-5.6-67.3-7.8-79.8l-0.2-0.9l0.7-0.5c19.9-14.7,25.6-41.8,13.2-63.3l-34.7-60
	c-1.5-2.6-4.3-4.2-7.4-4.2c-3,0-5.8,1.6-7.4,4.2l-34.7,60c-11.7,20.3-7.2,46.1,10.7,61.2l0.7,0.6l-0.2,0.9
	c-2.3,12.9-6.5,40.8-8.4,81.9c-0.5,10-0.7,20.3-0.8,30.4v1.5h-53V154.5c0-1.3-0.3-2.5-0.8-3.7c0,0-0.1-0.1-0.1-0.2l-40-79.9
	c-1.5-2.9-4.4-4.7-7.6-4.7s-6.2,1.8-7.6,4.7l-40,80v0.1c-0.6,1.2-0.9,2.4-0.9,3.7V306h-49V48.5C16.9,31.1,31,17,48.4,17h412
	c17.4,0,31.5,14.1,31.5,31.5L492,306L492,306z"/>
<path class="st0" d="M274.5,346h-60c-4.7,0-8.5,3.8-8.5,8.5s3.8,8.5,8.5,8.5h60c4.7,0,8.5-3.8,8.5-8.5S279.2,346,274.5,346z"/>
</svg>
