<?xml version="1.0" encoding="utf-8"?>
<!-- Generator: Adobe Illustrator 22.0.1, SVG Export Plug-In . SVG Version: 6.00 Build 0)  -->
<svg version="1.1" id="Capa_1" xmlns="http://www.w3.org/2000/svg" xmlns:xlink="http://www.w3.org/1999/xlink" x="0px" y="0px"
	 viewBox="0 0 512 512" style="enable-background:new 0 0 512 512;" xml:space="preserve">
<style type="text/css">
	.st0{fill:#FFFFFF;}
</style>
<g>
	<g>
		<path class="st0" d="M500.3,443.5L370.4,313.5c52-78.4,43.5-185.4-25.5-254.5c-78.8-78.8-206.9-78.8-285.7,0
			C26.4,91.9,5.7,135.3,1.1,181.4C-3.5,226.8,7.4,272.8,32,311c3,4.6,9.2,6,13.8,3c4.6-3,6-9.2,3-13.8
			c-45.9-71.4-35.6-166.9,24.5-227c71-71,186.4-71,257.4,0s71,186.4,0,257.4c-60.2,60.2-152.6,70.9-224.8,25.9
			c-4.7-2.9-10.9-1.5-13.8,3.2c-2.9,4.7-1.5,10.9,3.2,13.8c31.9,19.9,69.2,30.4,106.8,30.4c7.2,0,14.5-0.4,21.7-1.2
			c32-3.5,62.8-14.7,89.5-32.3l130,130c7.8,7.8,17.9,11.6,28.2,11.6c10.3,0,20.7-3.9,28.5-11.8C515.8,484.5,515.9,459,500.3,443.5z
			 M329.7,358.4c5.3-4.3,10.3-8.8,15.1-13.7c4.8-4.8,9.3-9.8,13.5-14.9l25.3,25.3l-28.6,28.6L329.7,358.4z M486,486
			c-7.9,7.9-20.6,8-28.4,0.2l-88.3-88.3l28.6-28.6l88.3,88.3C494,465.4,493.9,478.1,486,486z"/>
	</g>
</g>
<g>
	<g>
		<path class="st0" d="M73.3,330.6l-0.2-0.2c-3.9-3.9-10.2-3.9-14.1,0c-3.9,3.9-3.9,10.2,0,14.1l0.2,0.2c2,1.9,4.5,2.9,7,2.9
			c2.6,0,5.1-1,7.1-3C77.2,340.8,77.2,334.5,73.3,330.6z"/>
	</g>
</g>
<g>
	<g>
		<path class="st0" d="M202,47.9c-84.9,0-154,69.1-154,154s69.1,154,154,154s154-69.1,154-154S286.9,47.9,202,47.9z M202,335.9
			c-48.4,0-90.8-25.8-114.4-64.3l59.2-59.2l47.4,47.5c1.9,1.9,4.4,2.9,7.1,2.9s5.2-1.1,7.1-2.9l74.5-74.5v3c0,5.5,4.5,10,10,10
			s10-4.5,10-10v-27.2c0-5.5-4.5-10-10-10h-27.2c-5.5,0-10,4.5-10,10s4.5,10,10,10h3l-67.5,67.5l-47.4-47.4
			c-1.9-1.9-4.4-2.9-7.1-2.9s-5.2,1.1-7.1,2.9l-61.6,61.6c-6.5-15.7-10.1-32.9-10.1-51c0-73.9,60.1-134,134-134s134,60.1,134,134
			C336,275.8,275.9,335.9,202,335.9z"/>
	</g>
</g>
</svg>
