<?xml version="1.0" encoding="utf-8"?>
<!-- Generator: Adobe Illustrator 23.0.1, SVG Export Plug-In . SVG Version: 6.00 Build 0)  -->
<svg version="1.1" id="Слой_1" xmlns="http://www.w3.org/2000/svg" xmlns:xlink="http://www.w3.org/1999/xlink" x="0px" y="0px"
	 viewBox="0 0 511.8 359.9" style="enable-background:new 0 0 511.8 359.9;" xml:space="preserve">
<style type="text/css">
	.st0{fill:#00B4DB;}
</style>
<g>
	<path class="st0" d="M499.8,0H12C5.4,0,0,5.4,0,12v8v335.9c0,2.2,1.8,4,4,4h503.8c2.2,0,4-1.8,4-4V20v-8C511.8,5.4,506.5,0,499.8,0
		z M8,12c0-2.2,1.8-4,4-4h8.2c-2.2,0-4,1.8-4,4c0,2.2,1.8,4,4,4c2.2,0,4-1.8,4-4c0-2.2-1.8-4-4-4h15.9c-2.2,0-4,1.8-4,4
		c0,2.2,1.8,4,4,4c2.2,0,4-1.8,4-4c0-2.2-1.8-4-4-4h15.9c-2.2,0-4,1.8-4,4c0,2.2,1.8,4,4,4c2.2,0,4-1.8,4-4c0-2.2-1.8-4-4-4h447.6
		c2.2,0,4,1.8,4,4v4H52.2h-16h-16H8V12z M503.8,351.9H8V24h495.8V351.9z"/>
	<path class="st0" d="M28,239.9h287.9c2.2,0,4-1.8,4-4V44c0-2.2-1.8-4-4-4H28c-2.2,0-4,1.8-4,4v191.9C24,238.1,25.8,239.9,28,239.9z
		 M32,223.9h8v8h-8V223.9z M160.7,223.9c-0.4,1.3-0.7,2.6-0.7,4c0,1.4,0.3,2.7,0.7,4H48v-8H160.7z M175.9,227.9c0,2.2-1.8,4-4,4
		c-2.2,0-4-1.8-4-4c0-2.2,1.8-4,4-4S175.9,225.7,175.9,227.9z M183.2,223.9h112.7v8H183.2c0.4-1.3,0.7-2.6,0.7-4
		C183.9,226.5,183.7,225.2,183.2,223.9z M303.9,231.9v-8h8v8H303.9z M311.9,48v167.9H32V48H311.9z"/>
	<path class="st0" d="M171.9,175.9c26.5,0,48-21.5,48-48c0-26.5-21.5-48-48-48c-26.5,0-48,21.5-48,48
		C124,154.4,145.5,175.9,171.9,175.9z M171.9,88c22,0,40,17.9,40,40s-17.9,40-40,40s-40-17.9-40-40S149.9,88,171.9,88z"/>
	<path class="st0" d="M154,155.4c0.6,0.3,1.3,0.5,2,0.5c0.7,0,1.4-0.2,2.1-0.6l40-24c1.2-0.7,1.9-2,1.9-3.4c0-1.4-0.7-2.7-1.9-3.4
		l-40-24c-1.2-0.7-2.8-0.8-4-0.1c-1.3,0.7-2,2-2,3.5v48C152,153.4,152.7,154.7,154,155.4z M160,111l28.2,16.9L160,144.9V111z"/>
	<path class="st0" d="M339.9,96h64c2.2,0,4-1.8,4-4V44c0-2.2-1.8-4-4-4h-64c-2.2,0-4,1.8-4,4v48C335.9,94.2,337.7,96,339.9,96z
		 M343.9,48h56v40h-56V48z"/>
	<path class="st0" d="M419.9,56h56c2.2,0,4-1.8,4-4c0-2.2-1.8-4-4-4h-56c-2.2,0-4,1.8-4,4C415.9,54.2,417.7,56,419.9,56z"/>
	<path class="st0" d="M419.9,72h56c2.2,0,4-1.8,4-4c0-2.2-1.8-4-4-4h-56c-2.2,0-4,1.8-4,4C415.9,70.2,417.7,72,419.9,72z"/>
	<path class="st0" d="M419.9,88h32c2.2,0,4-1.8,4-4c0-2.2-1.8-4-4-4h-32c-2.2,0-4,1.8-4,4C415.9,86.2,417.7,88,419.9,88z"/>
	<path class="st0" d="M339.9,167.9h64c2.2,0,4-1.8,4-4v-48c0-2.2-1.8-4-4-4h-64c-2.2,0-4,1.8-4,4v48
		C335.9,166.2,337.7,167.9,339.9,167.9z M343.9,120h56v40h-56V120z"/>
	<path class="st0" d="M419.9,128h56c2.2,0,4-1.8,4-4s-1.8-4-4-4h-56c-2.2,0-4,1.8-4,4S417.7,128,419.9,128z"/>
	<path class="st0" d="M419.9,144h56c2.2,0,4-1.8,4-4s-1.8-4-4-4h-56c-2.2,0-4,1.8-4,4S417.7,144,419.9,144z"/>
	<path class="st0" d="M419.9,160h32c2.2,0,4-1.8,4-4s-1.8-4-4-4h-32c-2.2,0-4,1.8-4,4S417.7,160,419.9,160z"/>
	<path class="st0" d="M339.9,239.9h64c2.2,0,4-1.8,4-4v-48c0-2.2-1.8-4-4-4h-64c-2.2,0-4,1.8-4,4v48
		C335.9,238.1,337.7,239.9,339.9,239.9z M343.9,191.9h56v40h-56V191.9z"/>
	<path class="st0" d="M419.9,199.9h56c2.2,0,4-1.8,4-4c0-2.2-1.8-4-4-4h-56c-2.2,0-4,1.8-4,4C415.9,198.1,417.7,199.9,419.9,199.9z"
		/>
	<path class="st0" d="M419.9,215.9h56c2.2,0,4-1.8,4-4c0-2.2-1.8-4-4-4h-56c-2.2,0-4,1.8-4,4C415.9,214.1,417.7,215.9,419.9,215.9z"
		/>
	<path class="st0" d="M419.9,231.9h32c2.2,0,4-1.8,4-4c0-2.2-1.8-4-4-4h-32c-2.2,0-4,1.8-4,4C415.9,230.1,417.7,231.9,419.9,231.9z"
		/>
	<path class="st0" d="M339.9,311.9h64c2.2,0,4-1.8,4-4v-48c0-2.2-1.8-4-4-4h-64c-2.2,0-4,1.8-4,4v48
		C335.9,310.1,337.7,311.9,339.9,311.9z M343.9,263.9h56v40h-56V263.9z"/>
	<path class="st0" d="M419.9,271.9h56c2.2,0,4-1.8,4-4c0-2.2-1.8-4-4-4h-56c-2.2,0-4,1.8-4,4C415.9,270.1,417.7,271.9,419.9,271.9z"
		/>
	<path class="st0" d="M419.9,287.9h56c2.2,0,4-1.8,4-4c0-2.2-1.8-4-4-4h-56c-2.2,0-4,1.8-4,4C415.9,286.1,417.7,287.9,419.9,287.9z"
		/>
	<path class="st0" d="M419.9,303.9h32c2.2,0,4-1.8,4-4c0-2.2-1.8-4-4-4h-32c-2.2,0-4,1.8-4,4C415.9,302.1,417.7,303.9,419.9,303.9z"
		/>
	<path class="st0" d="M419.9,343.9h56c2.2,0,4-1.8,4-4c0-2.2-1.8-4-4-4h-56c-2.2,0-4,1.8-4,4C415.9,342.1,417.7,343.9,419.9,343.9z"
		/>
	<path class="st0" d="M28,311.9h287.9c2.2,0,4-1.8,4-4v-48c0-2.2-1.8-4-4-4H28c-2.2,0-4,1.8-4,4v48C24,310.1,25.8,311.9,28,311.9z
		 M32,263.9h279.9v40H32V263.9z"/>
	<path class="st0" d="M299.9,271.9H76c-2.2,0-4,1.8-4,4c0,2.2,1.8,4,4,4h223.9c2.2,0,4-1.8,4-4C303.9,273.7,302.1,271.9,299.9,271.9
		z"/>
	<path class="st0" d="M156,287.9H76c-2.2,0-4,1.8-4,4s1.8,4,4,4h80c2.2,0,4-1.8,4-4S158.2,287.9,156,287.9z"/>
	<path class="st0" d="M60,271.9H44c-2.2,0-4,1.8-4,4v16c0,2.2,1.8,4,4,4h16c2.2,0,4-1.8,4-4v-16C64,273.7,62.2,271.9,60,271.9z
		 M56,287.9h-8v-8h8V287.9z"/>
	<path class="st0" d="M28,343.9c2.2,0,4-1.8,4-4v-4h279.9v4c0,2.2,1.8,4,4,4s4-1.8,4-4v-8c0-2.2-1.8-4-4-4H28c-2.2,0-4,1.8-4,4v8
		C24,342.1,25.8,343.9,28,343.9z"/>
	<path class="st0" d="M339.9,343.9c2.2,0,4-1.8,4-4v-4h56v4c0,2.2,1.8,4,4,4c2.2,0,4-1.8,4-4v-8c0-2.2-1.8-4-4-4h-64
		c-2.2,0-4,1.8-4,4v8C335.9,342.1,337.7,343.9,339.9,343.9z"/>
</g>
</svg>
