<?xml version="1.0" encoding="utf-8"?>
<!-- Generator: Adobe Illustrator 23.0.1, SVG Export Plug-In . SVG Version: 6.00 Build 0)  -->
<svg version="1.1" id="Слой_1" xmlns="http://www.w3.org/2000/svg" xmlns:xlink="http://www.w3.org/1999/xlink" x="0px" y="0px"
	 viewBox="0 0 511.8 407.8" style="enable-background:new 0 0 511.8 407.8;" xml:space="preserve">
<style type="text/css">
	.st0{fill:#00B4DB;}
</style>
<g>
	<g>
		<g>
			<path class="st0" d="M331.8,247.9H4c-2.2,0-4-1.8-4-4v-80c0-2.2,1.8-4,4-4h327.9c2.2,0,4,1.8,4,4v80
				C335.8,246.1,334.1,247.9,331.8,247.9z M8,239.9h319.9v-72H8V239.9z"/>
		</g>
	</g>
	<g>
		<g>
			<path class="st0" d="M52,231.9H28c-1.5,0-2.8-0.8-3.5-2.1c-0.7-1.3-0.6-2.9,0.2-4.1l32-48c0.7-1.1,2-1.8,3.3-1.8h24
				c1.5,0,2.8,0.8,3.5,2.1c0.7,1.3,0.6,2.9-0.2,4.1l-32,48C54.6,231.2,53.3,231.9,52,231.9z M35.5,223.9h14.4l26.7-40H62.1
				L35.5,223.9z"/>
		</g>
	</g>
	<g>
		<g>
			<path class="st0" d="M100,231.9H76c-1.5,0-2.8-0.8-3.5-2.1c-0.7-1.3-0.6-2.9,0.2-4.1l32-48c0.7-1.1,2-1.8,3.3-1.8h24
				c1.5,0,2.8,0.8,3.5,2.1c0.7,1.3,0.6,2.9-0.2,4.1l-32,48C102.5,231.2,101.3,231.9,100,231.9z M83.4,223.9h14.4l26.7-40h-14.4
				L83.4,223.9z"/>
		</g>
	</g>
	<g>
		<g>
			<path class="st0" d="M147.9,231.9h-24c-1.5,0-2.8-0.8-3.5-2.1c-0.7-1.3-0.6-2.9,0.2-4.1l32-48c0.7-1.1,2-1.8,3.3-1.8h24
				c1.5,0,2.8,0.8,3.5,2.1c0.7,1.3,0.6,2.9-0.2,4.1l-32,48C150.5,231.2,149.3,231.9,147.9,231.9z M131.4,223.9h14.4l26.7-40h-14.4
				L131.4,223.9z"/>
		</g>
	</g>
	<g>
		<g>
			<path class="st0" d="M275.9,223.9c-11,0-20-9-20-20s9-20,20-20s20,9,20,20S286.9,223.9,275.9,223.9z M275.9,191.9
				c-6.6,0-12,5.4-12,12c0,6.6,5.4,12,12,12s12-5.4,12-12S282.5,191.9,275.9,191.9z"/>
		</g>
	</g>
	<g>
		<g>
			<path class="st0" d="M331.8,327.8H4c-2.2,0-4-1.8-4-4v-64c0-2.2,1.8-4,4-4s4,1.8,4,4v60h319.9v-60c0-2.2,1.8-4,4-4
				c2.2,0,4,1.8,4,4v64C335.8,326.1,334.1,327.8,331.8,327.8z"/>
		</g>
	</g>
	<g>
		<g>
			<path class="st0" d="M52,311.9H28c-1.5,0-2.8-0.8-3.5-2.1c-0.7-1.3-0.6-2.9,0.2-4.1l32-48c0.7-1.1,2-1.8,3.3-1.8h24
				c1.5,0,2.8,0.8,3.5,2.1c0.7,1.3,0.6,2.9-0.2,4.1l-32,48C54.6,311.2,53.3,311.9,52,311.9z M35.5,303.9h14.4l26.7-40H62.1
				L35.5,303.9z"/>
		</g>
	</g>
	<g>
		<g>
			<path class="st0" d="M100,311.9H76c-1.5,0-2.8-0.8-3.5-2.1c-0.7-1.3-0.6-2.9,0.2-4.1l32-48c0.7-1.1,2-1.8,3.3-1.8h24
				c1.5,0,2.8,0.8,3.5,2.1c0.7,1.3,0.6,2.9-0.2,4.1l-32,48C102.5,311.2,101.3,311.9,100,311.9z M83.4,303.9h14.4l26.7-40h-14.4
				L83.4,303.9z"/>
		</g>
	</g>
	<g>
		<g>
			<path class="st0" d="M147.9,311.9h-24c-1.5,0-2.8-0.8-3.5-2.1c-0.7-1.3-0.6-2.9,0.2-4.1l32-48c0.7-1.1,2-1.8,3.3-1.8h24
				c1.5,0,2.8,0.8,3.5,2.1c0.7,1.3,0.6,2.9-0.2,4.1l-32,48C150.5,311.2,149.3,311.9,147.9,311.9z M131.4,303.9h14.4l26.7-40h-14.4
				L131.4,303.9z"/>
		</g>
	</g>
	<g>
		<g>
			<path class="st0" d="M275.9,303.9c-11,0-20-9-20-20c0-11,9-20,20-20s20,9,20,20C295.9,294.9,286.9,303.9,275.9,303.9z
				 M275.9,271.9c-6.6,0-12,5.4-12,12c0,6.6,5.4,12,12,12s12-5.4,12-12C287.9,277.3,282.5,271.9,275.9,271.9z"/>
		</g>
	</g>
	<g>
		<g>
			<path class="st0" d="M331.8,407.8H4c-2.2,0-4-1.8-4-4v-64c0-2.2,1.8-4,4-4s4,1.8,4,4v60h319.9v-60c0-2.2,1.8-4,4-4
				c2.2,0,4,1.8,4,4v64C335.8,406,334.1,407.8,331.8,407.8z"/>
		</g>
	</g>
	<g>
		<g>
			<path class="st0" d="M52,391.8H28c-1.5,0-2.8-0.8-3.5-2.1c-0.7-1.3-0.6-2.9,0.2-4.1l32-48c0.7-1.1,2-1.8,3.3-1.8h24
				c1.5,0,2.8,0.8,3.5,2.1c0.7,1.3,0.6,2.9-0.2,4.1l-32,48C54.6,391.1,53.3,391.8,52,391.8z M35.5,383.8h14.4l26.7-40H62.1
				L35.5,383.8z"/>
		</g>
	</g>
	<g>
		<g>
			<path class="st0" d="M100,391.8H76c-1.5,0-2.8-0.8-3.5-2.1c-0.7-1.3-0.6-2.9,0.2-4.1l32-48c0.7-1.1,2-1.8,3.3-1.8h24
				c1.5,0,2.8,0.8,3.5,2.1c0.7,1.3,0.6,2.9-0.2,4.1l-32,48C102.5,391.1,101.3,391.8,100,391.8z M83.4,383.8h14.4l26.7-40h-14.4
				L83.4,383.8z"/>
		</g>
	</g>
	<g>
		<g>
			<path class="st0" d="M147.9,391.8h-24c-1.5,0-2.8-0.8-3.5-2.1c-0.7-1.3-0.6-2.9,0.2-4.1l32-48c0.7-1.1,2-1.8,3.3-1.8h24
				c1.5,0,2.8,0.8,3.5,2.1c0.7,1.3,0.6,2.9-0.2,4.1l-32,48C150.5,391.1,149.3,391.8,147.9,391.8z M131.4,383.8h14.4l26.7-40h-14.4
				L131.4,383.8z"/>
		</g>
	</g>
	<g>
		<g>
			<path class="st0" d="M275.9,383.8c-11,0-20-9-20-20s9-20,20-20s20,9,20,20S286.9,383.8,275.9,383.8z M275.9,351.8
				c-6.6,0-12,5.4-12,12s5.4,12,12,12s12-5.4,12-12S282.5,351.8,275.9,351.8z"/>
		</g>
	</g>
	<g>
		<g>
			<path class="st0" d="M4,167.9c-1,0-2-0.4-2.8-1.2c-1.6-1.6-1.6-4.1,0-5.7l48-48c1.6-1.6,4.1-1.6,5.7,0c1.6,1.6,1.6,4.1,0,5.7
				l-48,48C6,167.5,5,167.9,4,167.9z"/>
		</g>
	</g>
	<g>
		<g>
			<path class="st0" d="M331.8,167.9c-1,0-2-0.4-2.8-1.2l-48-48c-1.6-1.6-1.6-4.1,0-5.7c1.6-1.6,4.1-1.6,5.7,0l48,48
				c1.6,1.6,1.6,4.1,0,5.7C333.9,167.5,332.9,167.9,331.8,167.9z"/>
		</g>
	</g>
	<g>
		<g>
			<path class="st0" d="M283.9,119.9H52c-2.2,0-4-1.8-4-4s1.8-4,4-4h231.9c2.2,0,4,1.8,4,4S286.1,119.9,283.9,119.9z"/>
		</g>
	</g>
	<g>
		<g>
			<path class="st0" d="M507.8,271.9H355.8c-2.2,0-4-1.8-4-4s1.8-4,4-4h147.9V24H167.9v68c0,2.2-1.8,4-4,4s-4-1.8-4-4V20
				c0-2.2,1.8-4,4-4h343.8c2.2,0,4,1.8,4,4v247.9C511.8,270.1,510,271.9,507.8,271.9z"/>
		</g>
	</g>
	<g>
		<g>
			<path class="st0" d="M507.8,24H163.9c-2.2,0-4-1.8-4-4c0-11,9-20,20-20h311.9c11,0,20,9,20,20C511.8,22.2,510,24,507.8,24z
				 M168.6,16h334.5c-1.6-4.7-6.1-8-11.3-8H179.9C174.7,8,170.3,11.3,168.6,16z"/>
		</g>
	</g>
	<g>
		<g>
			<path class="st0" d="M483.8,96H187.9c-2.2,0-4-1.8-4-4V44c0-2.2,1.8-4,4-4h295.9c2.2,0,4,1.8,4,4v48C487.8,94.2,486,96,483.8,96z
				 M191.9,88h287.9V48H191.9V88z"/>
		</g>
	</g>
	<g>
		<g>
			<path class="st0" d="M443.8,72H227.9c-2.2,0-4-1.8-4-4s1.8-4,4-4h215.9c2.2,0,4,1.8,4,4S446,72,443.8,72z"/>
		</g>
	</g>
	<g>
		<g>
			<path class="st0" d="M483.8,199.9H355.8c-2.2,0-4-1.8-4-4v-80c0-2.2,1.8-4,4-4h127.9c2.2,0,4,1.8,4,4v80
				C487.8,198.1,486,199.9,483.8,199.9z M359.8,191.9h119.9v-72H359.8V191.9z"/>
		</g>
	</g>
	<g>
		<g>
			<path class="st0" d="M419.8,191.9c-0.7,0-1.4-0.2-2.1-0.6c-1.9-1.1-2.5-3.6-1.4-5.5l24-40c1.1-1.9,3.6-2.5,5.5-1.4
				c1.9,1.1,2.5,3.6,1.4,5.5l-24,40C422.5,191.2,421.2,191.9,419.8,191.9z"/>
		</g>
	</g>
	<g>
		<g>
			<path class="st0" d="M467.8,191.9c-1.4,0-2.7-0.7-3.4-1.9l-24-40c-1.1-1.9-0.5-4.4,1.4-5.5c1.9-1.2,4.4-0.5,5.5,1.4l24,40
				c1.1,1.9,0.5,4.4-1.4,5.5C469.2,191.7,468.5,191.9,467.8,191.9z"/>
		</g>
	</g>
	<g>
		<g>
			<path class="st0" d="M395.8,191.9c-0.8,0-1.5-0.2-2.2-0.7c-1.8-1.2-2.3-3.7-1.1-5.5l16-24c1.2-1.8,3.7-2.3,5.5-1.1
				c1.8,1.2,2.3,3.7,1.1,5.5l-16,24C398.4,191.3,397.1,191.9,395.8,191.9z"/>
		</g>
	</g>
	<g>
		<g>
			<path class="st0" d="M417.1,175.9c-1.3,0-2.6-0.6-3.3-1.8l-5.3-8c-1.2-1.8-0.7-4.3,1.1-5.5c1.8-1.2,4.3-0.7,5.5,1.1l5.3,8
				c1.2,1.8,0.7,4.3-1.1,5.5C418.7,175.7,417.9,175.9,417.1,175.9z"/>
		</g>
	</g>
	<g>
		<g>
			<path class="st0" d="M379.8,151.9c-6.6,0-12-5.4-12-12s5.4-12,12-12s12,5.4,12,12S386.4,151.9,379.8,151.9z M379.8,135.9
				c-2.2,0-4,1.8-4,4s1.8,4,4,4s4-1.8,4-4S382,135.9,379.8,135.9z"/>
		</g>
	</g>
	<g>
		<g>
			<path class="st0" d="M483.8,215.9H355.8c-2.2,0-4-1.8-4-4s1.8-4,4-4h127.9c2.2,0,4,1.8,4,4S486,215.9,483.8,215.9z"/>
		</g>
	</g>
	<g>
		<g>
			<path class="st0" d="M483.8,231.9H355.8c-2.2,0-4-1.8-4-4s1.8-4,4-4h127.9c2.2,0,4,1.8,4,4S486,231.9,483.8,231.9z"/>
		</g>
	</g>
	<g>
		<g>
			<path class="st0" d="M427.8,247.9h-72c-2.2,0-4-1.8-4-4s1.8-4,4-4h72c2.2,0,4,1.8,4,4S430,247.9,427.8,247.9z"/>
		</g>
	</g>
	<g>
		<g>
			<path class="st0" d="M323.9,135.9c-2.2,0-4-1.8-4-4v-16c0-2.2,1.8-4,4-4s4,1.8,4,4v16C327.9,134.1,326.1,135.9,323.9,135.9z"/>
		</g>
	</g>
	<g>
		<g>
			<path class="st0" d="M323.9,119.9h-16c-2.2,0-4-1.8-4-4s1.8-4,4-4h16c2.2,0,4,1.8,4,4S326.1,119.9,323.9,119.9z"/>
		</g>
	</g>
</g>
</svg>
