<?xml version="1.0" encoding="utf-8"?>
<!-- Generator: Adobe Illustrator 22.0.1, SVG Export Plug-In . SVG Version: 6.00 Build 0)  -->
<svg version="1.1" id="Слой_1" xmlns="http://www.w3.org/2000/svg" xmlns:xlink="http://www.w3.org/1999/xlink" x="0px" y="0px"
	 viewBox="0 0 491 331" style="enable-background:new 0 0 491 331;" xml:space="preserve">
<style type="text/css">
	.st0{fill:#DDDDDD;}
	.st1{clip-path:url(#SVGID_2_);fill:none;stroke:#7F7F7F;stroke-width:4;stroke-miterlimit:10;}
	.st2{clip-path:url(#SVGID_2_);fill:#DDDDDD;}
	.st3{clip-path:url(#SVGID_2_);fill:#00B4DB;}
	.st4{clip-path:url(#SVGID_2_);fill:none;stroke:#FFFFFF;stroke-miterlimit:10;}
	.st5{clip-path:url(#SVGID_2_);fill:#FFFFFF;}
</style>
<rect x="21.5" y="48.5" class="st0" width="129" height="280"/>
<g>
	<defs>
		<rect id="SVGID_1_" width="491" height="331"/>
	</defs>
	<clipPath id="SVGID_2_">
		<use xlink:href="#SVGID_1_"  style="overflow:visible;"/>
	</clipPath>
	<path class="st1" d="M458.3,329H32.7C15.7,329,2,315.3,2,298.3V32.7C2,15.7,15.7,2,32.7,2h425.6C475.3,2,489,15.7,489,32.7v265.6
		C489,315.3,475.3,329,458.3,329z"/>
	<rect x="21.5" y="13.5" class="st2" width="60" height="24"/>
	<rect x="109.4" y="28.6" class="st3" width="82.9" height="1.9"/>
	<rect x="109.4" y="21.5" class="st3" width="58.1" height="1.4"/>
	<rect x="214.4" y="21.5" class="st2" width="45.2" height="9"/>
	<rect x="270.1" y="21.5" class="st2" width="45.2" height="9"/>
	<rect x="325.8" y="21.5" class="st2" width="45.2" height="9"/>
	<rect x="381.5" y="21.5" class="st2" width="45.2" height="9"/>
	<rect x="183.1" y="71.5" class="st2" width="78" height="78"/>
	<rect x="280" y="71.5" class="st2" width="78" height="78"/>
	<rect x="377" y="71.5" class="st2" width="78" height="78"/>
	<rect x="182" y="163.5" class="st2" width="78" height="78"/>
	<rect x="280" y="163.5" class="st2" width="78" height="78"/>
	<rect x="377" y="163.5" class="st2" width="78" height="78"/>
	<rect x="377" y="255.5" class="st2" width="78" height="71"/>
	<rect x="280" y="255.5" class="st2" width="78" height="71"/>
	<rect x="182" y="255.5" class="st2" width="78" height="71"/>
	<line class="st4" x1="21.5" y1="74.1" x2="150.5" y2="74.1"/>
	<line class="st4" x1="21.5" y1="155" x2="150.5" y2="155"/>
	<line class="st4" x1="21.5" y1="182" x2="150.5" y2="182"/>
	<line class="st4" x1="21.5" y1="128" x2="150.5" y2="128"/>
	<line class="st4" x1="21.5" y1="101" x2="150.5" y2="101"/>
	<line class="st4" x1="21.5" y1="208.1" x2="150.5" y2="208.1"/>
	<line class="st4" x1="21.5" y1="289" x2="150.5" y2="289"/>
	<line class="st4" x1="21.5" y1="316" x2="150.5" y2="316"/>
	<line class="st4" x1="21.5" y1="262" x2="150.5" y2="262"/>
	<line class="st4" x1="21.5" y1="235" x2="150.5" y2="235"/>
	<rect x="31.5" y="57.5" class="st5" width="8" height="8"/>
	<rect x="52.5" y="60.5" class="st5" width="64" height="2"/>
	<rect x="31.5" y="83.5" class="st5" width="8" height="8"/>
	<rect x="52.5" y="86.5" class="st5" width="64" height="2"/>
	<rect x="31.5" y="110.5" class="st5" width="8" height="8"/>
	<rect x="52.5" y="113.5" class="st5" width="64" height="2"/>
	<rect x="31.5" y="137.5" class="st5" width="8" height="8"/>
	<rect x="52.5" y="140.5" class="st5" width="64" height="2"/>
	<rect x="31.5" y="164.5" class="st5" width="8" height="8"/>
	<rect x="52.5" y="167.5" class="st5" width="64" height="2"/>
	<rect x="31.5" y="190.5" class="st5" width="8" height="8"/>
	<rect x="52.5" y="193.5" class="st5" width="64" height="2"/>
	<rect x="31.5" y="217.5" class="st5" width="8" height="8"/>
	<rect x="52.5" y="220.5" class="st5" width="64" height="2"/>
	<rect x="31.5" y="243.5" class="st5" width="8" height="8"/>
	<rect x="52.5" y="246.5" class="st5" width="64" height="2"/>
	<rect x="31.5" y="270.5" class="st5" width="8" height="8"/>
	<rect x="52.5" y="273.5" class="st5" width="64" height="2"/>
	<rect x="31.5" y="298.5" class="st5" width="8" height="8"/>
	<rect x="52.5" y="301.5" class="st5" width="64" height="2"/>
	<path class="st2" d="M460.2,26c0,5.3-4.3,9.6-9.6,9.6c-5.3,0-9.6-4.3-9.6-9.6c0-5.3,4.3-9.6,9.6-9.6
		C455.9,16.4,460.2,20.7,460.2,26"/>
	<rect x="273.3" y="46.1" class="st2" width="91.1" height="11.5"/>
	<path class="st3" d="M191.2,21.6c0,1.9-1.6,3.5-3.5,3.5s-3.5-1.6-3.5-3.5c0-1.9,1.6-3.5,3.5-3.5S191.2,19.7,191.2,21.6"/>
	<rect x="109.4" y="30" class="st3" width="82.9" height="81.6"/>
	<rect x="117" y="44" class="st5" width="24.9" height="24.9"/>
	<rect x="150.6" y="48.5" class="st5" width="25.8" height="3.3"/>
	<rect x="150.9" y="57.6" class="st5" width="9.7" height="2.9"/>
	<rect x="117" y="76" class="st5" width="24.9" height="24.9"/>
	<rect x="150.6" y="80.6" class="st5" width="25.8" height="3.3"/>
	<rect x="150.9" y="89.7" class="st5" width="9.7" height="2.9"/>
</g>
</svg>
