<?xml version="1.0" encoding="utf-8"?>
<!-- Generator: Adobe Illustrator 22.0.1, SVG Export Plug-In . SVG Version: 6.00 Build 0)  -->
<svg version="1.1" id="Слой_1" xmlns="http://www.w3.org/2000/svg" xmlns:xlink="http://www.w3.org/1999/xlink" x="0px" y="0px"
	 viewBox="0 0 496.1 496.1" style="enable-background:new 0 0 496.1 496.1;" xml:space="preserve">
<style type="text/css">
	.st0{fill:#FFFFFF;}
</style>
<g id="Idea-2">
	<path class="st0" d="M384.1,256h16c0.2,0,0.5-0.1,0.7-0.1c4.3,26.2,29.1,43.8,55.2,39.5c26.2-4.3,43.8-29.1,39.5-55.2
		s-29.1-43.8-55.2-39.5c-20.3,3.4-36.1,19.2-39.5,39.5c-0.2,0-0.5-0.1-0.7-0.1h-16c-0.1,0-0.3,0.1-0.4,0.1
		c-4.1-68.7-58.9-123.6-127.7-127.7c0-0.1,0.1-0.3,0.1-0.4V80c0-0.3-0.1-0.5-0.2-0.8c21.7-4.3,35.7-25.4,31.4-47.1
		C283,10.5,261.9-3.5,240.2,0.8s-35.7,25.4-31.4,47.1c3.2,15.8,15.5,28.2,31.4,31.4c-0.1,0.3-0.1,0.5-0.2,0.8v32
		c0,0.1,0.1,0.3,0.1,0.4c-30.5,1.8-59.5,13.8-82.3,34.1c-0.1-0.1-0.1-0.1-0.1-0.2l-32-32c-0.7-0.7-1.6-1.3-2.5-1.6
		c3.1-5,4.8-10.8,4.8-16.7c0-17.7-14.3-32-32-32s-32,14.3-32,32s14.3,32,32,32c5.9,0,11.7-1.7,16.7-4.8c0.4,0.9,0.9,1.8,1.6,2.5
		l32,32c0,0.1,0.1,0.1,0.2,0.1c-20.3,22.8-32.4,51.8-34.1,82.3c-0.1,0-0.3-0.1-0.4-0.1h-16c-0.2,0-0.5,0.1-0.7,0.1
		C91,214,66.3,196.3,40.2,200.7s-43.8,29.1-39.5,55.2s29.1,43.8,55.2,39.5c20.3-3.4,36.1-19.2,39.5-39.5c0.2,0,0.5,0.1,0.7,0.1h16
		c0.1,0,0.3-0.1,0.4-0.1c1.8,30.5,13.8,59.5,34.1,82.3c-0.1,0.1-0.1,0.1-0.2,0.1l-32,32c-0.7,0.7-1.3,1.6-1.6,2.5
		c-5-3.1-10.8-4.8-16.7-4.8c-17.7,0-32,14.3-32,32s14.3,32,32,32s32-14.3,32-32c0-5.9-1.7-11.7-4.8-16.7c0.9-0.4,1.8-0.9,2.5-1.6
		l32-32c0.1,0,0.1-0.1,0.1-0.2c22.8,20.3,51.8,32.4,82.3,34.1c0,0.1-0.1,0.3-0.1,0.4v32c0,0.3,0.1,0.5,0.2,0.8
		c-21.7,4.3-35.7,25.4-31.4,47.1s25.4,35.7,47.1,31.4c21.7-4.3,35.7-25.4,31.4-47.1c-3.2-15.8-15.5-28.2-31.4-31.4
		c0.1-0.3,0.1-0.5,0.2-0.8v-32c0-0.1-0.1-0.3-0.1-0.4c30.5-1.8,59.5-13.8,82.3-34.1c0.1,0.1,0.1,0.1,0.1,0.2l72,72
		c0.7,0.7,1.6,1.3,2.5,1.6c-3.1,5-4.8,10.8-4.8,16.7c0,17.7,14.3,32,32,32s32-14.3,32-32s-14.3-32-32-32c-5.9,0-11.7,1.7-16.7,4.8
		c-0.4-0.9-0.9-1.8-1.6-2.5l-72-72c0-0.1-0.1-0.1-0.2-0.1c20.3-22.8,32.4-51.8,34.1-82.3C383.8,256,383.9,256,384.1,256z M448.1,216
		c17.7,0,32,14.3,32,32s-14.3,32-32,32s-32-14.3-32-32S430.4,216,448.1,216z M96.1,112c-8.8,0-16-7.2-16-16s7.2-16,16-16
		s16,7.2,16,16S104.9,112,96.1,112z M48.1,280c-17.7,0-32-14.3-32-32s14.3-32,32-32s32,14.3,32,32S65.7,280,48.1,280z M96.1,416
		c-8.8,0-16-7.2-16-16s7.2-16,16-16s16,7.2,16,16S104.9,416,96.1,416z M440.1,424c8.8,0,16,7.2,16,16s-7.2,16-16,16s-16-7.2-16-16
		S431.2,424,440.1,424z M224.1,40c0-13.3,10.7-24,24-24c13.3,0,24,10.7,24,24s-10.7,24-24,24C234.8,64,224.1,53.3,224.1,40z
		 M272.1,456c0,13.3-10.7,24-24,24c-13.3,0-24-10.7-24-24s10.7-24,24-24l0,0C261.3,432,272.1,442.8,272.1,456z M248.1,368
		c-66.3,0-120-53.7-120-120s53.7-120,120-120s120,53.7,120,120C368,314.3,314.3,368,248.1,368z"/>
	<path class="st0" d="M392.1,112c2.1,0,4.2-0.8,5.7-2.3l32-32c0.7-0.7,1.3-1.6,1.6-2.5c5,3.1,10.8,4.8,16.7,4.8
		c17.7,0,32-14.3,32-32s-14.3-32-32-32s-32,14.3-32,32c0,5.9,1.7,11.7,4.8,16.7c-0.9,0.4-1.8,0.9-2.5,1.6l-32,32
		c-3.1,3.1-3.1,8.2,0,11.3C387.9,111.2,389.9,112,392.1,112z M448.1,32c8.8,0,16,7.2,16,16s-7.2,16-16,16s-16-7.2-16-16
		S439.2,32,448.1,32z"/>
	<path class="st0" d="M360.1,144c2.1,0,4.2-0.8,5.7-2.3l16-16c3.1-3.2,3-8.2-0.2-11.3c-3.1-3-8-3-11.1,0l-16,16
		c-3.1,3.1-3.1,8.2,0,11.3C355.9,143.2,357.9,144,360.1,144z"/>
	<path class="st0" d="M50.4,434.4l-16,16c-3.2,3.1-3.3,8.1-0.2,11.3c3.1,3.2,8.1,3.3,11.3,0.2c0.1-0.1,0.1-0.1,0.2-0.2l16-16
		c3.1-3.2,3-8.2-0.2-11.3C58.4,431.4,53.5,431.4,50.4,434.4z"/>
	<path class="st0" d="M312.1,216c0-35.3-28.6-64-64-64c-0.4,0-0.7,0-1.1,0c-33.9,0.9-61.3,27.8-62.9,61.7
		c-0.8,19.6,7.5,38.4,22.5,51c4.7,3.9,7.9,9.3,9,15.3h-7.5c-4.4,0-8,3.6-8,8v24c0,4.4,3.6,8,8,8h8v16c0,4.4,3.6,8,8,8h48
		c4.4,0,8-3.6,8-8v-16h8c4.4,0,8-3.6,8-8v-24c0-4.4-3.6-8-8-8h-7.6c1-5.9,4.1-11.2,8.7-15.1C303.7,252.8,312.1,234.9,312.1,216z
		 M264.1,328h-32v-8h32V328z M280.1,304h-64v-8h64V304z M279,252.7c-8.3,6.8-13.6,16.6-14.7,27.3h-32.4
		c-1.2-10.7-6.6-20.6-14.9-27.5c-11.2-9.5-17.4-23.6-16.9-38.3c1-26.5,23.2-47.2,49.7-46.2c12,0.4,23.4,5.3,31.9,13.8
		c18.9,18.6,19.1,48.9,0.6,67.8C281.2,250.7,280.1,251.7,279,252.7L279,252.7z"/>
</g>
</svg>
