<?xml version="1.0" encoding="utf-8"?>
<!-- Generator: Adobe Illustrator 22.0.1, SVG Export Plug-In . SVG Version: 6.00 Build 0)  -->
<svg version="1.1" id="Слой_1" xmlns="http://www.w3.org/2000/svg" xmlns:xlink="http://www.w3.org/1999/xlink" x="0px" y="0px"
	 viewBox="0 0 491 331" style="enable-background:new 0 0 491 331;" xml:space="preserve">
<style type="text/css">
	.st0{fill:none;stroke:#7F7F7F;stroke-width:4;stroke-miterlimit:10;}
	.st1{fill:#DDDDDD;}
	.st2{fill:#00B4DB;}
</style>
<path class="st0" d="M458.3,329H32.7C15.7,329,2,315.3,2,298.3V32.7C2,15.7,15.7,2,32.7,2h425.6C475.3,2,489,15.7,489,32.7v265.6
	C489,315.3,475.3,329,458.3,329z"/>
<rect x="21.5" y="13.5" class="st1" width="60" height="24"/>
<rect x="159.5" y="71.5" class="st2" width="78" height="78"/>
<rect x="257.5" y="71.5" class="st2" width="78" height="78"/>
<rect x="354.5" y="71.5" class="st2" width="78" height="78"/>
<rect x="159.5" y="163.5" class="st2" width="78" height="78"/>
<rect x="257.5" y="163.5" class="st2" width="78" height="78"/>
<rect x="354.5" y="163.5" class="st2" width="78" height="78"/>
<rect x="354.5" y="255.5" class="st2" width="78" height="71"/>
<rect x="257.5" y="255.5" class="st2" width="78" height="71"/>
<rect x="159.5" y="255.5" class="st2" width="78" height="71"/>
<rect x="62.8" y="71.5" class="st2" width="78" height="78"/>
<rect x="62.8" y="163.5" class="st2" width="78" height="78"/>
<rect x="62.8" y="255.5" class="st2" width="78" height="71"/>
<rect x="106.8" y="28.1" class="st1" width="82.9" height="1.9"/>
<rect x="106.8" y="21" class="st1" width="58.1" height="1.4"/>
<rect x="211.8" y="21" class="st1" width="45.2" height="9"/>
<rect x="267.5" y="21" class="st1" width="45.2" height="9"/>
<rect x="323.2" y="21" class="st1" width="45.2" height="9"/>
<rect x="378.9" y="21" class="st1" width="45.2" height="9"/>
<circle class="st1" cx="185.1" cy="21.1" r="3.5"/>
<rect x="186.6" y="48.5" class="st1" width="117.7" height="12"/>
</svg>
