<?xml version="1.0" encoding="utf-8"?>
<!-- Generator: Adobe Illustrator 22.0.1, SVG Export Plug-In . SVG Version: 6.00 Build 0)  -->
<svg version="1.1" id="Слой_1" xmlns="http://www.w3.org/2000/svg" xmlns:xlink="http://www.w3.org/1999/xlink" x="0px" y="0px"
	 viewBox="0 0 491 331" style="enable-background:new 0 0 491 331;" xml:space="preserve">
<style type="text/css">
	.st0{fill:#DDDDDD;}
	.st1{clip-path:url(#SVGID_2_);fill:none;stroke:#7F7F7F;stroke-width:4;stroke-miterlimit:10;}
	.st2{clip-path:url(#SVGID_2_);fill:#DDDDDD;}
	.st3{clip-path:url(#SVGID_2_);fill:#00B4DB;}
	.st4{clip-path:url(#SVGID_2_);fill:#FFFFFF;}
</style>
<rect x="21.3" y="47.9" transform="matrix(1 -3.962975e-03 3.962975e-03 1 -0.5487 0.9646)" class="st0" width="443.6" height="182.1"/>
<polygon class="st0" points="171.4,326.7 21.1,327.3 20.9,285.4 171.2,284.8 "/>
<g>
	<defs>
		<rect id="SVGID_1_" width="491" height="331"/>
	</defs>
	<clipPath id="SVGID_2_">
		<use xlink:href="#SVGID_1_"  style="overflow:visible;"/>
	</clipPath>
	<path class="st1" d="M458.3,329H32.7C15.7,329,2,315.3,2,298.3V32.7C2,15.7,15.7,2,32.7,2h425.6C475.3,2,489,15.7,489,32.7v265.6
		C489,315.3,475.3,329,458.3,329z"/>
	<rect x="21.5" y="13.5" class="st2" width="60" height="24"/>
	<rect x="109.4" y="28.6" class="st3" width="82.9" height="1.9"/>
	<rect x="109.4" y="21.5" class="st3" width="58.1" height="1.4"/>
	<rect x="214.4" y="21.5" class="st2" width="45.2" height="9"/>
	<rect x="270.1" y="21.5" class="st2" width="45.2" height="9"/>
	<rect x="325.8" y="21.5" class="st2" width="45.2" height="9"/>
	<rect x="381.5" y="21.5" class="st2" width="45.2" height="9"/>
	<rect x="191.4" y="251.8" class="st2" width="108.1" height="11.5"/>
	<rect x="189.1" y="289.2" class="st2" width="237.3" height="11.5"/>
	<rect x="189.1" y="311.2" class="st2" width="237.3" height="11.5"/>
	<path class="st3" d="M191.2,21.6c0,1.9-1.6,3.5-3.5,3.5s-3.5-1.6-3.5-3.5c0-1.9,1.6-3.5,3.5-3.5S191.2,19.7,191.2,21.6"/>
	<rect x="109.4" y="30" class="st3" width="82.9" height="81.6"/>
	<rect x="117" y="44" class="st4" width="24.9" height="24.9"/>
	<rect x="150.6" y="48.5" class="st4" width="25.8" height="3.3"/>
	<rect x="150.9" y="57.6" class="st4" width="9.7" height="2.9"/>
	<rect x="117" y="76" class="st4" width="24.9" height="24.9"/>
	<rect x="150.6" y="80.6" class="st4" width="25.8" height="3.3"/>
	<rect x="150.9" y="89.7" class="st4" width="9.7" height="2.9"/>
</g>
</svg>
