<?xml version="1.0" encoding="utf-8"?>
<!-- Generator: Adobe Illustrator 22.0.1, SVG Export Plug-In . SVG Version: 6.00 Build 0)  -->
<svg version="1.1" id="Layer_5" xmlns="http://www.w3.org/2000/svg" xmlns:xlink="http://www.w3.org/1999/xlink" x="0px" y="0px"
	 viewBox="0 0 491 491" style="enable-background:new 0 0 491 491;" xml:space="preserve">
<style type="text/css">
	.st0{fill:#00B5DD;}
</style>
<path class="st0" d="M213.5,192c-47.1,0-85.5,38.4-85.5,85.5s38.4,85.5,85.5,85.5s85.5-38.4,85.5-85.5S260.6,192,213.5,192z
	 M213.5,352c-41.1,0-74.5-33.4-74.5-74.5s33.4-74.5,74.5-74.5s74.5,33.4,74.5,74.5S254.6,352,213.5,352z"/>
<path class="st0" d="M203,37.5C203,16.8,186.2,0,165.5,0h-128C16.8,0,0,16.8,0,37.5v64C0,122.2,16.8,139,37.5,139h21.4L94,181.1
	c3.1,3.8,7.7,5.9,12.6,5.9c9,0,16.4-7.4,16.4-16.4V139h42.5c20.7,0,37.5-16.8,37.5-37.5V37.5z M192,101.5
	c0,14.6-11.9,26.5-26.5,26.5H112v42.6c0,2.2-1.4,4.1-3.7,4.9c-0.7,0.2-1.3,0.3-2,0.3c-1.5,0-3-0.6-3.9-1.8L64,128H37.5
	C22.9,128,11,116.1,11,101.5v-64C11,22.9,22.9,11,37.5,11h128c14.6,0,26.5,11.9,26.5,26.5V101.5z"/>
<path class="st0" d="M171,45.5c0-7.4-6.1-13.5-13.5-13.5h-64C86.1,32,80,38.1,80,45.5v48c0,7.4,6.1,13.5,13.5,13.5h64
	c7.4,0,13.5-6.1,13.5-13.5V45.5z M160,96H91V43h69V96z"/>
<rect x="32" y="32" class="st0" width="27" height="11"/>
<rect x="32" y="64" class="st0" width="27" height="11"/>
<rect x="32" y="96" class="st0" width="27" height="11"/>
<rect x="256" y="272" class="st0" width="11" height="11"/>
<rect x="224" y="272" class="st0" width="11" height="11"/>
<rect x="192" y="272" class="st0" width="11" height="11"/>
<rect x="160" y="272" class="st0" width="11" height="11"/>
<rect x="37.7" y="442.6" transform="matrix(0.7071 -0.7071 0.7071 0.7071 -304.3234 161.5197)" class="st0" width="10.2" height="11"/>
<rect x="59.7" y="420.2" transform="matrix(0.7071 -0.7071 0.7071 0.7071 -281.9213 170.7519)" class="st0" width="11" height="11"/>
<rect x="82.3" y="397.6" transform="matrix(0.7071 -0.7071 0.7071 0.7071 -259.3223 180.1323)" class="st0" width="11" height="11"/>
<path class="st0" d="M373.5,344c-16.3,0-29.5,13.2-29.5,29.5s13.2,29.5,29.5,29.5s29.5-13.2,29.5-29.5S389.8,344,373.5,344z
	 M373.5,392c-10.2,0-18.5-8.3-18.5-18.5s8.3-18.5,18.5-18.5s18.5,8.3,18.5,18.5S383.7,392,373.5,392z"/>
<path class="st0" d="M373.5,312c-33.9,0-61.5,27.6-61.5,61.5s27.6,61.5,61.5,61.5s61.5-27.6,61.5-61.5S407.4,312,373.5,312z
	 M373.5,424c-27.8,0-50.5-22.7-50.5-50.5s22.7-50.5,50.5-50.5s50.5,22.7,50.5,50.5S401.3,424,373.5,424z"/>
<path class="st0" d="M465,417.4l0.6-1.2c1.2-2.6,2.3-5.2,3.3-7.8l0.5-1.2l21.7-5.3v-56.6l-21.7-5.3l-0.5-1.2c-1-2.6-2-5.2-3.3-7.8
	l-0.6-1.2l11.6-19.2l-40-40L417.4,282l-1.2-0.6c-2.6-1.2-5.2-2.3-7.8-3.3l-1.2-0.5l-5.3-21.7h-56.6l-5.3,21.7l-1.2,0.5
	c-0.8,0.3-1.5,0.6-2.3,1c-0.6,0.3-1.2,0.6-1.8,0.8l-3.9,1.6l0.4-4.2c0-13.2-2.3-26.3-6.9-39.2L323,235h168v-13.5
	c0-47.4-30.3-89.2-75.4-104l-5-1.6l4.4-2.8c17.6-11.4,28-30.7,28-51.5c0-34-27.6-61.6-61.5-61.6S320,27.6,320,61.5
	c0,20.8,10.4,40,27.9,51.5l4.4,2.9l-4.9,1.6c-29.7,9.7-53.9,31.8-66.3,60.5l-1.2,2.7l-2.5-1.6c-19.1-12.4-41.2-19-63.9-19
	C148.7,160,96,212.7,96,277.5c0,20.6,5.6,41,16.1,59l1,1.7l-19.5,19.5l-8-8l-74,74C4.1,431.1,0,441,0,451.6
	C0,473.3,17.7,491,39.4,491c10.5,0,20.4-4.1,27.9-11.5l74-74l-8-8l19.5-19.5l1.7,1c18,10.5,38.4,16.1,59,16.1
	c13.2,0,26.3-2.3,39.2-6.9l3.3-1.2v14.9l21.7,5.3l0.5,1.2c1,2.6,2.1,5.2,3.2,7.8l0.6,1.2l-11.6,19.2l40,40l19.2-11.6l1.2,0.6
	c2.6,1.2,5.2,2.3,7.8,3.3l1.2,0.5l5.3,21.7h56.6l5.3-21.7l1.2-0.5c2.6-1,5.2-2,7.8-3.3l1.2-0.6l19.2,11.6l40-40L465,417.4z
	 M331,61.5c0-27.8,22.7-50.5,50.5-50.5S432,33.7,432,61.5S409.3,112,381.5,112S331,89.3,331,61.5z M289.6,186
	c7.2-18.6,19.6-34.4,36-45.7c16.5-11.3,35.8-17.3,55.8-17.3c54.3,0,98.5,44.2,98.5,98.5v2.5H318l-0.7-1.3
	c-6.8-12.8-15.9-24.2-27-33.9l-1.3-1.2L289.6,186z M59.5,471.7C54.2,477,47,480,39.4,480C23.8,480,11,467.2,11,451.6
	c0-7.6,3-14.7,8.3-20.1l66.2-66.2l40.2,40.2L59.5,471.7z M125.5,389.7l-24.2-24.2l18-18l1.7,2.2c5.9,7.5,12.7,14.3,20.3,20.3
	l2.2,1.7L125.5,389.7z M213.5,384C154.8,384,107,336.2,107,277.5S154.8,171,213.5,171S320,218.8,320,277.5S272.2,384,213.5,384z
	 M434.9,462.7l-17.1-10.3l-2.7,1.4c-4.7,2.4-9.5,4.4-14.2,5.9l-3,0.9l-4.7,19.3h-39.4l-4.7-19.3l-2.9-0.9c-4.7-1.5-9.5-3.5-14.2-5.9
	l-2.7-1.4l-17.1,10.3l-27.8-27.8l10.3-17.1l-1.4-2.7c-2.4-4.7-4.4-9.5-5.9-14.2l-0.9-2.9l-19.3-4.7v-11.1l1.3-0.7
	c32.6-17.3,55.5-49.4,61.1-85.8l0.2-1.3l2.3-1c4.7-2.4,9.4-4.4,14.1-5.9l3-0.9l4.7-19.3h39.4l4.7,19.3l2.9,0.9
	c4.7,1.5,9.5,3.5,14.2,5.9l2.7,1.4l17.1-10.3l27.8,27.8l-10.3,17.1l1.4,2.7c2.4,4.7,4.4,9.5,5.9,14.2l0.9,3l19.3,4.7v39.4l-19.3,4.7
	l-0.9,2.9c-1.5,4.7-3.5,9.5-5.9,14.2l-1.4,2.7l10.3,17.1L434.9,462.7z"/>
</svg>
