<?xml version="1.0" encoding="utf-8"?>
<!-- Generator: Adobe Illustrator 23.0.1, SVG Export Plug-In . SVG Version: 6.00 Build 0)  -->
<svg version="1.1" id="Layer_1" xmlns="http://www.w3.org/2000/svg" xmlns:xlink="http://www.w3.org/1999/xlink" x="0px" y="0px"
	 viewBox="0 0 512 512" style="enable-background:new 0 0 512 512;" xml:space="preserve">
<style type="text/css">
	.st0{display:none;}
	.st1{display:inline;}
	.st2{fill:#FFFFFF;}
	.st3{fill:#94C1FF;}
	.st4{fill:#5C9EFF;}
	.st5{fill:#D7E9FF;}
	.st6{fill:#2287FF;}
</style>
<g id="_x32_1_site_x2C__seo_x2C__promotion_x2C__marketing_x2C__web_1_">
	<g class="st0">
		<g class="st1">
			<rect x="4.1" y="42.3" class="st2" width="503.6" height="319.8"/>
		</g>
		<g class="st1">
			<rect x="196" y="178.2" class="st3" width="127.9" height="80"/>
		</g>
		<g class="st1">
			<rect x="316" y="178.2" class="st4" width="8" height="80.8"/>
		</g>
		<g class="st1">
			<rect x="356" y="178.2" class="st3" width="115.7" height="80"/>
		</g>
		<g class="st1">
			<path class="st2" d="M387.5,202.2c0,4.4-3.6,8-8,8s-8-3.6-8-8s3.6-8,8-8S387.5,197.8,387.5,202.2z"/>
		</g>
		<g class="st1">
			<rect x="356" y="178.2" class="st5" width="8" height="67.5"/>
		</g>
		<g class="st1">
			<rect x="36.1" y="178.2" class="st3" width="127.9" height="80"/>
		</g>
		<g class="st1">
			<polygon class="st2" points="153.2,258.1 95.3,258.1 124.1,210.2 			"/>
		</g>
		<g class="st1">
			<polygon class="st5" points="103.9,243.9 95.3,258.1 70.8,258.1 92.1,226.2 			"/>
		</g>
		<g class="st1">
			<path class="st2" d="M67.6,202.2c0,4.4-3.6,8-8,8s-8-3.6-8-8s3.6-8,8-8S67.6,197.8,67.6,202.2z"/>
		</g>
		<g class="st1">
			<polygon class="st2" points="313.1,258.1 255.2,258.1 284,210.2 			"/>
		</g>
		<g class="st1">
			<rect x="156" y="178.2" class="st4" width="8" height="80.8"/>
		</g>
		<g class="st1">
			<polygon class="st5" points="263.8,243.9 255.2,258.1 230.8,258.1 252,226.2 			"/>
		</g>
		<g class="st1">
			<path class="st2" d="M227.6,202.2c0,4.4-3.6,8-8,8s-8-3.6-8-8s3.6-8,8-8S227.6,197.8,227.6,202.2z"/>
		</g>
		<g class="st1">
			<rect x="36.1" y="74.2" class="st3" width="439.8" height="72"/>
		</g>
		<g class="st1">
			<polygon class="st4" points="361.9,385.9 291,396.9 286.6,373.1 357.7,360.8 			"/>
		</g>
		<g class="st1">
			<polygon class="st6" points="357.7,360.8 349.9,362.2 353.9,385.9 290.8,395.7 291,396.9 361.9,385.9 			"/>
		</g>
		<g class="st1">
			<polygon class="st3" points="294.6,373.1 357.9,362.2 357.7,360.8 286.6,373.1 291,396.9 298.8,395.7 			"/>
		</g>
		<g class="st1">
			<polygon class="st3" points="256.8,370 236.8,365.9 222.9,287.1 259.5,264.5 278.9,374.7 			"/>
		</g>
		<g class="st1">
			<polygon class="st5" points="264.8,370 244.8,365.9 230.9,287.1 260.3,268.9 259.5,264.5 222.9,287.1 236.8,365.9 256.8,370 
				278.9,374.7 278.6,372.9 			"/>
		</g>
		<g class="st1">
			<rect x="467.7" y="74.2" class="st4" width="8" height="72"/>
		</g>
		<g class="st1">
			<path class="st5" d="M485.7,257.8l-14-79.5l-15.8,2.8c8.4,47.3-117.6,69.5-117.6,69.5l-70.8,12.6l-7.9,1.4L279,374.8l78.8-13.8
				c0,0,128.7-6.5,134.3,25l15.8-2.8L485.7,257.8z"/>
		</g>
		<g class="st1">
			<polygon class="st4" points="507.8,383.1 492,385.9 455.9,181.1 471.7,178.3 			"/>
		</g>
		<g class="st1">
			<polygon class="st6" points="471.7,178.3 463.9,179.7 499.8,383.1 491.8,384.5 492,385.9 507.8,383.1 			"/>
		</g>
		<g class="st1">
			<polygon class="st3" points="378.4,477.4 338.4,484.5 306.4,394.2 345.4,387.5 			"/>
		</g>
		<g class="st1">
			<polygon class="st4" points="345.4,387.5 337.9,388.8 370.4,477.4 337.9,483.1 338.4,484.5 378.4,477.4 			"/>
		</g>
		<g class="st1">
			<polygon class="st5" points="314.4,394.2 345.9,388.8 345.4,387.5 306.4,394.2 338.4,484.5 345.9,483.1 			"/>
		</g>
		<g class="st1">
			<path class="st5" d="M507.9,42.3v-8c0-4.4-3.6-8-8-8H12.1c-4.4,0-8,3.6-8,8v8H507.9z"/>
		</g>
		<g class="st1">
			<rect x="36.1" y="178.2" class="st5" width="8" height="80.8"/>
		</g>
		<g class="st1">
			<rect x="36.1" y="74.2" class="st5" width="8" height="72"/>
		</g>
		<g class="st1">
			<rect x="196" y="178.2" class="st5" width="8" height="80.8"/>
		</g>
	</g>
	<g id="_x32_1_site_x2C__seo_x2C__promotion_x2C__marketing_x2C__web">
		<g>
			<g>
				<path class="st2" d="M487.8,366.1c-1.9,0-3.6-1.4-3.9-3.3l-27.8-157.5c-0.4-2.2,1.1-4.2,3.2-4.6c2.2-0.5,4.2,1.1,4.6,3.2
					l27.8,157.5c0.4,2.2-1.1,4.2-3.2,4.6C488.3,366.1,488.1,366.1,487.8,366.1z"/>
			</g>
			<g>
				<path class="st2" d="M492,389.7c-1.9,0-3.6-1.4-3.9-3.3c-3.6-20.4-81.8-24.2-130.2-21.7c-2.2,0.2-4.1-1.6-4.2-3.8
					c-0.1-2.2,1.6-4.1,3.8-4.2C371,356,490,351,495.9,385c0.4,2.2-1.1,4.2-3.2,4.6C492.5,389.7,492.2,389.7,492,389.7z"/>
			</g>
			<g>
				<path class="st2" d="M338.2,254.4c-1.9,0-3.6-1.4-3.9-3.3c-0.4-2.2,1.1-4.2,3.2-4.6c34-6,120.7-29.3,114.4-64.8
					c-0.4-2.2,1.1-4.2,3.2-4.6c2.2-0.5,4.3,1.1,4.6,3.2c3.8,21.8-15.8,40.9-58.2,56.9c-30.5,11.5-62.4,17.2-62.7,17.2
					C338.7,254.4,338.5,254.4,338.2,254.4z"/>
			</g>
			<g>
				<path class="st2" d="M455.9,185c-1.9,0-3.6-1.4-3.9-3.3c-0.4-2.2,1.1-4.2,3.2-4.6l15.7-2.8c2.2-0.4,4.2,1.1,4.6,3.2
					c0.4,2.2-1.1,4.2-3.2,4.6l-15.7,2.8C456.4,184.9,456.1,185,455.9,185z"/>
			</g>
			<g>
				<path class="st2" d="M507.8,386.9c-1.9,0-3.6-1.4-3.9-3.3l-36.1-204.7c-0.4-2.2,1.1-4.2,3.2-4.6c2.2-0.4,4.2,1.1,4.6,3.2
					l36.1,204.7c0.4,2.2-1.1,4.2-3.2,4.6C508.2,386.9,508,386.9,507.8,386.9z"/>
			</g>
			<g>
				<path class="st2" d="M492,389.7c-1.9,0-3.6-1.4-3.9-3.3c-0.4-2.2,1.1-4.2,3.2-4.6l15.8-2.8c2.2-0.4,4.2,1.1,4.6,3.2
					c0.4,2.2-1.1,4.2-3.2,4.6l-15.8,2.8C492.5,389.7,492.2,389.7,492,389.7z"/>
			</g>
			<g>
				<path class="st2" d="M278.9,378.6c-1.9,0-3.6-1.4-3.9-3.3L255.6,265c-0.2-1,0.1-2.1,0.7-3s1.5-1.5,2.6-1.6l78.7-13.9
					c2.1-0.4,4.2,1.1,4.6,3.2c0.4,2.2-1.1,4.2-3.2,4.6l-74.8,13.2l18.1,102.4l74.8-13.2c2.2-0.4,4.2,1.1,4.6,3.2
					c0.4,2.2-1.1,4.2-3.2,4.6l-78.7,13.9C279.4,378.5,279.2,378.6,278.9,378.6z"/>
			</g>
			<g>
				<path class="st2" d="M278.9,378.6c-0.3,0-0.5,0-0.8-0.1l-42.1-8.8c-1.6-0.3-2.8-1.6-3.1-3.2L219,287.7c-0.3-1.6,0.4-3.2,1.8-4.1
					l36.6-22.7c1.1-0.7,2.5-0.8,3.7-0.2c1.2,0.5,2.1,1.6,2.3,3l19.4,110.2c0.2,1.3-0.2,2.6-1.1,3.6C281,378.2,280,378.6,278.9,378.6
					z M240.2,362.4l33.7,7l-17.4-98.6L227.3,289L240.2,362.4z"/>
			</g>
			<g>
				<path class="st2" d="M354.9,348.9c-1.9,0-3.6-1.4-3.9-3.3l-13.9-78.8c-0.4-2.2,1.1-4.2,3.2-4.6c2.2-0.4,4.2,1.1,4.6,3.2
					l13.9,78.8c0.4,2.2-1.1,4.2-3.2,4.6C355.4,348.9,355.1,348.9,354.9,348.9z"/>
			</g>
			<g>
				<path class="st2" d="M241.4,304c-1.9,0-3.6-1.4-3.9-3.3c-0.4-2.2,1.1-4.2,3.2-4.6l7.9-1.4c2.2-0.4,4.2,1.1,4.6,3.2
					c0.4,2.2-1.1,4.2-3.2,4.6l-7.9,1.4C241.9,304,241.6,304,241.4,304z"/>
			</g>
			<g>
				<path class="st2" d="M249.7,351.2c-1.9,0-3.6-1.4-3.9-3.3c-0.4-2.2,1.1-4.2,3.2-4.6l7.9-1.4c2.2-0.5,4.2,1.1,4.6,3.2
					c0.4,2.2-1.1,4.2-3.2,4.6l-7.9,1.4C250.2,351.2,250,351.2,249.7,351.2z"/>
			</g>
			<g>
				<path class="st2" d="M245.6,327.6c-1.9,0-3.6-1.4-3.9-3.3c-0.4-2.2,1.1-4.2,3.2-4.6l7.9-1.4c2.2-0.4,4.2,1.1,4.6,3.2
					c0.4,2.2-1.1,4.2-3.2,4.6l-7.9,1.4C246,327.6,245.8,327.6,245.6,327.6z"/>
			</g>
			<g>
				<path class="st2" d="M266.7,263c-1.9,0-3.6-1.4-3.9-3.3c-0.4-2.2,1.1-4.2,3.2-4.6l15.8-2.8c2.1-0.4,4.2,1.1,4.6,3.2
					c0.4,2.2-1.1,4.2-3.2,4.6l-15.8,2.8C267.1,263,266.9,263,266.7,263z"/>
			</g>
			<g>
				<path class="st2" d="M378.4,481.4c-1.6,0-3.2-1-3.8-2.7l-29.5-82.6c-0.7-2.1,0.3-4.4,2.4-5.1s4.4,0.3,5.1,2.4l29.5,82.6
					c0.7,2.1-0.3,4.4-2.4,5.1C379.3,481.3,378.8,481.4,378.4,481.4z"/>
			</g>
			<g>
				<path class="st2" d="M339,488.3c-1.6,0-3.2-1-3.8-2.7L305.7,403c-0.7-2.1,0.3-4.4,2.4-5.1s4.4,0.3,5.1,2.4l29.5,82.6
					c0.8,2.1-0.3,4.4-2.4,5.1C339.9,488.3,339.5,488.3,339,488.3z"/>
			</g>
			<g>
				<path class="st2" d="M331.1,489.7c-1.9,0-3.6-1.4-3.9-3.3c-0.4-2.2,1.1-4.2,3.2-4.6l55.1-9.7c2.2-0.4,4.2,1.1,4.6,3.2
					c0.4,2.2-1.1,4.2-3.2,4.6l-55.1,9.7C331.6,489.7,331.4,489.7,331.1,489.7z"/>
			</g>
			<g>
				<path class="st2" d="M291,400.8c-1.9,0-3.6-1.4-3.9-3.3l-1.6-8.9c-0.4-2.2,1.1-4.2,3.2-4.6c2.2-0.5,4.2,1.1,4.6,3.2l1.6,8.9
					c0.4,2.2-1.1,4.2-3.2,4.6C291.4,400.8,291.2,400.8,291,400.8z"/>
			</g>
			<g>
				<path class="st2" d="M291,400.8c-1.9,0-3.6-1.4-3.9-3.3c-0.4-2.2,1.1-4.2,3.3-4.6l70.9-12.3c2.2-0.4,4.2,1.1,4.6,3.3
					c0.4,2.2-1.1,4.2-3.3,4.6l-70.9,12.3C291.4,400.8,291.2,400.8,291,400.8z"/>
			</g>
			<g>
				<path class="st2" d="M361.9,388.5c-1.9,0-3.6-1.4-3.9-3.3l-1.4-7.9c-0.4-2.2,1.1-4.2,3.2-4.6s4.2,1.1,4.6,3.2l1.4,7.9
					c0.4,2.2-1.1,4.2-3.2,4.6C362.4,388.5,362.1,388.5,361.9,388.5z"/>
			</g>
		</g>
		<g>
			<path class="st2" d="M20.3,38.3c-2.2,0-4-1.8-4-4s1.7-4,4-4h0.1c2.2,0,4,1.8,4,4S22.6,38.3,20.3,38.3z"/>
		</g>
		<g>
			<path class="st2" d="M36.3,38.3c-2.2,0-4-1.8-4-4s1.7-4,4-4h0.1c2.2,0,4,1.8,4,4S38.5,38.3,36.3,38.3z"/>
		</g>
		<g>
			<path class="st2" d="M52.3,38.3c-2.2,0-4-1.8-4-4s1.7-4,4-4h0.1c2.2,0,4,1.8,4,4S54.5,38.3,52.3,38.3z"/>
		</g>
		<g>
			<path class="st2" d="M507.9,46.3H4.1c-2.2,0-4-1.8-4-4v-8c0-6.6,5.4-12,12-12h487.8c6.6,0,12,5.4,12,12v8
				C511.9,44.5,510.1,46.3,507.9,46.3z M8.1,38.3h495.8v-4c0-2.2-1.8-4-4-4H12.1c-2.2,0-4,1.8-4,4V38.3z"/>
		</g>
		<g>
			<path class="st2" d="M507.9,302.1c-2.2,0-4-1.8-4-4V42.3c0-2.2,1.8-4,4-4s4,1.8,4,4v255.9C511.9,300.3,510.1,302.1,507.9,302.1z"
				/>
		</g>
		<g>
			<path class="st2" d="M4.1,366.1c-2.2,0-4-1.8-4-4V42.3c0-2.2,1.8-4,4-4s4,1.8,4,4v319.8C8.1,364.3,6.3,366.1,4.1,366.1z"/>
		</g>
		<g>
			<path class="st2" d="M220,366.1H4.1c-2.2,0-4-1.8-4-4s1.8-4,4-4H220c2.2,0,4,1.8,4,4C224,364.3,222.2,366.1,220,366.1z"/>
		</g>
		<g>
			<path class="st2" d="M95.3,262.1c-0.7,0-1.4-0.2-2.1-0.6c-1.9-1.1-2.5-3.6-1.4-5.5l28.7-48c0.7-1.2,2.2-2.2,3.4-1.9
				c1.4,0,2.7,0.7,3.4,1.9l29.1,48c1.1,1.9,0.5,4.3-1.3,5.5c-1.9,1.1-4.3,0.5-5.5-1.3l-25.7-42.3l-25.3,42.3
				C98,261.5,96.7,262.1,95.3,262.1z"/>
		</g>
		<g>
			<path class="st2" d="M70.8,262.1c-0.8,0-1.5-0.2-2.2-0.7c-1.8-1.2-2.3-3.7-1.1-5.5l21.2-32c0.7-1.1,2-1.8,3.3-1.8l0,0
				c1.3,0,2.6,0.7,3.3,1.8l11.8,17.7c1.2,1.8,0.7,4.3-1.1,5.5c-1.8,1.2-4.3,0.7-5.5-1.1l-8.4-12.7l-17.9,27
				C73.4,261.5,72.1,262.1,70.8,262.1z"/>
		</g>
		<g>
			<path class="st2" d="M475.9,150.2H36.1c-2.2,0-4-1.8-4-4v-72c0-2.2,1.8-4,4-4h439.8c2.2,0,4,1.8,4,4v72
				C479.9,148.4,478.1,150.2,475.9,150.2z M40.1,142.2h431.8v-64H40.1V142.2z"/>
		</g>
		<g>
			<path class="st2" d="M164,262.1H36.1c-2.2,0-4-1.8-4-4v-80c0-2.2,1.8-4,4-4H164c2.2,0,4,1.8,4,4v80
				C168,260.4,166.3,262.1,164,262.1z M40.1,254.1H160v-72H40.1V254.1z"/>
		</g>
		<g>
			<path class="st2" d="M59.6,214.2c-6.6,0-12-5.4-12-12s5.4-12,12-12s12,5.4,12,12S66.3,214.2,59.6,214.2z M59.6,198.2
				c-2.2,0-4,1.8-4,4s1.8,4,4,4s4-1.8,4-4S61.9,198.2,59.6,198.2z"/>
		</g>
		<g>
			<path class="st2" d="M431.9,110.2H80.1c-2.2,0-4-1.8-4-4s1.8-4,4-4h351.8c2.2,0,4,1.8,4,4S434.1,110.2,431.9,110.2z"/>
		</g>
		<g>
			<path class="st2" d="M383.9,126.2H128.1c-2.2,0-4-1.8-4-4s1.8-4,4-4H384c2.2,0,4,1.8,4,4S386.2,126.2,383.9,126.2z"/>
		</g>
		<g>
			<path class="st2" d="M164,286.1H36.1c-2.2,0-4-1.8-4-4s1.8-4,4-4H164c2.2,0,4,1.8,4,4C168,284.3,166.3,286.1,164,286.1z"/>
		</g>
		<g>
			<path class="st2" d="M164,310.1H36.1c-2.2,0-4-1.8-4-4s1.8-4,4-4H164c2.2,0,4,1.8,4,4C168,308.3,166.3,310.1,164,310.1z"/>
		</g>
		<g>
			<path class="st2" d="M100.1,334.1h-64c-2.2,0-4-1.8-4-4s1.8-4,4-4h64c2.2,0,4,1.8,4,4C104.1,332.3,102.3,334.1,100.1,334.1z"/>
		</g>
		<g>
			<path class="st2" d="M255.2,262.1c-0.7,0-1.4-0.2-2.1-0.6c-1.9-1.1-2.5-3.6-1.4-5.5l28.7-48c0.7-1.2,2-1.9,3.4-1.9l0,0
				c1.4,0,2.7,0.7,3.4,1.9l27.3,45c1.2,1.9,0.5,4.4-1.3,5.5c-1.9,1.1-4.3,0.5-5.5-1.3L284,217.9l-25.3,42.3
				C257.9,261.5,256.6,262.1,255.2,262.1z"/>
		</g>
		<g>
			<path class="st2" d="M230.8,262.1c-0.8,0-1.5-0.2-2.2-0.7c-1.8-1.2-2.3-3.7-1.1-5.5l21.2-32c0.7-1.1,2-1.8,3.3-1.8l0,0
				c1.3,0,2.6,0.7,3.3,1.8l11.8,17.7c1.2,1.8,0.7,4.3-1.1,5.5c-1.9,1.2-4.3,0.7-5.5-1.1l-8.4-12.7l-17.9,27
				C233.3,261.5,232.1,262.1,230.8,262.1z"/>
		</g>
		<g>
			<path class="st2" d="M271.4,262.1H196c-2.2,0-4-1.8-4-4v-80c0-2.2,1.8-4,4-4h128c2.2,0,4,1.8,4,4v66.8c0,2.2-1.8,4-4,4
				s-4-1.8-4-4v-62.8H200v72h71.4c2.2,0,4,1.8,4,4C275.4,260.4,273.6,262.1,271.4,262.1z"/>
		</g>
		<g>
			<path class="st2" d="M219.6,214.2c-6.6,0-12-5.4-12-12s5.4-12,12-12s12,5.4,12,12S226.2,214.2,219.6,214.2z M219.6,198.2
				c-2.2,0-4,1.8-4,4s1.8,4,4,4s4-1.8,4-4S221.8,198.2,219.6,198.2z"/>
		</g>
		<g>
			<path class="st2" d="M204,286.1h-8c-2.2,0-4-1.8-4-4s1.8-4,4-4h8c2.2,0,4,1.8,4,4C208,284.3,206.2,286.1,204,286.1z"/>
		</g>
		<g>
			<path class="st2" d="M204,310.1h-8c-2.2,0-4-1.8-4-4s1.8-4,4-4h8c2.2,0,4,1.8,4,4C208,308.3,206.2,310.1,204,310.1z"/>
		</g>
		<g>
			<path class="st2" d="M212,334.1h-16c-2.2,0-4-1.8-4-4s1.8-4,4-4h16c2.2,0,4,1.8,4,4C216,332.3,214.2,334.1,212,334.1z"/>
		</g>
		<g>
			<path class="st2" d="M356,242.7c-2.2,0-4-1.8-4-4v-60.5c0-2.2,1.8-4,4-4h91.7c2.2,0,4,1.8,4,4s-1.8,4-4,4H360v56.5
				C360,240.9,358.2,242.7,356,242.7z"/>
		</g>
		<g>
			<path class="st2" d="M379.5,214.2c-6.6,0-12-5.4-12-12s5.4-12,12-12s12,5.4,12,12S386.1,214.2,379.5,214.2z M379.5,198.2
				c-2.2,0-4,1.8-4,4s1.8,4,4,4s4-1.8,4-4S381.7,198.2,379.5,198.2z"/>
		</g>
	</g>
</g>
</svg>
