<svg xmlns="http://www.w3.org/2000/svg" width="14.38" height="8.968" viewBox="0 0 14.38 8.968">
  <metadata><?xpacket begin="﻿" id="W5M0MpCehiHzreSzNTczkc9d"?>
<x:xmpmeta xmlns:x="adobe:ns:meta/" x:xmptk="Adobe XMP Core 5.6-c140 79.160451, 2017/05/06-01:08:21        ">
   <rdf:RDF xmlns:rdf="http://www.w3.org/1999/02/22-rdf-syntax-ns#">
      <rdf:Description rdf:about=""/>
   </rdf:RDF>
</x:xmpmeta>
                                                                                                    
                                                                                                    
                                                                                                    
                                                                                                    
                                                                                                    
                                                                                                    
                                                                                                    
                                                                                                    
                                                                                                    
                                                                                                    
                                                                                                    
                                                                                                    
                                                                                                    
                                                                                                    
                                                                                                    
                                                                                                    
                                                                                                    
                                                                                                    
                                                                                                    
                                                                                                    
                           
<?xpacket end="w"?></metadata>
<defs>
    <style>
      .cls-1 {
        fill: none;
        stroke: #000;
        stroke-width: 1px;
        fill-rule: evenodd;
      }
    </style>
  </defs>
  <path id="Прямоугольник_5_копия" data-name="Прямоугольник 5 копия" class="cls-1" d="M1877,540.313h12.78v0.593H1877v-0.593Zm9.34-3.7-0.43.43,3.87,3.874,0.43-.43Zm3.62,3.69,0.42,0.427-3.82,3.839-0.42-.426Z" transform="translate(-1876.5 -536.094)"/>
</svg>
