<?xml version="1.0" encoding="utf-8"?>
<!-- Generator: Adobe Illustrator 22.0.1, SVG Export Plug-In . SVG Version: 6.00 Build 0)  -->
<svg version="1.1" id="Слой_1" xmlns="http://www.w3.org/2000/svg" xmlns:xlink="http://www.w3.org/1999/xlink" x="0px" y="0px"
	 viewBox="0 0 628 628" style="enable-background:new 0 0 628 628;" xml:space="preserve">
<style type="text/css">
	.st0{fill:#00B4DB;}
</style>
<path class="st0" d="M628,546.5c0-3.6-2.9-6.5-6.5-6.5h-31V358.6h31c3.6,0,6.5-2.9,6.5-6.5v-75c0-3.6-2.9-6.5-6.5-6.5h-31V88h31
	c3.6,0,6.5-2.9,6.5-6.5v-75c0-3.6-2.9-6.5-6.5-6.5h-75c-3.6,0-6.5,2.9-6.5,6.5v31H357.4v-31c0-3.6-2.9-6.5-6.5-6.5h-75
	c-3.6,0-6.5,2.9-6.5,6.5v31h-46.8c-3.6,0-6.5,2.9-6.5,6.5s2.9,6.5,6.5,6.5h46.8v31c0,3.6,2.9,6.5,6.5,6.5h75c3.6,0,6.5-2.9,6.5-6.5
	v-31H540v31c0,3.6,2.9,6.5,6.5,6.5h31v182.5h-31c-3.6,0-6.5,2.9-6.5,6.5v75c0,3.6,2.9,6.5,6.5,6.5h31V540h-31
	c-3.6,0-6.5,2.9-6.5,6.5v31H357.4v-31c0-3.6-2.9-6.5-6.5-6.5h-75c-3.6,0-6.5,2.9-6.5,6.5v31H88v-31c0-3.6-2.9-6.5-6.5-6.5h-31V358.6
	h31c3.6,0,6.5-2.9,6.5-6.5v-75c0-3.6-2.9-6.5-6.5-6.5h-31V88h31c3.6,0,6.5-2.9,6.5-6.5v-31h46.8c3.6,0,6.5-2.9,6.5-6.5
	s-2.9-6.5-6.5-6.5H88v-31C88,2.9,85.1,0,81.5,0h-75C2.9,0,0,2.9,0,6.5v75C0,85.1,2.9,88,6.5,88h31v182.5h-31c-3.6,0-6.5,2.9-6.5,6.5
	v75c0,3.6,2.9,6.5,6.5,6.5h31V540h-31c-3.6,0-6.5,2.9-6.5,6.5v75c0,3.6,2.9,6.5,6.5,6.5h75c3.6,0,6.5-2.9,6.5-6.5v-31h181.4v31
	c0,3.6,2.9,6.5,6.5,6.5h75c3.6,0,6.5-2.9,6.5-6.5v-31H540v31c0,3.6,2.9,6.5,6.5,6.5h75c3.6,0,6.5-2.9,6.5-6.5V546.5z M344.4,75h-62
	V13h62V75z M13,75V13h62v62H13z M13,345.6v-62h62v62H13z M75,615H13v-62h62V615z M344.4,615h-62v-62h62V615z M553,75V13h62v62H553z
	 M553,345.6v-62h62v62H553z M615,615h-62v-62h62V615z"/>
<path class="st0" d="M178.7,37.5c-3.6,0-6.5,2.9-6.5,6.5s2.9,6.5,6.5,6.5s6.5-2.9,6.5-6.5S182.3,37.5,178.7,37.5z"/>
<path class="st0" d="M420.5,214c0-3.6-2.9-6.5-6.5-6.5H214c-3.6,0-6.5,2.9-6.5,6.5v37.5c0,3.6,2.9,6.5,6.5,6.5s6.5-2.9,6.5-6.5v-31
	h87v187h-31c-3.6,0-6.5,2.9-6.5,6.5s2.9,6.5,6.5,6.5h75c3.6,0,6.5-2.9,6.5-6.5s-2.9-6.5-6.5-6.5h-31v-187h87v31
	c0,3.6,2.9,6.5,6.5,6.5s6.5-2.9,6.5-6.5V214z"/>
</svg>
