<?xml version="1.0" encoding="utf-8"?>
<!-- Generator: Adobe Illustrator 22.0.1, SVG Export Plug-In . SVG Version: 6.00 Build 0)  -->
<svg version="1.1" id="Layer_1" xmlns="http://www.w3.org/2000/svg" xmlns:xlink="http://www.w3.org/1999/xlink" x="0px" y="0px"
	 viewBox="0 0 490 490" style="enable-background:new 0 0 490 490;" xml:space="preserve">
<style type="text/css">
	.st0{fill:#00B4DB;}
</style>
<g>
	<g>
		<g>
			<path class="st0" d="M345,400.1l78.5,78.5c7.4,7.4,17.1,11.4,27.5,11.4c21.5,0,38.9-17.5,38.9-38.9c0-10.4-4-20.2-11.4-27.5
				L400.1,345l14.3-14.3l-7.1-7.1L393,337.9l-18.8-18.8l1.1-2c12.2-22,18.7-47,18.7-72.1c0-1.3-0.1-2.7-0.2-4.1
				c-0.1-0.8-0.1-1.7-0.2-2.5l-0.1-2.5l2.4-0.6c35.5-8.4,60.7-39.1,62-75.3h-10c-1.3,30.6-22.3,57.1-52.1,65.1l-3.2,0.9l-0.5-3.3
				c-5.3-34.9-22.9-66.9-49.7-90.2C315.4,109,280.8,96,245,96c-1.4,0-2.7,0.1-4.1,0.2c-0.8,0.1-1.7,0.1-2.5,0.2l-2.5,0.1l-0.6-2.4
				c-8.4-35.5-39.1-60.7-75.3-62v10c30.6,1.3,57.1,22.3,65.1,52.1l0.9,3.2l-3.3,0.5c-34.9,5.3-66.9,22.9-90.2,49.7
				C109,174.6,96,209.2,96,245c0,1.4,0.1,2.7,0.2,4.1c0.1,0.8,0.1,1.7,0.2,2.5l0.1,2.5l-2.4,0.6c-35.5,8.4-60.7,39.1-62,75.3h10
				c1.3-30.6,22.3-57.1,52.1-65.1l3.2-0.9l0.5,3.3c5.3,34.9,22.9,66.9,49.7,90.2c27,23.5,61.6,36.5,97.4,36.5
				c25.2,0,50.1-6.5,72.1-18.7l2-1.1l18.8,18.8l-14.3,14.3l7.1,7.1L345,400.1z M471.5,430.6c5.5,5.5,8.5,12.7,8.5,20.5
				c0,16-13,28.9-28.9,28.9c-7.7,0-15-3-20.5-8.5L352.1,393l40.9-40.9L471.5,430.6z M241.1,106.2c0.5,0,1-0.1,1.5-0.1
				c0.8-0.1,1.6-0.1,2.4-0.1c33.5,0,65.9,12.2,91.1,34.2c25,21.8,41.4,51.8,46.2,84.5l0.4,2.9l-21.7,3.6l-0.4-3
				c-4-27.6-17.8-52.9-38.8-71.3C300.5,138.3,273.2,128,245,128c-0.1,0-0.3,0-0.4,0c-0.2,0-0.5,0-0.7,0h-2.6l-3.6-21.8H241.1z
				 M245,138c59,0,107,48,107,107s-48,107-107,107s-107-48-107-107S186,138,245,138z M106.2,248.9c0-0.5-0.1-1-0.1-1.5
				c-0.1-0.8-0.1-1.6-0.1-2.4c0-33.5,12.2-65.9,34.2-91.1c21.8-25,51.8-41.4,84.5-46.2l2.9-0.4l3.6,21.7l-3,0.4
				c-27.6,4-52.9,17.8-71.3,38.8C138.3,189.5,128,216.8,128,245c0,0.1,0,0.3,0,0.4c0,0.2,0,0.5,0,0.7v2.6l-21.8,3.6V248.9z M245,384
				c-33.5,0-65.9-12.2-91.1-34.2c-25-21.8-41.4-51.8-46.2-84.5l-0.4-2.9l21.7-3.6l0.4,3c4,27.5,17.8,52.9,38.8,71.3
				c21.3,18.6,48.6,28.9,76.8,28.9c64.5,0,117-52.5,117-117c0-0.1,0-0.3,0-0.4c0-0.2,0-0.5,0-0.7l-0.1-2.6l21.8-3.6l0.1,3.4
				c0,0.5,0.1,1,0.1,1.5c0.1,0.8,0.1,1.6,0.1,2.4C384,321.6,321.6,384,245,384z M327.8,368.7l2.9-2.1c14-9.9,26.1-22,36-36l2.1-2.9
				l17.2,17.2l-41,41L327.8,368.7z"/>
			<path class="st0" d="M421,0c-38,0-69,31-69,69s31,69,69,69s69-31,69-69S459,0,421,0z M448,121.4l-1.7,0.8
				c-8,3.8-16.5,5.8-25.3,5.8s-17.3-1.9-25.3-5.8l-1.7-0.8V109c0-14.9,12.1-27,27-27s27,12.1,27,27V121.4z M402,53
				c0-10.5,8.5-19,19-19s19,8.5,19,19s-8.5,19-19,19S402,63.5,402,53z M463.1,110.3l-5,5.1l-0.1-7.1c-0.2-12-6.3-23.2-16.2-29.9
				l-3-2.1l2.6-2.6c5.6-5.5,8.7-12.9,8.7-20.7c0-16-13-29-29-29s-29,13-29,29c0,7.8,3.1,15.2,8.7,20.7l2.6,2.6l-3,2.1
				c-9.9,6.7-16,17.9-16.2,29.9l-0.1,7.1l-5-5.1C368,99.2,362,84.5,362,69c0-32.5,26.5-59,59-59s59,26.5,59,59
				C480,84.5,474,99.2,463.1,110.3z"/>
			<path class="st0" d="M69,0C31,0,0,31,0,69s31,69,69,69s69-31,69-69S107,0,69,0z M96,121.4l-1.7,0.8c-8,3.8-16.5,5.8-25.3,5.8
				s-17.3-1.9-25.3-5.8l-1.7-0.8V109c0-14.9,12.1-27,27-27s27,12.1,27,27V121.4z M50,53c0-10.5,8.5-19,19-19s19,8.5,19,19
				s-8.5,19-19,19S50,63.5,50,53z M111.1,110.3l-5,5.1l-0.1-7.1c-0.2-12-6.3-23.2-16.2-29.9l-3-2.1l2.6-2.6
				c5.6-5.5,8.7-12.9,8.7-20.7c0-16-13-29-29-29S40,37,40,53c0,7.8,3.1,15.2,8.7,20.7l2.6,2.6l-3,2.1c-9.9,6.7-16,17.9-16.2,29.9
				l-0.1,7.1l-5-5.1C16,99.2,10,84.5,10,69c0-32.5,26.5-59,59-59s59,26.5,59,59C128,84.5,122,99.2,111.1,110.3z"/>
			<path class="st0" d="M69,352c-38,0-69,31-69,69s31,69,69,69s69-31,69-69S107,352,69,352z M96,473.4l-1.7,0.8
				c-8,3.8-16.5,5.8-25.3,5.8s-17.3-1.9-25.3-5.8l-1.7-0.8V461c0-14.9,12.1-27,27-27s27,12.1,27,27V473.4z M50,405
				c0-10.5,8.5-19,19-19s19,8.5,19,19s-8.5,19-19,19S50,415.5,50,405z M111.1,462.3l-5,5.1l-0.1-7.1c-0.2-12-6.3-23.2-16.2-29.9
				l-3-2.1l2.6-2.6c5.6-5.5,8.7-12.9,8.7-20.7c0-16-13-29-29-29s-29,13-29,29c0,7.8,3.1,15.2,8.7,20.7l2.6,2.6l-3,2.1
				c-9.9,6.7-16,17.9-16.2,29.9l-0.1,7.1l-5-5.1C16,451.2,10,436.5,10,421c0-32.5,26.5-59,59-59s59,26.5,59,59
				C128,436.5,122,451.2,111.1,462.3z"/>
			<path class="st0" d="M160,232v50h170v-82h-42v72h-22V168h-42v104h-22v-40H160z M298,210h22v62h-22V210z M234,178h22v94h-22V178z
				 M192,272h-22v-30h22V272z"/>
		</g>
	</g>
</g>
</svg>
