<?xml version="1.0" encoding="utf-8"?>
<!-- Generator: Adobe Illustrator 22.0.1, SVG Export Plug-In . SVG Version: 6.00 Build 0)  -->
<svg version="1.1" id="Layer_1" xmlns="http://www.w3.org/2000/svg" xmlns:xlink="http://www.w3.org/1999/xlink" x="0px" y="0px"
	 viewBox="0 0 590.8 487.1" style="enable-background:new 0 0 590.8 487.1;" xml:space="preserve">
<style type="text/css">
	.st0{display:none;}
	.st1{display:inline;fill:none;stroke:#000000;stroke-width:12;}
	.st2{fill:none;}
	.st3{fill:#00B4DB;}
</style>
<g class="st0">
	<path class="st1" d="M121,361.4H8.9L154.3,6h103.5l145.9,355.4H287.1l-25.2-66.1H146.7L121,361.4z M204.3,130.2L178,214h52
		L204.3,130.2z"/>
</g>
<g>
	<path d="M392.1,437.8c-81.4,0-147.7-66.2-147.7-147.7c0-81.4,66.2-147.7,147.7-147.7s147.7,66.2,147.7,147.7
		C539.7,371.5,473.5,437.8,392.1,437.8z M392.1,154.4c-74.8,0-135.7,60.9-135.7,135.7c0,74.8,60.9,135.7,135.7,135.7
		s135.7-60.9,135.7-135.7C527.7,215.3,466.9,154.4,392.1,154.4z"/>
</g>
<g>
	<path class="st2" d="M316,163.6L253.8,12h-95.4L17.9,355.4h99l25.7-66.1h101.8C244.7,236,273.4,189.3,316,163.6z M169.9,220
		l34.5-110l33.8,110H169.9z"/>
	<polygon class="st2" points="186.2,208 221.9,208 204.2,150.4 	"/>
	<path class="st3" d="M169.9,220h68.3l-33.8-110L169.9,220z M186.2,208l18-57.5l17.7,57.5H186.2z"/>
	<path class="st3" d="M244.4,289.3H142.6l-25.7,66.1h-99L158.3,12h95.4L316,163.6c3.4-2.1,7-4,10.6-5.8L261.8,0H150.3L0,367.4h125.1
		l25.7-66.1h94c-0.3-3.7-0.4-7.4-0.4-11.1C244.4,289.8,244.4,289.5,244.4,289.3z"/>
	<path class="st3" d="M392.1,142.4c-23.5,0-45.7,5.5-65.5,15.3l4.6,11.1c18.3-9.3,39-14.5,60.9-14.5c74.8,0,135.7,60.9,135.7,135.7
		c0,74.8-60.9,135.7-135.7,135.7c-71,0-129.5-54.9-135.2-124.5h-12c5.7,76.2,69.6,136.5,147.2,136.5c81.4,0,147.7-66.2,147.7-147.7
		C539.7,208.7,473.5,142.4,392.1,142.4z"/>
	<path class="st3" d="M320.6,174.8l-4.6-11.2c-42.6,25.7-71.3,72.4-71.6,125.7h12C256.7,241,282.3,198.7,320.6,174.8z"/>
	<path class="st3" d="M256.4,290.1c0-0.3,0-0.6,0-0.9h-12c0,0.3,0,0.6,0,0.9c0,3.8,0.1,7.5,0.4,11.1h12
		C256.6,297.6,256.4,293.9,256.4,290.1z"/>
	<path class="st3" d="M320.6,174.8c3.4-2.1,6.9-4.1,10.5-5.9l-4.6-11.1c-3.6,1.8-7.1,3.7-10.6,5.8L320.6,174.8z"/>
</g>
<g>
	
		<rect x="533.8" y="370.1" transform="matrix(0.7071 -0.7071 0.7071 0.7071 -150.3128 509.4422)" class="st3" width="12" height="132.2"/>
</g>
<g>
	<path class="st3" d="M474.6,226H300.3c-3.3,0-6-2.7-6-6s2.7-6,6-6h174.3c3.3,0,6,2.7,6,6S477.9,226,474.6,226z"/>
</g>
<g>
	<path class="st3" d="M325.6,277.1c-3.3,0-6-2.6-6-5.9c0-3.3,2.6-6,5.9-6.1l89.6-1c0,0,0,0,0.1,0c3.3,0,6,2.6,6,5.9
		c0,3.3-2.6,6-5.9,6.1L325.6,277.1C325.6,277.1,325.6,277.1,325.6,277.1z"/>
</g>
<g>
	<path class="st3" d="M474.6,276.1h-32.4c-3.3,0-6-2.7-6-6s2.7-6,6-6h32.4c3.3,0,6,2.7,6,6S477.9,276.1,474.6,276.1z"/>
</g>
<g>
	<path class="st3" d="M474.6,324.4H300.3c-3.3,0-6-2.7-6-6s2.7-6,6-6h174.3c3.3,0,6,2.7,6,6S477.9,324.4,474.6,324.4z"/>
</g>
<g>
	<path class="st3" d="M377.5,371c-3.3,0-6-2.6-6-5.9c0-3.3,2.6-6,5.9-6.1l97.1-1c3.3,0,6,2.6,6.1,5.9c0,3.3-2.6,6-5.9,6.1L377.5,371
		C377.5,371,377.5,371,377.5,371z"/>
</g>
</svg>
