<?xml version="1.0" encoding="utf-8"?>
<!-- Generator: Adobe Illustrator 22.0.1, SVG Export Plug-In . SVG Version: 6.00 Build 0)  -->
<svg version="1.1" id="Capa_1" xmlns="http://www.w3.org/2000/svg" xmlns:xlink="http://www.w3.org/1999/xlink" x="0px" y="0px"
	 viewBox="0 0 228.2 273.9" style="enable-background:new 0 0 228.2 273.9;" xml:space="preserve">
<style type="text/css">
	.st0{fill:#FFFFFF;}
</style>
<g>
	<path class="st0" d="M227.1,144.8c-4.9-29.5-26.6-35.2-36-36.3c-6.7-9-16.3-13.9-27.4-13.9c-2.7,0-5.2,0.4-7.4,0.8
		c-6.6-7.6-15.4-11.6-25.7-11.6c-0.2,0-0.8,0-0.8,0V46.7c0-16.3-12.2-28.6-28.5-28.6S72.8,30.4,72.8,46.7v71.6l-0.7-1
		c-5.4-8.8-14.1-13.8-23.8-13.8c-10.5,0-20.7,5.9-25.8,15.1c-4.9,8.8-4.7,19,0.7,28.1l62.3,119.4c2.5,4.8,7.4,7.8,12.7,7.8h87.8
		c7.6,0,13.9-6,14.3-13.5l2-33.2C224.1,193.6,231.3,169.6,227.1,144.8z M190.5,223.8l-2.2,35.8c-0.1,1.2-1.1,2.3-2.4,2.3H98.2
		c-0.9,0-1.7-0.5-2.1-1.3L33.6,140.9c-7.9-13.1,3.2-25.4,14.7-25.4c5,0,10.1,2.4,13.7,8.2l8,12.3c1.7,2.5,4.2,3.7,6.7,3.7
		c4.1,0,8.2-3.1,8.2-8.1V46.7c0-11,8.2-16.6,16.5-16.6s16.5,5.5,16.5,16.6V95c0,1.3,1.1,2.4,2.4,2.4c0.2,0,0.5,0,0.7-0.1
		c2.3-0.7,5.7-1.6,9.6-1.6c6.6,0,14.4,2.4,19.8,11.8c0.5,0.8,1.3,1.3,2.2,1.3c0.3,0,0.6,0,0.8-0.2c2.2-0.8,6-1.9,10.4-1.9
		c6.1,0,13.4,2.2,18.7,10.4c1.3,2,3.5,3.2,5.8,3.3c7.4,0.4,23.3,4,27,26.5c3.6,21.6-2.6,42.8-24.4,75.8
		C190.6,223,190.5,223.4,190.5,223.8z"/>
	<path class="st0" d="M22.8,77.9c0,3.3,2.7,6,6,6c3.3,0,6-2.7,6-6V20.6l12.2,12c2.3,2.3,6.2,2.3,8.6,0c2.3-2.3,2.4-6.1,0-8.5
		L33.2,1.8c-2.3-2.3-6.1-2.3-8.5,0l-23,23c-2.3,2.3-2.3,6.1,0,8.5C2.9,34.4,4.5,35,6,35c1.5,0,2.9-0.6,4.1-1.8l12.7-12.9
		C22.8,20.3,22.8,77.9,22.8,77.9z"/>
</g>
</svg>
