<?xml version="1.0" encoding="utf-8"?>
<!-- Generator: Adobe Illustrator 22.0.1, SVG Export Plug-In . SVG Version: 6.00 Build 0)  -->
<svg version="1.1" id="Layer_1" xmlns="http://www.w3.org/2000/svg" xmlns:xlink="http://www.w3.org/1999/xlink" x="0px" y="0px"
	 viewBox="0 0 477.9 511.8" style="enable-background:new 0 0 477.9 511.8;" xml:space="preserve">
<style type="text/css">
	.st0{fill:#FFFFFF;}
</style>
<g transform="translate(1 1)">
	<g>
		<g>
			<path class="st0" d="M339.5,56c-5.9-5.9-13.3-12.2-22.3-18l12.9-27.2c1.7-4.3,0-9.4-4.3-11.1s-9.4,0-11.1,4.3l-12.3,25.8
				c-16.8-8.1-37.9-13.9-63.7-13.9c-26.1,0-48,5.3-66.2,13.9L160.3,3.9c-1.7-4.3-6.8-6-11.1-4.3c-4.3,1.7-6,6.8-4.3,11.1l12.9,27.1
				c-36.7,23.4-54.2,60.8-56.4,88.1l-0.9,9.4h274.8l-0.9-9.4C372.8,108,362.5,79.9,339.5,56z M120.2,118.3
				c7.7-36.7,43.5-85.3,119.5-85.3c24.1,0,44.1,5.6,60.3,14.2c0.8,0.8,1.7,1.5,2.8,2c0.5,0.5,1.3,0.7,2.1,0.8
				c30.6,18.3,46.7,47.5,51.7,68.3L120.2,118.3L120.2,118.3z"/>
			<path class="st0" d="M41.7,152.4C17.8,152.4-1,171.2-1,195.1v119.5c0,23.9,18.8,42.7,42.7,42.7c23.9,0,42.7-18.8,42.7-42.7V195.1
				C84.3,171.2,65.6,152.4,41.7,152.4z M67.3,314.5c0,14.5-11.1,25.6-25.6,25.6S16.1,329,16.1,314.5V195.1
				c0-14.5,11.1-25.6,25.6-25.6s25.6,11.1,25.6,25.6V314.5z"/>
			<path class="st0" d="M434.2,152.4c-23.9,0-42.7,18.8-42.7,42.7v119.5c0,23.9,18.8,42.7,42.7,42.7s42.7-18.8,42.7-42.7V195.1
				C476.9,171.2,458.1,152.4,434.2,152.4z M459.8,314.5c0,14.5-11.1,25.6-25.6,25.6c-14.5,0-25.6-11.1-25.6-25.6V195.1
				c0-14.5,11.1-25.6,25.6-25.6c14.5,0,25.6,11.1,25.6,25.6V314.5z"/>
			<path class="st0" d="M101.4,399.9h34.1v76.8c0,18.8,15.4,34.1,34.1,34.1s34.1-15.4,34.1-34.1v-76.8h68.3v76.8
				c0,18.8,15.4,34.1,34.1,34.1s34.1-15.4,34.1-34.1v-76.8h34.1V152.4H101.4V399.9z M118.5,169.5h238.9v213.3h-34.1v93.9
				c0,9.4-7.7,17.1-17.1,17.1s-17.1-7.7-17.1-17.1v-93.9H186.7v93.9c0,9.4-7.7,17.1-17.1,17.1s-17.1-7.7-17.1-17.1v-93.9h-34.1
				L118.5,169.5L118.5,169.5z"/>
			<path class="st0" d="M195.3,67.1c-9.4,0-17.1,7.7-17.1,17.1s7.7,17.1,17.1,17.1s17.1-7.7,17.1-17.1
				C212.3,74.7,204.7,67.1,195.3,67.1z"/>
			<path class="st0" d="M280.6,67.1c-9.4,0-17.1,7.7-17.1,17.1s7.7,17.1,17.1,17.1s17.1-7.7,17.1-17.1
				C297.7,74.7,290,67.1,280.6,67.1z"/>
		</g>
	</g>
</g>
</svg>
