<?xml version="1.0" encoding="utf-8"?>
<!-- Generator: Adobe Illustrator 22.0.1, SVG Export Plug-In . SVG Version: 6.00 Build 0)  -->
<svg version="1.1" id="Capa_1" xmlns="http://www.w3.org/2000/svg" xmlns:xlink="http://www.w3.org/1999/xlink" x="0px" y="0px"
	 viewBox="0 0 41.1 52.2" style="enable-background:new 0 0 41.1 52.2;" xml:space="preserve">
<style type="text/css">
	.st0{fill:#FFFFFF;}
</style>
<g>
	<g>
		<path class="st0" d="M31.2,1.1L31.2,0l-1,0.1c-0.1,0-10.3,1.2-10.9,12.6l-0.1,1.1l1.1-0.1C20.4,13.7,31.9,12.8,31.2,1.1z
			 M29.3,2.3c-0.2,6.8-5.5,8.7-8,9.3C22.2,4.9,27,2.9,29.3,2.3z"/>
		<path class="st0" d="M41,37.5l-0.6-0.2c-3.9-1.2-6.5-4.8-6.5-8.8c0-3.6,2-6.8,5.3-8.4l1-0.5l-0.5-0.9c-0.2-0.4-2.4-3.9-7-5.1
			c-3.6-0.9-7.7-0.1-12.1,2.4c-1.9-1.1-8.1-4.4-13.1-1.1c-1,0.5-11.3,6.7-5.9,23.3c0.2,0.4,3.9,9.1,8.3,12.4
			c1.2,1.1,4.2,2.6,7.7,0.2c0.6-0.2,4.6-1.8,7.2,0c0.9,0.6,2.6,1.4,4.3,1.4c1.3,0,2.7-0.4,3.9-1.6c0.5-0.5,5.5-4.9,8.1-11.9l0.1-0.2
			L41,37.5z M31.6,49.1L31.6,49.1c-2.3,2.4-5.6,0.2-5.7,0.1c-1.3-0.9-2.8-1.2-4.2-1.2c-2.6,0-4.8,1-5,1.1l-0.2,0.1
			c-3,2.1-5.1,0.3-5.3,0l-0.1-0.1c-4-2.9-7.7-11.5-7.7-11.5c-5-15.6,4.6-20.7,5-20.9l0.1-0.1c4.6-3.1,11.3,1.4,11.4,1.4l0.5,0.4
			l0.6-0.3c4.2-2.5,7.9-3.4,11.2-2.5c2.6,0.7,4.3,2.3,5.2,3.3c-3.3,2.1-5.4,5.6-5.4,9.6c0,4.6,2.7,8.6,6.9,10.4
			C36.3,45.1,31.7,49.1,31.6,49.1z"/>
	</g>
</g>
</svg>
