<?xml version="1.0" encoding="utf-8"?>
<!-- Generator: Adobe Illustrator 22.0.1, SVG Export Plug-In . SVG Version: 6.00 Build 0)  -->
<svg version="1.1" id="Capa_1" xmlns="http://www.w3.org/2000/svg" xmlns:xlink="http://www.w3.org/1999/xlink" x="0px" y="0px"
	 viewBox="0 0 512 511.9" style="enable-background:new 0 0 512 511.9;" xml:space="preserve">
<style type="text/css">
	.st0{fill:#E8EDFC;}
	.st1{fill:#CAD9FC;}
	.st2{fill:#FFFFFF;}
	.st3{fill:#00B4DB;}
</style>
<path class="st0" d="M278.5,500.9H45.4c-18.5,0-33.4-15-33.4-33.4v-423C12,26,27,11,45.4,11h233.1c18.5,0,33.4,15,33.4,33.4v423
	C311.9,485.9,297,500.9,278.5,500.9z"/>
<path class="st0" d="M278.5,500.9H45.4c-18.5,0-33.4-15-33.4-33.4v-423C12,26,27,11,45.4,11h233.1c18.5,0,33.4,15,33.4,33.4v423
	C311.9,485.9,297,500.9,278.5,500.9z"/>
<path class="st1" d="M278.5,11h-21c18.5,0,33.4,15,33.4,33.4v423c0,18.5-15,33.4-33.4,33.4h21c18.5,0,33.4-15,33.4-33.4v-423
	C311.9,26,297,11,278.5,11z"/>
<rect x="12" y="76.6" class="st2" width="301.3" height="348.7"/>
<path class="st2" d="M33,467.5v-423C33,26,48,11,66.4,11h-21C27,11,12,26,12,44.5v423c0,18.5,15,33.4,33.4,33.4h21
	C48,500.9,33,485.9,33,467.5z"/>
<path class="st0" d="M206.3,268.3c0,0-44.7,22.7-54.4,31c-9.6,8.3-32.6,31.1-9.6,63.6s48.9,21.8,57.3,17.8s54.4-32.3,54.4-32.3
	L206.3,268.3z"/>
<path class="st2" d="M160.3,359.9c-23-32.4,0-55.2,9.6-63.6c6-5.2,25.3-15.8,39.3-23.1l-2.9-4.9c0,0-44.7,22.7-54.4,31
	c-9.6,8.3-32.6,31.1-9.6,63.6c19.9,28.1,42,23.8,53,19.6C184.8,381.8,172.2,376.5,160.3,359.9z"/>
<polygon class="st0" points="211,261.5 322,123.1 438,322 254,348.3 "/>
<polygon class="st1" points="418.4,324.8 438,322 322,123.1 309.7,138.5 "/>
<g>
	<g>
		<path class="st3" d="M198,32h-72c-5.5,0-10,4.5-10,10s4.5,10,10,10h72c5.5,0,10-4.5,10-10S203.5,32,198,32z"/>
	</g>
</g>
<g>
	<g>
		<path class="st3" d="M169,456.6c-1.9-1.9-4.4-2.9-7.1-2.9s-5.2,1.1-7.1,2.9s-2.9,4.4-2.9,7.1s1.1,5.2,2.9,7.1s4.4,2.9,7.1,2.9
			s5.2-1.1,7.1-2.9c1.9-1.9,2.9-4.4,2.9-7.1C172,461,170.9,458.5,169,456.6z"/>
	</g>
</g>
<g>
	<g>
		<path class="st3" d="M447.6,317.8l-36.8-63.7c15.1-14,19.1-37,8.4-55.6c-6-10.4-15.7-17.9-27.4-21c-8.3-2.2-16.9-2-25,0.5
			L330,114.3c-1.7-2.9-4.6-4.7-8-5c-3.3-0.2-6.5,1.2-8.6,3.8L199.1,259.4L151,287.1c-27.4,15.8-36.8,51-21,78.4
			c7.7,13.3,20.1,22.8,34.9,26.8c4.9,1.3,10,2,15,2c9.9,0,19.8-2.6,28.6-7.7l5.7-3.3l20,34.6H20V84h283.9v3c0,5.5,4.5,10,10,10
			s10-4.5,10-10V39.3c0-21.6-17.6-39.3-39.3-39.3H39.3C17.6,0,0,17.6,0,39.3v433.4C0,494.3,17.6,512,39.3,512h245.4
			c21.6,0,39.3-17.6,39.3-39.3V349.3l116.4-16.6c3.3-0.5,6.1-2.5,7.6-5.5C449.4,324.2,449.3,320.7,447.6,317.8z M20,39.3
			C20,28.6,28.6,20,39.3,20h245.4c10.6,0,19.3,8.6,19.3,19.3V64H20V39.3z M386.7,196.8c6.5,1.7,11.9,5.9,15.2,11.7
			c5.1,8.9,4.2,19.7-1.6,27.4l-23-39.8C380.5,195.8,383.6,196,386.7,196.8z M198.5,369.3c-8.7,5-18.7,6.3-28.4,3.7
			c-9.7-2.6-17.7-8.8-22.7-17.4c-10.3-17.9-4.2-40.8,13.7-51.1l41.1-23.7l37.4,64.8L198.5,369.3z M231.5,373.3l18-10.4l23.6,40.9
			l-18,10.4L231.5,373.3z M303.9,472.7c0,10.6-8.6,19.3-19.3,19.3H39.3c-10.6,0-19.3-8.6-19.3-19.3v-34.8h283.9V472.7L303.9,472.7z
			 M303.9,417.8h-15.2l3-1.8c4.8-2.8,6.4-8.9,3.7-13.7L269.3,357l34.7-4.9v65.7H303.9z M258.5,338.4l-40.7-70.5l72.7-92.9
			l84.7,146.7L258.5,338.4z M396.6,318.7L303.8,158l16.4-20.9L422.9,315L396.6,318.7z"/>
	</g>
</g>
<g>
	<g>
		<path class="st3" d="M510.7,146.1c-2.8-4.8-8.9-6.4-13.7-3.7l-49,28.3c-4.8,2.8-6.4,8.9-3.7,13.7c1.9,3.2,5.2,5,8.7,5
			c1.7,0,3.4-0.4,5-1.3l49-28.3C511.8,157,513.4,150.9,510.7,146.1z"/>
	</g>
</g>
<g>
	<g>
		<path class="st3" d="M420.2,102.2c-5.3-1.4-10.8,1.7-12.2,7.1l-7.1,26.7c-1.4,5.3,1.7,10.8,7.1,12.2c0.9,0.2,1.7,0.3,2.6,0.3
			c4.4,0,8.5-2.9,9.7-7.4l7.1-26.7C428.7,109.1,425.5,103.6,420.2,102.2z"/>
	</g>
</g>
<g>
	<g>
		<path class="st3" d="M496.5,233l-27.6-7.4c-5.3-1.4-10.8,1.7-12.2,7.1c-1.4,5.3,1.7,10.8,7.1,12.2l27.6,7.4
			c0.9,0.2,1.7,0.3,2.6,0.3c4.4,0,8.5-2.9,9.7-7.4C505,239.9,501.9,234.4,496.5,233z"/>
	</g>
</g>
<g>
	<g>
		<path class="st3" d="M189.6,113.1h-138c-5.5,0-10,4.5-10,10c0,5.5,4.5,10,10,10h138c5.5,0,10-4.5,10-10
			C199.6,117.6,195.2,113.1,189.6,113.1z"/>
	</g>
</g>
<g>
	<g>
		<path class="st3" d="M196.7,164.1c-1.9-1.9-4.4-2.9-7.1-2.9c-2.6,0-5.2,1.1-7.1,2.9c-1.9,1.9-2.9,4.4-2.9,7.1s1.1,5.2,2.9,7.1
			c1.9,1.9,4.4,2.9,7.1,2.9c2.6,0,5.2-1.1,7.1-2.9c1.9-1.9,2.9-4.4,2.9-7.1S198.6,165.9,196.7,164.1z"/>
	</g>
</g>
<g>
	<g>
		<path class="st3" d="M148.3,161.1H51.7c-5.5,0-10,4.5-10,10s4.5,10,10,10h96.6c5.5,0,10-4.5,10-10S153.8,161.1,148.3,161.1z"/>
	</g>
</g>
<g>
	<g>
		<path class="st3" d="M165.9,209.1H90.1c-5.5,0-10,4.5-10,10s4.5,10,10,10h75.8c5.5,0,10-4.5,10-10S171.4,209.1,165.9,209.1z"/>
	</g>
</g>
<g>
	<g>
		<path class="st3" d="M52,209.1h-0.5c-5.5,0-10,4.5-10,10s4.5,10,10,10H52c5.5,0,10-4.5,10-10S57.6,209.1,52,209.1z"/>
	</g>
</g>
</svg>
