<?xml version="1.0" encoding="utf-8"?>
<!-- Generator: Adobe Illustrator 22.0.1, SVG Export Plug-In . SVG Version: 6.00 Build 0)  -->
<svg version="1.1" id="Слой_1" xmlns="http://www.w3.org/2000/svg" xmlns:xlink="http://www.w3.org/1999/xlink" x="0px" y="0px"
	 viewBox="0 0 508 453.9" style="enable-background:new 0 0 508 453.9;" xml:space="preserve">
<style type="text/css">
	.st0{fill:#E8EDFC;}
	.st1{fill:#CAD9FC;}
	.st2{fill:#FFFFFF;}
	.st3{fill:#00B4DB;}
</style>
<path class="st0" d="M208,440.3l234.7-234.9V32.7L425.4,9.9L262.7,5l-20,11.3L12,247v28l158.7,165.3
	C170.7,440.3,187.3,454.9,208,440.3z"/>
<path class="st1" d="M425.3,9.9l-11-0.3l10.4,13.6v172.7L190.5,435.1c-8.4,6-16.7,2.7-22.9,1.9l3.1,3.2c0,0,16.7,14.6,37.3,0
	l234.7-234.9V32.7L425.3,9.9z"/>
<path class="st2" d="M191.4,441L39,278l-2.5-3.9c-4-6.3-3.9-14.5,0.3-20.7L39,250L269.7,19.3l20-11.3L427,12.1l-1.7-2.2L262.7,5
	l-20,11.3L12,247v28l158.7,165.3c0,0,12.4,10.8,29,4.5C198.4,443.9,191.4,441,191.4,441z"/>
<polygon class="st2" points="66,262.4 251.3,77 376.7,205.4 189.3,388.3 "/>
<circle class="st2" cx="368.1" cy="87.7" r="23.7"/>
<path class="st3" d="M476,79.5h-22V41.7c0-11.1-4.3-21.5-12.2-29.4C434,4.4,423.5,0.1,412.4,0.1L260.5,0c-8.1,0-15.8,3.2-21.5,8.9
	L12.2,235.7C4.3,243.6,0,254,0,265.1s4.3,21.5,12.2,29.4l147.2,147.2c7.8,7.8,18.3,12.2,29.4,12.2c11.1,0,21.6-4.3,29.4-12.2
	L361,298.9c1.5-1.5,2.3-3.5,2.3-5.7c0-2.1-0.8-4.1-2.3-5.7c-3.1-3.1-8.2-3.1-11.3,0L206.9,430.4c-4.8,4.8-11.2,7.5-18.1,7.5
	s-13.3-2.7-18.1-7.5L23.5,283.2c-4.8-4.8-7.5-11.3-7.5-18.1s2.7-13.3,7.5-18.1L250.3,20.2c2.7-2.7,6.3-4.2,10.2-4.2l151.9,0.1
	c6.8,0,13.2,2.7,18.1,7.5c4.8,4.8,7.5,11.3,7.5,18.1v85.8h-47c-4.3,0-8.3-1.7-11.3-4.7l-2.1-2.1l2.7-1.2c4.1-1.8,7.8-4.2,10.9-7.4
	c13.6-13.6,13.6-35.7,0-49.3c-6.6-6.6-15.3-10.2-24.7-10.2s-18.1,3.6-24.7,10.2c-13.6,13.6-13.6,35.7,0,49.3
	c4.9,4.9,11,8.2,17.8,9.5l1.1,0.2l0.4,1c4.7,12.3,16.7,20.6,29.9,20.6h47v49.9c0,3.8-1.5,7.5-4.2,10.2L406.2,231
	c-3.1,3.1-3.1,8.2,0,11.3s8.2,3.1,11.3,0l27.5-27.5c5.7-5.7,8.9-13.4,8.9-21.5v-49.9H476c17.6,0,32-14.4,32-32S493.6,79.5,476,79.5z
	 M360.1,102.7l-0.7,2.4l-2.2-1.2c-1.5-0.9-2.9-1.9-4.1-3.1c-7.4-7.4-7.4-19.3,0-26.7c3.6-3.6,8.3-5.5,13.3-5.5s9.8,2,13.3,5.5
	c1.1,1.1,2.1,2.4,2.9,3.8l1.3,2.2l-2.4,0.7C371.3,84,363.1,92.4,360.1,102.7z M476,127.5h-22v-32h22c8.8,0,16,7.2,16,16
	S484.8,127.5,476,127.5z"/>
<path class="st3" d="M279.4,216.9c-1-3.5-4.2-5.9-7.7-5.9c-0.7,0-1.4,0.1-2.1,0.3l-102.7,28.6c-4.2,1.2-6.7,5.6-5.6,9.9
	c1,3.4,4.1,5.9,7.7,5.9c0.7,0,1.5-0.1,2.1-0.3l102.7-28.6C278.1,225.6,280.6,221.2,279.4,216.9z"/>
<path class="st3" d="M244.9,264.9c-5.4-5.4-12.4-8-19.4-8s-14.1,2.7-19.4,8c-5.2,5.2-8.1,12.1-8.1,19.4s2.9,14.2,8.1,19.4
	c5.2,5.2,12.1,8,19.4,8c7.3,0,14.3-2.9,19.4-8C255.6,293.1,255.6,275.6,244.9,264.9z M233.6,292.5c-2.2,2.2-5.1,3.4-8.1,3.4
	c-3.1,0-6-1.2-8.1-3.4c-2.2-2.2-3.4-5-3.4-8.1s1.2-5.9,3.4-8.1s5.1-3.4,8.1-3.4c3.1,0,6,1.2,8.1,3.4c2.2,2.2,3.4,5.1,3.4,8.1
	S235.7,290.3,233.6,292.5z"/>
<path class="st3" d="M249.8,163.7c-5.2-5.2-12.1-8.1-19.4-8.1c-7.3,0-14.2,2.9-19.4,8.1c-10.7,10.7-10.7,28.2,0,38.9
	c5.2,5.2,12.1,8,19.4,8c7.3,0,14.3-2.9,19.4-8C260.6,191.8,260.6,174.4,249.8,163.7z M238.5,191.2c-2.2,2.2-5,3.4-8.1,3.4
	s-6-1.2-8.1-3.4c-4.5-4.5-4.5-11.8,0-16.2l0,0c2.2-2.2,5.1-3.4,8.1-3.4c3.1,0,6,1.2,8.1,3.4C243,179.5,243,186.8,238.5,191.2z"/>
<path class="st3" d="M384,196.7L257.2,69.9c-1.5-1.5-3.5-2.3-5.7-2.3s-4.1,0.8-5.7,2.3L141.3,174.5c-3.1,3.1-3.1,8.2,0,11.3
	s8.2,3.1,11.3,0l99-99l115.5,115.5L188.8,380.6L73.3,265.1L96,242.4c3.1-3.1,3.1-8.2,0-11.3c-1.6-1.6-3.6-2.3-5.7-2.3
	c-2,0-4.1,0.8-5.7,2.3l-28.4,28.4c-1.5,1.5-2.3,3.5-2.3,5.7s0.8,4.1,2.3,5.7L183,397.7c1.5,1.5,3.5,2.3,5.7,2.3
	c2.1,0,4.1-0.8,5.7-2.3L384,208C387.2,204.9,387.2,199.8,384,196.7z"/>
<path class="st3" d="M389.3,259.3c-1.5-1.5-3.6-2.3-5.7-2.3s-4.2,0.9-5.7,2.3s-2.3,3.6-2.3,5.7s0.9,4.2,2.3,5.7s3.6,2.3,5.7,2.3
	s4.2-0.9,5.7-2.3c1.5-1.5,2.3-3.5,2.3-5.7S390.8,260.8,389.3,259.3z"/>
<path class="st3" d="M124.3,202.8c-1.5-1.5-3.5-2.3-5.7-2.3c-2.1,0-4.2,0.9-5.7,2.3c-1.5,1.5-2.3,3.5-2.3,5.7s0.9,4.2,2.3,5.7
	c1.5,1.5,3.5,2.3,5.7,2.3c2.1,0,4.2-0.9,5.6-2.3l0,0c1.5-1.5,2.3-3.5,2.3-5.7C126.7,206.3,125.8,204.3,124.3,202.8z"/>
</svg>
